<?xml version="1.0" standalone="no"?>
<!DOCTYPE svg PUBLIC "-//W3C//DTD SVG 1.1//EN" "http://www.w3.org/Graphics/SVG/1.1/DTD/svg11.dtd" >
<svg xmlns="http://www.w3.org/2000/svg">
<metadata></metadata>
<defs>
<font id="source_sans_proregular" horiz-adv-x="966" >
<font-face units-per-em="2048" ascent="1638" descent="-410" />
<missing-glyph horiz-adv-x="409" />
<glyph horiz-adv-x="0" />
<glyph horiz-adv-x="682" />
<glyph horiz-adv-x="0" />
<glyph horiz-adv-x="0" />
<glyph unicode="&#xd;" horiz-adv-x="409" />
<glyph unicode=" "  horiz-adv-x="409" />
<glyph unicode="&#x09;" horiz-adv-x="409" />
<glyph unicode="&#xa0;" horiz-adv-x="409" />
<glyph unicode="!" horiz-adv-x="507" d="M180 53q0 41 22.5 61.5t51.5 20.5t51.5 -20.5t22.5 -61.5q0 -37 -22.5 -57.5t-51.5 -20.5t-51.5 20.5t-22.5 57.5zM221 1245v127h66v-127l-8 -893h-50z" />
<glyph unicode="&#x22;" horiz-adv-x="688" d="M172 1298v123h78v-123l-12 -286h-54zM434 1298v123h78v-123l-12 -286h-54z" />
<glyph unicode="#" d="M74 446v58h180l45 364h-184v58h188l53 405h58l-54 -405h320l53 405h58l-54 -405h168v-58h-172l-45 -364h176v-58h-184l-53 -446h-58l54 446h-320l-53 -446h-57l53 446h-172zM311 504h320l45 364h-320z" />
<glyph unicode="$" d="M127 135l37 45q27 -27 62.5 -52.5t77.5 -47t91 -34.5t105 -13q135 0 206.5 74.5t71.5 191.5q0 106 -44 173t-110.5 112t-144.5 79.5t-144.5 79.5t-110.5 110t-44 171q0 63 21.5 117.5t60.5 95.5t91.5 65.5t113.5 30.5v203h61v-201q100 -6 163 -47t116 -96l-41 -41 q-29 29 -56.5 52.5t-58 40t-68.5 25.5t-87 9q-55 0 -101.5 -19.5t-79 -53.5t-51 -80t-18.5 -97q0 -96 44 -153.5t110.5 -97.5t144.5 -74.5t144.5 -83t110.5 -123t44 -193.5q0 -74 -24.5 -132t-67.5 -100t-100.5 -66.5t-123.5 -29.5v-200h-61v202q-111 8 -197 56.5 t-143 101.5z" />
<glyph unicode="%" horiz-adv-x="1634" d="M86 954q0 205 75 313.5t208 108.5t207.5 -108.5t74.5 -313.5q0 -207 -74.5 -316.5t-207.5 -109.5t-208 110t-75 316zM147 954q0 -176 60 -274t162 -98t161.5 98t59.5 274t-59.5 272.5t-161.5 96.5t-162 -96t-60 -273zM401 -25l758 1401h66l-758 -1401h-66zM983 401 q0 205 75 313.5t208 108.5t207.5 -108.5t74.5 -313.5q0 -207 -74.5 -316.5t-207.5 -109.5t-208 110t-75 316zM1044 401q0 -176 60 -274t162 -98t161.5 98t59.5 274t-59.5 272.5t-161.5 96.5t-162 -96t-60 -273z" />
<glyph unicode="&#x26;" horiz-adv-x="1150" d="M78 340q0 66 23.5 121t62.5 104t90 92t104 84q-43 88 -67.5 174t-24.5 166q0 63 19.5 117.5t55.5 94.5t84 61.5t107 21.5q104 0 158.5 -67.5t54.5 -169.5q0 -66 -27.5 -120t-71.5 -103.5t-101.5 -94.5t-114.5 -90q72 -139 175.5 -268t211.5 -227q78 96 132.5 212.5 t90.5 251.5h62q-41 -141 -100.5 -269t-141.5 -232q143 -119 266 -166l-24 -58q-61 23 -132 67t-149 110q-74 -78 -162 -127.5t-200 -49.5q-78 0 -146.5 26t-121 73t-83 114.5t-30.5 151.5zM143 344q0 -72 26 -129t70 -97t101 -62.5t123 -22.5q90 0 170 44t145 113 q-111 104 -216 233.5t-179 270.5q-49 -37 -92 -75.5t-76 -81.5t-52.5 -90.5t-19.5 -102.5zM328 1085q0 -72 21.5 -149.5t58.5 -157.5q53 39 103 79t88 83t61.5 91t23.5 104q0 33 -8 66.5t-26.5 59t-48.5 42t-73 16.5q-47 0 -84.5 -18.5t-63.5 -50t-39 -75t-13 -90.5z" />
<glyph unicode="'" horiz-adv-x="425" d="M172 1298v123h78v-123l-12 -286h-54z" />
<glyph unicode="(" horiz-adv-x="552" d="M184 569q0 272 72 496.5t199 429.5l37 -25q-123 -195 -186.5 -424t-63.5 -477t63.5 -477t186.5 -424l-37 -24q-127 205 -199 429t-72 496z" />
<glyph unicode=")" horiz-adv-x="552" d="M61 -332q123 195 186.5 424.5t63.5 476.5q0 248 -63.5 477.5t-186.5 423.5l37 25q127 -205 199 -429t72 -497q0 -272 -72 -496.5t-199 -428.5z" />
<glyph unicode="*" horiz-adv-x="790" d="M152 1257l16 50l188 -54l13 205h53l12 -201l189 50l16 -50l-180 -69l110 -176l-45 -33l-127 168l-131 -168l-45 33l111 176z" />
<glyph unicode="+" d="M70 647v58h381v417h65v-417h381v-58h-381v-418h-65v418h-381z" />
<glyph unicode="," horiz-adv-x="425" d="M98 -258q63 37 104.5 99.5t43.5 148.5q-8 -2 -25 -2q-31 0 -52.5 18.5t-21.5 54.5q0 37 23 55.5t51 18.5q41 0 65.5 -33.5t24.5 -93.5q0 -104 -54 -185t-134 -130z" />
<glyph unicode="-" horiz-adv-x="602" d="M82 479v62h442v-62h-442z" />
<glyph unicode="." horiz-adv-x="425" d="M139 53q0 41 22.5 61.5t51.5 20.5t51.5 -20.5t22.5 -61.5q0 -37 -22.5 -57.5t-51.5 -20.5t-51.5 20.5t-22.5 57.5z" />
<glyph unicode="/" horiz-adv-x="737" d="M16 -328l656 1782h61l-655 -1782h-62z" />
<glyph unicode="0" d="M102 659q0 328 97.5 502t283.5 174t283.5 -174t97.5 -502t-97.5 -506t-283.5 -178t-283.5 178.5t-97.5 505.5zM168 659q0 -305 85 -465.5t230 -160.5t230.5 160.5t85.5 465.5t-85 462t-231 157q-145 0 -230 -156.5t-85 -462.5z" />
<glyph unicode="1" d="M176 0v57h311v1131h-233v45q78 12 138.5 32.5t103.5 45.5h53v-1254h291v-57h-664z" />
<glyph unicode="2" d="M82 1143q72 80 160 136t204 56q174 0 267.5 -98t93.5 -262q0 -100 -44 -199.5t-125 -210t-197.5 -236.5t-260.5 -280q55 4 110.5 6t110.5 2h471v-57h-786v41q166 170 289 304t205 244.5t121.5 204t39.5 181.5q0 63 -17 118.5t-54 96.5t-93.5 64.5t-134.5 23.5 q-92 0 -173 -49t-142 -127z" />
<glyph unicode="3" d="M61 160l41 45q29 -33 65 -63.5t81 -55.5t100 -39t127 -14q70 0 128.5 22.5t101.5 62.5t66.5 96t23.5 126t-27 129t-84 101t-146 65.5t-214 23.5v62q117 0 197.5 23.5t129.5 64.5t71.5 95t22.5 116q0 117 -75.5 187.5t-202.5 70.5q-92 0 -172 -43t-135 -105l-41 46 q66 66 149.5 112.5t198.5 46.5q72 0 135.5 -21.5t109.5 -61.5t72.5 -97t26.5 -131q0 -66 -19.5 -119t-53 -93t-81 -68.5t-100.5 -47.5v-8q61 -12 116.5 -41t96.5 -73t65.5 -102t24.5 -128q0 -84 -29.5 -152.5t-82 -116.5t-124 -74t-153.5 -26q-78 0 -140.5 16.5t-111.5 43 t-88 59.5t-70 66z" />
<glyph unicode="4" d="M33 401v33l626 877h41v-852h201v-58h-201v-401h-61v401h-606zM119 459h520v516q0 43 2 108.5t6 108.5h-8q-25 -41 -51.5 -77t-55.5 -79z" />
<glyph unicode="5" d="M53 152l41 45q29 -31 64 -61t79 -52.5t99 -36.5t127 -14q68 0 129 26.5t108.5 75.5t75 118t27.5 153q0 166 -91 261t-245 95q-78 0 -134.5 -24.5t-115.5 -65.5l-53 33l49 606h586v-58h-529l-45 -503q53 33 110.5 53t135.5 20q82 0 154.5 -24.5t127 -74.5t85 -129 t30.5 -185q0 -104 -34.5 -185.5t-93 -136.5t-132 -84t-149.5 -29q-78 0 -139.5 16.5t-110.5 41t-87 56.5t-69 63z" />
<glyph unicode="6" d="M111 590q0 209 38.5 351t104 230.5t152 126t180.5 37.5q86 0 149.5 -33.5t112.5 -89.5l-41 -45q-45 55 -102.5 83t-122.5 28q-80 0 -154 -35t-129 -114.5t-89 -210t-34 -318.5q70 86 157 136t183 50q174 0 267.5 -103t93.5 -302q0 -88 -28 -162t-76 -128t-111.5 -85 t-133.5 -31q-199 0 -308 161t-109 454zM178 522q6 -106 29.5 -196t66.5 -155t107.5 -101.5t150.5 -36.5q59 0 110.5 27.5t88.5 74.5t58.5 110.5t21.5 135.5q0 74 -16.5 137.5t-53 110.5t-93 73.5t-136.5 26.5q-72 0 -160 -47t-174 -160z" />
<glyph unicode="7" d="M90 1253v58h791v-37q-119 -158 -196 -305.5t-124 -298t-68.5 -314t-29.5 -356.5h-70q8 203 34 372t75 318.5t120.5 286.5t172.5 276h-705z" />
<glyph unicode="8" d="M82 336q0 68 24.5 126t62.5 105t85 84t94 62v8q-35 23 -68.5 53.5t-60 67.5t-43 81t-16.5 97q0 70 25.5 127t70.5 99t105.5 65.5t130.5 23.5q82 0 147.5 -25.5t109.5 -71.5t67.5 -108.5t23.5 -134.5q0 -55 -19.5 -106t-47.5 -95t-61.5 -80t-60.5 -59v-8q41 -27 82 -56.5 t74 -69.5t53.5 -90t20.5 -116q0 -72 -28 -133t-79 -107t-122.5 -73t-159.5 -27q-90 0 -165 28t-129.5 76t-85 113.5t-30.5 143.5zM147 336q0 -63 26 -118.5t72 -96.5t108.5 -64.5t138.5 -23.5q74 0 133 22.5t102 60.5t65.5 89t22.5 110q0 80 -36 136.5t-94 97.5t-134 72.5 t-154 62.5q-109 -61 -179.5 -147t-70.5 -201zM225 1020q0 -74 32 -127t84 -93t117.5 -68.5t131.5 -55.5q90 72 137 150.5t47 168.5q0 57 -18.5 108.5t-55 90.5t-89 61.5t-119.5 22.5q-59 0 -107.5 -19.5t-84.5 -54.5t-55.5 -82t-19.5 -102z" />
<glyph unicode="9" d="M90 930q0 88 27.5 161.5t76 128t111 85t133.5 30.5q199 0 308.5 -160.5t109.5 -453.5q0 -209 -39 -351.5t-104.5 -230.5t-151.5 -126t-180 -38q-86 0 -150.5 34t-111.5 89l41 45q45 -55 102 -82.5t123 -27.5q80 0 153.5 34.5t129 114.5t89.5 210t34 319 q-70 -86 -157 -136.5t-183 -50.5q-174 0 -267.5 103.5t-93.5 302.5zM156 930q0 -74 16 -137.5t53 -110.5t93.5 -73.5t136.5 -26.5q72 0 159.5 47t173.5 159q-6 106 -29.5 196.5t-66.5 155t-107.5 101.5t-150.5 37q-59 0 -110.5 -27.5t-88 -75t-58 -111t-21.5 -134.5z" />
<glyph unicode=":" horiz-adv-x="425" d="M139 53q0 41 23 62q23 20 51 20q29 0 51 -20q23 -20 23 -62q0 -37 -23 -57q-22 -21 -51 -21t-51 21q-23 20 -23 57zM139 852q0 41 23 61t51 21q29 0 51 -21q23 -20 23 -61q0 -37 -23 -57q-22 -21 -51 -21t-51 21q-23 20 -23 57z" />
<glyph unicode=";" horiz-adv-x="425" d="M98 -258q63 37 105 99q41 62 43 149q-8 -2 -25 -2q-31 0 -52 18q-22 18 -22 55t23 56q23 18 51 18q41 0 66 -34t24 -93q0 -104 -54 -185t-134 -130zM139 852q0 41 23 61t51 21q29 0 51 -21q23 -20 23 -61q0 -37 -23 -57q-22 -21 -51 -21t-51 21q-23 20 -23 57z" />
<glyph unicode="&#x3c;" d="M70 643v74l827 332v-66l-491 -192l-271 -107v-8l271 -107l491 -192v-66z" />
<glyph unicode="=" d="M70 444v58h827v-58h-827zM70 852v57h827v-57h-827z" />
<glyph unicode="&#x3e;" d="M70 311v66l491 192l270 107v8l-270 107l-491 192v66l827 -332v-74z" />
<glyph unicode="?" horiz-adv-x="806" d="M74 1241q59 66 137 111t182 45q74 0 131.5 -24.5t96 -66.5t59 -97.5t20.5 -118.5q0 -70 -25.5 -130.5t-63.5 -116t-80 -108.5t-76.5 -111.5t-53 -125t-8.5 -146.5h-57q-12 86 6 157t51 129t75 111.5t79 105.5t62.5 107.5t25.5 122.5q0 49 -14.5 95.5t-44 81t-76.5 56 t-111 21.5q-78 0 -149.5 -34.5t-124.5 -100.5zM299 53q0 41 22.5 61.5t51.5 20.5t51 -20.5t22 -61.5q0 -37 -22 -57.5t-51 -20.5t-51.5 20.5t-22.5 57.5z" />
<glyph unicode="@" horiz-adv-x="1642" d="M106 414q0 199 66 359.5t176.5 274t255 176t301.5 62.5q145 0 262 -46t199 -129t126 -201.5t44 -262.5q0 -129 -34 -227t-87 -166t-117.5 -101.5t-126.5 -33.5q-80 0 -133 38t-59 117h-4q-55 -59 -116.5 -101t-133.5 -42q-47 0 -88 17.5t-73 51t-50 85t-18 121.5 q0 72 24.5 151.5t72.5 147t118.5 111.5t160.5 44q111 0 172 -98h5l16 82h53l-69 -377q-74 -291 127 -291q49 0 102 31t96 90t72 146t29 200q0 135 -41 243.5t-116 184.5t-180.5 117t-236.5 41q-141 0 -273 -57.5t-234.5 -164t-164 -256t-61.5 -333.5q0 -150 44 -269.5 t125 -204.5t195.5 -131t253.5 -46q104 0 189.5 27.5t159.5 74.5l28 -49q-172 -111 -381 -111q-147 0 -271 48t-214 138.5t-140.5 221.5t-50.5 297zM557 410q0 -123 50 -172.5t122 -49.5q109 0 234 144l65 364q-41 61 -75.5 84t-84.5 23q-72 0 -130 -36t-98 -93.5t-61.5 -127 t-21.5 -136.5z" />
<glyph unicode="A" horiz-adv-x="1064" d="M20 0l484 1352h57l483 -1352h-69l-168 483h-551l-170 -483h-66zM276 541h510l-94 270q-43 123 -81 233.5t-74 237.5h-9q-37 -127 -74.5 -237.5t-80.5 -233.5z" />
<glyph unicode="B" horiz-adv-x="1175" d="M205 0v1352h352q205 0 321.5 -81t116.5 -247q0 -109 -54 -186.5t-159 -108.5v-8q135 -23 217 -104.5t82 -223.5q0 -195 -134 -294t-365 -99h-377zM270 57h287q106 0 191.5 19.5t144.5 60.5t91 103.5t32 148.5q0 154 -120 228.5t-339 74.5h-287v-635zM270 750h246 q221 0 317.5 71.5t96.5 198.5q0 152 -101.5 213t-300.5 61h-258v-544z" />
<glyph unicode="C" horiz-adv-x="1150" d="M115 680q0 160 41 289t114.5 219t179 139t234.5 49q117 0 204 -49t140 -110l-41 -46q-55 66 -131 105t-172 39q-117 0 -210 -44t-157.5 -127t-98.5 -201t-34 -263t34 -264t98.5 -203t154.5 -130t205 -46q109 0 191.5 43t160.5 129l41 -41q-78 -90 -171 -141.5t-226 -51.5 q-125 0 -227.5 50.5t-176 142.5t-113.5 222t-40 290z" />
<glyph unicode="D" horiz-adv-x="1228" d="M205 0v1352h303q156 0 270.5 -48.5t189 -137.5t110.5 -213t36 -273q0 -152 -36 -276.5t-110.5 -214t-189 -139.5t-270.5 -50h-303zM270 57h230q143 0 246.5 47.5t170 130t97 197.5t30.5 248t-30.5 245.5t-97 194.5t-170 128t-246.5 46h-230v-1237z" />
<glyph unicode="E" horiz-adv-x="1044" d="M205 0v1352h725v-58h-660v-544h553v-58h-553v-635h680v-57h-745z" />
<glyph unicode="F" horiz-adv-x="962" d="M205 0v1352h721v-58h-656v-569h553v-57h-553v-668h-65z" />
<glyph unicode="G" horiz-adv-x="1228" d="M115 680q0 160 42 289t118.5 219t186 139t243.5 49q68 0 123 -14t99 -38t77.5 -52.5t60.5 -54.5l-41 -46q-53 59 -129 101.5t-190 42.5q-121 0 -217.5 -44t-164 -127t-103.5 -201t-36 -263t35 -264t99.5 -203t157.5 -130t212 -46q98 0 184 28.5t140 81.5v447h-336v57h401 v-524q-61 -68 -160.5 -110t-232.5 -42q-129 0 -234.5 50.5t-179 142.5t-114.5 222t-41 290z" />
<glyph unicode="H" horiz-adv-x="1298" d="M205 0v1352h65v-602h758v602h66v-1352h-66v692h-758v-692h-65z" />
<glyph unicode="I" horiz-adv-x="475" d="M205 0v1352h65v-1352h-65z" />
<glyph unicode="J" horiz-adv-x="933" d="M90 168l53 33q53 -90 117 -127t154 -37q129 0 191.5 79t62.5 249v987h65v-996q0 -80 -17.5 -149.5t-55 -120.5t-100 -81t-150.5 -30q-109 0 -190 50.5t-130 142.5z" />
<glyph unicode="K" horiz-adv-x="1126" d="M205 0v1352h65v-779h4l689 779h81l-434 -496l492 -856h-78l-463 807l-291 -328v-479h-65z" />
<glyph unicode="L" horiz-adv-x="942" d="M205 0v1352h65v-1295h635v-57h-700z" />
<glyph unicode="M" horiz-adv-x="1429" d="M205 0v1352h106l291 -820l111 -307h8q29 78 53.5 154t52.5 153l291 820h107v-1352h-66v942q0 80 2 174t6 178h-8l-104 -299l-305 -843h-70l-307 843l-107 299h-8q4 -84 6 -178t2 -174v-942h-61z" />
<glyph unicode="N" horiz-adv-x="1294" d="M205 0v1352h69l598 -992l156 -266h8q-4 98 -6 191.5t-2 189.5v877h62v-1352h-70l-598 991l-156 266h-8q4 -96 6 -184t2 -184v-889h-61z" />
<glyph unicode="O" horiz-adv-x="1327" d="M115 680q0 160 41 289t113.5 219t173 139t221.5 49q119 0 220 -49t173.5 -139t113.5 -219t41 -289t-41 -290t-113.5 -222t-173.5 -142.5t-220 -50.5q-121 0 -221.5 50.5t-173 142.5t-113.5 222t-41 290zM184 680q0 -145 35 -264t97.5 -203t150.5 -130t197 -46 q106 0 195 46t151.5 130t97.5 203t35 264t-35 263t-97.5 201t-151.5 127t-195 44q-109 0 -197 -44t-150.5 -127t-97.5 -201t-35 -263z" />
<glyph unicode="P" horiz-adv-x="1110" d="M205 0v1352h323q115 0 205 -19.5t151.5 -63.5t94.5 -115t33 -171q0 -195 -123 -290t-352 -95h-267v-598h-65zM270 655h242q219 0 324.5 76t105.5 252q0 178 -108.5 244.5t-329.5 66.5h-234v-639z" />
<glyph unicode="Q" horiz-adv-x="1327" d="M115 680q0 160 41 289t113.5 219t173 139t221.5 49q119 0 220 -49t173.5 -139t113.5 -219t41 -289q0 -154 -37.5 -281t-106.5 -218t-163 -144t-207 -60q45 -106 136.5 -164.5t222.5 -58.5q47 0 78.5 5t56.5 12l16 -62q-25 -6 -66.5 -13t-88.5 -7q-166 0 -274.5 82 t-155.5 206q-113 8 -206 61.5t-161 145.5t-104.5 217t-36.5 279zM184 680q0 -145 35 -265t97.5 -205t150.5 -131t197 -46q106 0 195 46t151.5 131t97.5 205t35 265t-35 263t-97.5 201t-151.5 127t-195 44q-109 0 -197 -44t-150.5 -127t-97.5 -201t-35 -263z" />
<glyph unicode="R" horiz-adv-x="1093" d="M205 0v1352h373q100 0 180 -19.5t136 -61.5t87 -107.5t31 -159.5q0 -162 -97.5 -253.5t-267.5 -107.5l385 -643h-78l-381 639h-303v-639h-65zM270 696h283q188 0 288.5 75t100.5 233q0 160 -100.5 225t-288.5 65h-283v-598z" />
<glyph unicode="S" horiz-adv-x="1056" d="M98 180l45 45q74 -86 178.5 -137t227.5 -51q82 0 147.5 21.5t111.5 59.5t71.5 91t25.5 119q0 68 -20.5 113.5t-54 79.5t-78.5 58.5t-97 47.5l-209 94q-43 18 -91 45t-89 64.5t-67.5 92t-26.5 130.5q0 72 28.5 131t80 102t121 66.5t151.5 23.5q123 0 216 -48t153 -111 l-41 -46q-59 66 -141.5 105t-186.5 39q-141 0 -228 -70.5t-87 -187.5q0 -63 23.5 -107.5t59 -76t76.5 -53t78 -38.5l209 -94q55 -25 107.5 -54.5t92.5 -70.5t63.5 -97t23.5 -134t-31 -142.5t-86 -112.5t-133 -75t-172 -27q-152 0 -262.5 57.5t-188.5 147.5z" />
<glyph unicode="T" horiz-adv-x="1064" d="M61 1294v58h943v-58h-439v-1294h-65v1294h-439z" />
<glyph unicode="U" horiz-adv-x="1290" d="M201 504v848h65v-832q0 -139 31 -232t83 -148.5t120.5 -79t142.5 -23.5q76 0 145.5 23.5t123 79t85 148.5t31.5 232v832h62v-848q0 -158 -39 -259.5t-102.5 -161.5t-143.5 -84t-162 -24t-161 24t-141 84t-101 161.5t-39 259.5z" />
<glyph unicode="V" horiz-adv-x="987" d="M12 1352h70l262 -811q20 -63 37.5 -118.5t35 -110t35 -111t40.5 -117.5h8q20 61 38.5 117.5t36 111t35 109.5t37.5 119l262 811h66l-447 -1352h-65z" />
<glyph unicode="W" horiz-adv-x="1564" d="M61 1352h70l180 -820l99 -442h8q25 111 51.5 221.5t54.5 220.5l221 820h74l221 -820l111 -442h8q25 111 47.5 221.5t46.5 220.5l181 820h65l-311 -1352h-66l-262 971q-18 80 -36.5 151.5t-37.5 151.5h-8q-18 -80 -38.5 -151.5t-39.5 -151.5l-258 -971h-65z" />
<glyph unicode="X" horiz-adv-x="962" d="M37 0l409 700l-380 652h69l238 -418q29 -47 52.5 -86t57.5 -94h9q31 55 52 94t50 86l237 418h66l-381 -656l410 -696h-70l-250 434q-29 49 -59.5 100.5t-67.5 112.5h-8q-35 -61 -62.5 -112.5t-56.5 -100.5l-250 -434h-65z" />
<glyph unicode="Y" horiz-adv-x="892" d="M8 1352h70l217 -439q37 -74 71.5 -145.5t75.5 -144.5h9q41 74 78.5 145.5t72.5 144.5l217 439h66l-406 -795v-557h-65v557z" />
<glyph unicode="Z" horiz-adv-x="1101" d="M106 0v37l803 1257h-733v58h815v-37l-803 -1258h811v-57h-893z" />
<glyph unicode="[" horiz-adv-x="552" d="M205 -311v1761h311v-45h-262v-1671h262v-45h-311z" />
<glyph unicode="\" horiz-adv-x="737" d="M4 1454h62l655 -1782h-62z" />
<glyph unicode="]" horiz-adv-x="552" d="M37 -266h262v1671h-262v45h311v-1761h-311v45z" />
<glyph unicode="^" d="M139 598l307 774h74l307 -774h-65l-168 438l-107 271h-8l-106 -271l-168 -438h-66z" />
<glyph unicode="_" horiz-adv-x="1024" d="M25 -168h974v-65h-974v65z" />
<glyph unicode="`" horiz-adv-x="1089" d="M332 1483l49 41l270 -316l-37 -32z" />
<glyph unicode="a" horiz-adv-x="995" d="M123 240q0 164 155.5 248.5t487.5 121.5v22q0 49 -7 98q-9 61 -36 109t-75 77.5t-124 29.5q-53 0 -100 -11t-88 -29.5t-75 -39t-56 -39.5l-33 50q23 16 58.5 38.5t81.5 42t101.5 33t114.5 13.5q86 0 143.5 -30t92.5 -81t49 -117.5t14 -140.5v-635h-53l-8 131h-4 q-78 -61 -168 -108.5t-188 -47.5q-57 0 -108.5 15.5t-90.5 47.5t-61.5 82t-22.5 120zM188 242q0 -57 17.5 -97.5t48.5 -65t71 -35.5t85 -11q90 0 174 42t182 126v356q-162 -18 -272.5 -46t-178 -66.5t-97.5 -89t-30 -113.5z" />
<glyph unicode="b" horiz-adv-x="1101" d="M197 0v1479h61v-439l-4 -196q78 66 167 113t181 47q199 0 296 -136.5t97 -363.5q0 -125 -34.5 -223.5t-94 -166t-138.5 -103.5t-167 -36q-72 0 -149.5 34t-149.5 89h-4l-8 -98h-53zM258 168q86 -74 167 -104.5t140 -30.5q80 0 146.5 34.5t116 97t76 149.5t26.5 190 q0 94 -17.5 175t-57.5 140.5t-103.5 93t-153.5 33.5q-78 0 -163 -44t-177 -128v-606z" />
<glyph unicode="c" horiz-adv-x="913" d="M111 487q0 123 35.5 219.5t96 162t139.5 100.5t167 35q102 0 169.5 -38t117.5 -85l-41 -45q-49 47 -108.5 78.5t-137.5 31.5t-146.5 -33.5t-119 -94t-79 -145.5t-28.5 -186q0 -102 26.5 -185t76 -143.5t118 -93t152.5 -32.5t152.5 34.5t121.5 84.5l37 -46 q-61 -55 -138 -93t-173 -38q-94 0 -174 35t-138.5 100.5t-92 161t-33.5 215.5z" />
<glyph unicode="d" horiz-adv-x="1105" d="M111 487q0 119 34.5 214.5t95 163t139.5 103.5t169 36t157.5 -32t145.5 -91l-4 184v414h61v-1479h-53l-8 131h-4q-61 -61 -143.5 -108.5t-184.5 -47.5q-186 0 -295.5 131.5t-109.5 380.5zM176 487q0 -102 22.5 -185t66.5 -143.5t107.5 -93t147.5 -32.5q86 0 165 44 t163 128v606q-84 74 -154.5 104.5t-148.5 30.5t-145.5 -36t-117 -98t-78 -146t-28.5 -179z" />
<glyph unicode="e" horiz-adv-x="978" d="M111 487q0 119 35.5 215.5t94 163t134.5 102.5t157 36q170 0 269.5 -116t99.5 -335v-31.5t-4 -34.5h-721q0 -98 27.5 -181t78 -144.5t121 -95t158.5 -33.5q84 0 149.5 24.5t120.5 65.5l29 -53q-55 -35 -123.5 -65t-179.5 -30q-92 0 -173 35t-142.5 101.5t-96 161 t-34.5 214.5zM176 545h664q0 205 -84 303t-224 98q-66 0 -127 -27.5t-109 -80t-80 -126t-40 -167.5z" />
<glyph unicode="f" horiz-adv-x="516" d="M70 922v49l135 8v242q0 145 60.5 213.5t164.5 68.5q63 0 135 -33l-20 -53q-31 16 -60.5 22.5t-58.5 6.5q-84 0 -122 -61.5t-38 -172.5v-233h234v-57h-234v-922h-61v922h-135z" />
<glyph unicode="g" horiz-adv-x="983" d="M111 -205q0 66 39.5 129.5t107.5 112.5v8q-37 23 -61.5 61.5t-24.5 94.5q0 68 38 112.5t69 67.5v8q-47 41 -85 110.5t-38 159.5q0 74 25.5 136.5t71.5 108.5t106.5 73t132.5 27q41 0 72.5 -7.5t53.5 -17.5h328v-57h-237q53 -43 85.5 -111t32.5 -152q0 -74 -25.5 -137 t-71.5 -110t-107.5 -74t-130.5 -27q-43 0 -88.5 11.5t-79.5 33.5q-35 -29 -60.5 -63.5t-25.5 -87.5q0 -29 9 -53.5t30.5 -43t58.5 -28.5t94 -10h217q164 0 240 -53.5t76 -168.5q0 -61 -32 -120.5t-90.5 -105.5t-142.5 -73.5t-186 -27.5q-188 0 -294.5 75.5t-106.5 198.5z M176 -201q0 -98 88 -159.5t252 -61.5q88 0 158.5 23.5t120 60.5t76 85t26.5 97q0 86 -60.5 123t-177.5 37h-225q-10 0 -44 3t-75 13q-74 -49 -106.5 -107t-32.5 -114zM221 659q0 -66 22.5 -119t59.5 -90.5t86.5 -59t102.5 -21.5t102 21.5t86 59t59.5 91t22.5 118.5 q0 66 -21.5 119t-58.5 90t-86 57.5t-104 20.5t-104.5 -20.5t-86.5 -57.5t-58.5 -90t-21.5 -119z" />
<glyph unicode="h" horiz-adv-x="1069" d="M197 0v1479h61v-660q80 80 161 132.5t183 52.5q152 0 223.5 -90.5t71.5 -282.5v-631h-61v623q0 164 -55.5 243.5t-182.5 79.5q-92 0 -169 -49t-171 -147v-750h-61z" />
<glyph unicode="i" horiz-adv-x="454" d="M160 1298q0 35 20.5 52.5t48.5 17.5q29 0 49.5 -17.5t20.5 -52.5q0 -31 -20.5 -50t-49.5 -19t-49 19.5t-20 49.5zM197 0v979h61v-979h-61z" />
<glyph unicode="j" horiz-adv-x="454" d="M-61 -455l16 54q18 -6 47 -13.5t59 -7.5q43 0 70 16.5t41 46t19.5 70.5t5.5 88v1180h61v-1188q0 -141 -49.5 -205.5t-151.5 -64.5q-31 0 -63.5 7t-54.5 17zM160 1298q0 35 20.5 52.5t48.5 17.5q29 0 49.5 -17.5t20.5 -52.5q0 -31 -20.5 -50t-49.5 -19t-49 19.5t-20 49.5z " />
<glyph unicode="k" horiz-adv-x="925" d="M197 0v1479h61v-1123h4l508 623h74l-316 -385l373 -594h-70l-339 545l-234 -275v-270h-61z" />
<glyph unicode="l" horiz-adv-x="471" d="M197 106v1373h61v-1385q0 -61 41 -61h13t24 4l12 -53q-12 -4 -23.5 -6.5t-29.5 -2.5q-47 0 -72.5 30t-25.5 101z" />
<glyph unicode="m" horiz-adv-x="1650" d="M197 0v979h53l8 -156h4q68 78 150 129.5t161 51.5q121 0 183.5 -56.5t87.5 -148.5q86 96 169 150.5t167 54.5q145 0 217.5 -90.5t72.5 -282.5v-631h-61v623q0 164 -56.5 243.5t-176.5 79.5q-74 0 -150 -49t-162 -147v-750h-61v623q0 164 -56.5 243.5t-177.5 79.5 q-139 0 -311 -196v-750h-61z" />
<glyph unicode="n" horiz-adv-x="1077" d="M197 0v979h53l8 -156h4q78 78 158 129.5t182 51.5q152 0 223.5 -90.5t71.5 -282.5v-631h-61v623q0 164 -55.5 243.5t-182.5 79.5q-92 0 -169 -49t-171 -147v-750h-61z" />
<glyph unicode="o" horiz-adv-x="1089" d="M111 487q0 123 34.5 219.5t94 162t138.5 100.5t167 35t167 -35t138 -100.5t94 -162t35 -219.5q0 -121 -35 -216t-94 -160.5t-138 -100.5t-167 -35t-167 35t-138.5 100.5t-94 161t-34.5 215.5zM176 487q0 -102 28.5 -185t78 -143.5t117 -93t145.5 -32.5t145.5 32.5 t116.5 93t77.5 143.5t28.5 185q0 100 -28.5 185.5t-77.5 146t-116.5 94t-145.5 33.5t-145.5 -33.5t-117 -94t-78 -145.5t-28.5 -186z" />
<glyph unicode="p" horiz-adv-x="1105" d="M197 -455v1434h53l8 -127h4q74 59 161 105.5t179 46.5q199 0 296 -136.5t97 -363.5q0 -125 -34.5 -223.5t-94 -166t-138.5 -103.5t-167 -36q-72 0 -147.5 32t-155.5 91v-553h-61zM258 168q90 -74 169 -104.5t138 -30.5q80 0 146.5 34.5t116 97t76 149.5t26.5 190 q0 94 -17.5 175t-57.5 140.5t-103.5 93t-153.5 33.5q-78 0 -161 -44t-179 -128v-606z" />
<glyph unicode="q" horiz-adv-x="1105" d="M111 487q0 119 34.5 214.5t95 163t139.5 103.5t169 36t156.5 -31t138.5 -84h4l8 90h53v-1434h-61v389l4 201q-68 -66 -151 -113t-185 -47q-186 0 -295.5 131.5t-109.5 380.5zM176 487q0 -102 22.5 -185t66.5 -143.5t107.5 -93t147.5 -32.5q86 0 165 44t163 128v606 q-84 74 -154.5 104.5t-148.5 30.5t-145.5 -36t-117 -98t-78 -146t-28.5 -179z" />
<glyph unicode="r" horiz-adv-x="626" d="M197 0v979h53l8 -184h4q49 90 119 149.5t160 59.5q25 0 47 -5t47 -16l-17 -57q-25 10 -41 13t-45 3q-68 0 -141.5 -58.5t-132.5 -203.5v-680h-61z" />
<glyph unicode="s" horiz-adv-x="819" d="M70 111l41 49q61 -53 134.5 -90t184.5 -37q61 0 108.5 17.5t78 46t47 66.5t16.5 79q0 49 -22.5 84.5t-57.5 63.5t-79 46.5t-87 34.5q-57 20 -113.5 43t-102.5 53.5t-74.5 74.5t-28.5 108q0 51 19.5 97t58 81t96 55.5t133.5 20.5q74 0 145.5 -28t124.5 -71l-37 -49 q-49 37 -104 63.5t-133 26.5q-61 0 -106.5 -16.5t-74 -44t-43 -61t-14.5 -70.5q0 -45 20.5 -77t54.5 -55.5t76 -42t87 -34.5q57 -23 116.5 -45.5t105.5 -54t75.5 -80t29.5 -119.5q0 -53 -21.5 -102.5t-61 -86.5t-100 -59.5t-136.5 -22.5q-111 0 -201 40t-155 96z" />
<glyph unicode="t" horiz-adv-x="618" d="M61 922v49l156 8l8 287h54v-287h290v-57h-290v-672q0 -47 7 -87t25.5 -68.5t52 -45t87.5 -16.5q29 0 63.5 10t63.5 23l20 -54q-43 -16 -85 -26.5t-67 -10.5q-68 0 -111.5 20.5t-70 57.5t-37 89.5t-10.5 115.5v664h-156z" />
<glyph unicode="u" horiz-adv-x="1073" d="M180 348v631h62v-623q0 -164 55 -243.5t182 -79.5q92 0 168 51t168 162v733h62v-979h-54l-8 168h-4q-74 -86 -154 -139.5t-182 -53.5q-152 0 -223.5 90.5t-71.5 282.5z" />
<glyph unicode="v" horiz-adv-x="864" d="M25 979h69l234 -635q25 -72 51.5 -142.5t50.5 -135.5h8q25 66 51.5 136t51.5 142l233 635h66l-369 -979h-74z" />
<glyph unicode="w" horiz-adv-x="1376" d="M49 979h70l188 -660q18 -68 35.5 -130t34.5 -128h8q18 66 36.5 128.5t37.5 129.5l188 660h86l189 -660q18 -68 36.5 -130t36.5 -128h9q18 66 36.5 128.5t36.5 129.5l185 660h65l-287 -979h-86l-184 639q-23 72 -39 139.5t-39 139.5h-8q-18 -72 -37.5 -141.5t-44.5 -141.5 l-180 -635h-78z" />
<glyph unicode="x" horiz-adv-x="802" d="M29 0l336 512l-308 467h70l168 -262q25 -41 51.5 -80t54.5 -80h9q29 41 53 80t53 80l164 262h65l-307 -471l336 -508h-69l-185 283q-29 47 -58.5 92t-60.5 88h-8q-31 -43 -59.5 -88t-59.5 -92l-180 -283h-65z" />
<glyph unicode="y" horiz-adv-x="868" d="M25 979h69l250 -643q25 -61 53.5 -135t57.5 -140h8q25 66 48.5 139.5t45.5 135.5l221 643h66l-393 -1118q-18 -57 -46 -113.5t-67 -101.5t-89.5 -73t-113.5 -28q-53 0 -94 21l16 57q16 -6 38 -11t44 -5q92 0 156.5 78.5t105.5 199.5l29 90z" />
<glyph unicode="z" horiz-adv-x="811" d="M53 0v33l602 889h-536v57h618v-33l-602 -889h623v-57h-705z" />
<glyph unicode="{" horiz-adv-x="552" d="M74 545v49q53 0 88 14.5t54.5 37t26.5 52t7 60.5q0 111 -8.5 215t-8.5 219q0 76 13.5 126t41 79.5t69.5 41t98 11.5h61v-45h-65q-98 0 -131 -55.5t-33 -165.5q0 -102 6 -194.5t6 -207.5q0 -86 -19.5 -138t-78.5 -71v-8q59 -18 78.5 -71.5t19.5 -137.5q0 -115 -6 -207 t-6 -194q0 -111 32.5 -166t131.5 -55h65v-45h-61q-55 0 -97.5 11t-70 41t-41 79t-13.5 127q0 115 8.5 218t8.5 212q0 33 -7 62.5t-26.5 53t-54.5 38t-88 14.5z" />
<glyph unicode="|" horiz-adv-x="450" d="M197 -512v2048h57v-2048h-57z" />
<glyph unicode="}" horiz-adv-x="552" d="M37 -266h65q98 0 131 55t33 166q0 102 -6 194.5t-6 206.5q0 84 19.5 137.5t78.5 71.5v8q-59 18 -78.5 70.5t-19.5 138.5q0 115 6 207t6 195q0 111 -32.5 166t-131.5 55h-65v45h61q55 0 96.5 -11.5t69 -41t41.5 -79.5t14 -126q0 -115 -8 -219.5t-8 -214.5q0 -31 7 -60.5 t26.5 -52t54.5 -37t88 -14.5v-49q-53 0 -88 -14.5t-54.5 -38t-26.5 -53t-7 -62.5q0 -109 8 -212.5t8 -217.5q0 -78 -14 -127t-41.5 -79t-68.5 -41t-97 -11h-61v45z" />
<glyph unicode="~" d="M86 635q41 84 97.5 124t115.5 40q57 0 106.5 -30t93.5 -64.5t86 -64.5t87 -30q47 0 87 29t77 102l45 -28q-41 -80 -97.5 -120t-115.5 -40t-107.5 29.5t-92.5 64.5t-86 64.5t-87 29.5q-47 0 -87 -28.5t-77 -102.5z" />
<glyph unicode="&#xa1;" horiz-adv-x="507" d="M180 926q0 37 22.5 57.5t51.5 20.5t51.5 -20.5t22.5 -57.5q0 -41 -22.5 -61.5t-51.5 -20.5t-51.5 20.5t-22.5 61.5zM221 -266l8 893h50l8 -893v-127h-66v127z" />
<glyph unicode="&#xa2;" d="M127 639q0 106 30.5 189t84 141.5t124 92.5t150.5 42v231h57v-229q98 -2 165 -40t114 -83l-37 -41q-47 45 -107.5 75t-134.5 32v-820q80 2 147.5 35t119.5 80l37 -41q-59 -53 -135 -91t-169 -40v-225h-57v227q-84 8 -155.5 42t-124 93.5t-81 142.5t-28.5 187zM193 639 q0 -86 22.5 -156.5t65.5 -124t102 -86t133 -41.5v813q-70 -8 -129 -40.5t-102 -86t-67.5 -124t-24.5 -154.5z" />
<glyph unicode="&#xa3;" d="M111 606v53l135 5h53q-23 84 -46.5 164.5t-23.5 166.5q0 158 89.5 249t246.5 91q104 0 174 -44t113 -99l-45 -41q-43 53 -101.5 90t-144.5 37q-66 0 -116 -22.5t-83.5 -60.5t-50 -88t-16.5 -108q0 -88 24.5 -168.5t47.5 -166.5h342v-58h-330q18 -74 18 -160 q0 -135 -41 -222t-114 -158v-9h614v-57h-737v37q117 68 167 178.5t50 230.5q0 41 -5 81t-16 79h-204z" />
<glyph unicode="&#xa4;" d="M66 287l135 139q-37 49 -57.5 111.5t-20.5 134.5q0 76 20.5 139t57.5 113l-135 141l40 45l136 -141q47 47 109.5 71.5t131.5 24.5q68 0 130.5 -24.5t111.5 -71.5l135 141l41 -45l-137 -141q37 -49 58.5 -112.5t21.5 -139.5q0 -72 -21.5 -134.5t-56.5 -111.5l135 -139 l-41 -45l-135 139q-47 -47 -110.5 -72.5t-131.5 -25.5q-141 0 -243 98l-134 -139zM188 672q0 -74 24 -135.5t63.5 -104.5t94 -67.5t113.5 -24.5t113.5 24.5t94.5 67.5t63.5 104.5t23.5 135.5t-23.5 135t-63.5 106t-94 70t-114 25q-59 0 -113.5 -25t-94 -70t-63.5 -106.5 t-24 -134.5z" />
<glyph unicode="&#xa5;" d="M66 1311h69l205 -414q35 -68 68.5 -136.5t70.5 -146.5h8q41 78 74 146.5t70 136.5l205 414h65l-364 -701h323v-57h-348v-152h348v-57h-348v-344h-61v344h-345v57h345v152h-345v57h320z" />
<glyph unicode="&#xa6;" horiz-adv-x="450" d="M197 455h57v-967h-57v967zM197 561v975h57v-975h-57z" />
<glyph unicode="&#xa7;" d="M106 729q0 100 53.5 162.5t131.5 105.5q-33 31 -51.5 72t-18.5 94q0 39 15.5 80t48 75t83 54.5t119.5 20.5q80 0 150 -30t125 -77l-37 -45q-49 41 -103.5 67.5t-134.5 26.5q-55 0 -94 -14t-63.5 -39t-35.5 -54.5t-11 -60.5q0 -72 43 -115.5t106.5 -77.5t139 -63.5 t139 -70.5t106.5 -102.5t43 -155.5q0 -104 -50 -162t-128 -98q33 -33 52.5 -75t19.5 -100q0 -53 -23.5 -98t-62.5 -77.5t-89.5 -51t-103.5 -18.5q-104 0 -182 34.5t-137 88.5l45 45q53 -49 114.5 -80t159.5 -31t157.5 55.5t59.5 128.5q0 74 -43 120t-108.5 80t-141 63.5 t-141 70.5t-109 99.5t-43.5 152.5zM168 733q0 -86 48 -138t120 -89t151.5 -69t145.5 -77q39 18 69.5 38t52 44.5t33 57t11.5 78.5q0 88 -48.5 142t-119 92t-150.5 70.5t-143 75.5q-76 -41 -123 -91t-47 -134z" />
<glyph unicode="&#xa8;" horiz-adv-x="1089" d="M303 1298q0 29 19 48q18 18 47 18t47 -18t18 -48q0 -29 -18 -47t-47 -18t-47 18t-19 47zM655 1298q0 29 19 48q18 18 47 18t47 -18t18 -48q0 -29 -18 -47t-47 -18t-47 18t-19 47z" />
<glyph unicode="&#xa9;" horiz-adv-x="1515" d="M106 659q0 154 52.5 279t141.5 213t207 136t251 48q131 0 249.5 -48t208 -136t141.5 -213t52 -279q0 -156 -52 -281.5t-141.5 -214.5t-208 -138.5t-249.5 -49.5q-133 0 -251 49.5t-207 138.5t-141.5 215t-52.5 281zM168 659q0 -141 48 -257.5t129 -199.5t187.5 -128 t225.5 -45t225.5 45t187 128t129 199.5t48.5 257.5q0 139 -48.5 254t-129 197t-187 127t-225.5 45t-225.5 -45t-187.5 -127t-129 -196.5t-48 -254.5zM414 659q0 88 29.5 159t79.5 120t117 75.5t138 26.5q80 0 136.5 -30.5t105.5 -79.5l-37 -45q-49 47 -96 70.5t-113 23.5 q-63 0 -116.5 -22.5t-92.5 -64.5t-60.5 -101.5t-21.5 -131.5q0 -160 79 -252t208 -92q78 0 137.5 31t108.5 76l33 -45q-55 -51 -119 -87t-164 -36q-72 0 -135.5 26.5t-111.5 79t-76.5 128t-28.5 171.5z" />
<glyph unicode="&#xaa;" horiz-adv-x="684" d="M90 1008q0 106 102.5 162.5t323.5 78.5q0 41 -6 78t-22.5 64.5t-45 43t-73.5 15.5q-66 0 -128.5 -26.5t-97.5 -51.5l-24 45q37 25 105.5 55.5t148.5 30.5q117 0 158.5 -69.5t41.5 -180.5v-413h-45l-12 82h-8q-43 -37 -98 -68t-123 -31q-86 0 -141.5 47.5t-55.5 137.5z M152 1012q0 -72 39.5 -103.5t107.5 -31.5q49 0 103.5 25.5t113.5 80.5v221q-203 -23 -283.5 -71t-80.5 -121z" />
<glyph unicode="&#xab;" horiz-adv-x="794" d="M86 487v58l283 336l41 -37l-254 -328l254 -332l-41 -32zM360 487v58l283 336l41 -37l-254 -328l254 -332l-41 -32z" />
<glyph unicode="&#xac;" d="M70 647v58h827v-476h-66v418h-761z" />
<glyph unicode="&#xad;" horiz-adv-x="602" d="M82 479v62h442v-62h-442z" />
<glyph unicode="&#xae;" horiz-adv-x="802" d="M33 1061q0 88 29.5 161.5t80 126t117 81t141.5 28.5q76 0 142.5 -28.5t117 -81t80 -126t29.5 -161.5q0 -90 -29.5 -162t-80 -124t-117 -79.5t-142.5 -27.5t-142 27.5t-116.5 79.5t-80 124t-29.5 162zM90 1061q0 -74 24.5 -136.5t66.5 -107.5t98 -70.5t122 -25.5 q63 0 121 25.5t100 70.5t66.5 107.5t24.5 136.5t-24.5 136.5t-66.5 108.5t-99.5 72.5t-121.5 26.5q-66 0 -122 -26.5t-98 -72.5t-66.5 -108.5t-24.5 -136.5zM266 856v426h135q29 0 57.5 -6t50 -21.5t35 -40t13.5 -63.5q0 -41 -23.5 -72.5t-58.5 -42.5l103 -180h-70l-82 160 h-102v-160h-58zM324 1069h61q49 0 80 17.5t31 60.5q0 37 -21.5 59.5t-81.5 22.5h-69v-160z" />
<glyph unicode="&#xaf;" horiz-adv-x="1089" d="M299 1245v58h492v-58h-492z" />
<glyph unicode="&#xb0;" horiz-adv-x="622" d="M86 1163q0 57 19.5 101.5t50 75t71.5 46t84 15.5t84 -15.5t72 -46t50.5 -74.5t19.5 -102q0 -55 -19.5 -98t-50.5 -73.5t-72 -46t-84 -15.5t-84 15.5t-71.5 46t-50 73.5t-19.5 98zM143 1163q0 -78 47 -129t121 -51t121 51t47 129q0 80 -47 132.5t-121 52.5t-121 -52.5 t-47 -132.5z" />
<glyph unicode="&#xb1;" d="M70 0v57h827v-57h-827zM70 639v57h381v426h65v-426h381v-57h-381v-430h-65v430h-381z" />
<glyph unicode="&#xb4;" horiz-adv-x="1089" d="M438 1208l271 316l49 -41l-283 -307z" />
<glyph unicode="&#xb6;" horiz-adv-x="1019" d="M86 930q0 113 35 193.5t96.5 131t148.5 74t191 23.5h90v-840h-53q-115 0 -208 22.5t-159.5 72.5t-103.5 129t-37 194zM758 -164v1516h65v-1516h-65z" />
<glyph unicode="&#xb7;" horiz-adv-x="425" d="M139 659q0 41 23 62q23 20 51 20q29 0 51 -20q23 -20 23 -62q0 -37 -23 -57q-22 -20 -51 -20t-51 20q-23 20 -23 57z" />
<glyph unicode="&#xb8;" horiz-adv-x="1089" d="M401 -389q135 10 185 37q49 27 49 73q0 47 -38 71t-122 36l82 176h57l-61 -139q66 -16 104 -47q39 -31 39 -92q0 -78 -71 -118q-72 -40 -211 -50z" />
<glyph unicode="&#xba;" horiz-adv-x="733" d="M70 1163q0 82 22.5 145.5t62.5 106.5t94 65.5t116 22.5q61 0 114 -22.5t93 -65.5t63.5 -106.5t23.5 -145.5q0 -80 -23.5 -143.5t-63.5 -106.5t-93 -66.5t-114 -23.5t-115.5 23.5t-94.5 66.5t-62.5 106.5t-22.5 143.5zM131 1163q0 -127 65 -206.5t169 -79.5t168.5 79.5 t64.5 206.5q0 129 -64.5 208t-168.5 79t-169 -79t-65 -208z" />
<glyph unicode="&#xbb;" horiz-adv-x="794" d="M111 184l254 332l-254 328l41 37l282 -336v-58l-282 -335zM385 184l254 332l-254 328l41 37l283 -336v-58l-283 -335z" />
<glyph unicode="&#xbc;" horiz-adv-x="1552" d="M158 1229v45q106 23 172 78h53v-799h-57v676h-168zM360 -25l758 1401h66l-758 -1401h-66zM913 242v32l373 525h45v-504h119v-53h-119v-242h-57v242h-361zM995 295h279v192l8 209h-8l-119 -172z" />
<glyph unicode="&#xbd;" horiz-adv-x="1593" d="M158 1229v45q106 23 172 78h53v-799h-57v676h-168zM311 -25l758 1401h66l-758 -1401h-66zM958 676q35 59 99.5 103t138.5 44q109 0 175.5 -61.5t66.5 -188.5q0 -66 -27 -125t-75 -120.5t-114.5 -128t-148.5 -146.5h414v-53h-512v41q106 100 182 175t125 136.5t71.5 112.5 t22.5 104q0 92 -50 146.5t-134 54.5q-59 0 -108.5 -39t-84.5 -92z" />
<glyph unicode="&#xbe;" horiz-adv-x="1593" d="M86 680l49 37q37 -59 97.5 -97t132.5 -38q80 0 138 47t58 133q0 84 -80 128t-215 44v49q127 0 194.5 54.5t67.5 125.5q0 72 -48 116t-132 44q-49 0 -98 -30.5t-90 -80.5l-41 37q41 53 100.5 90t132.5 37q98 0 168 -55t70 -154q0 -78 -46 -129t-114 -75 q74 -12 133.5 -63.5t59.5 -137.5q0 -111 -76 -172.5t-187 -61.5q-92 0 -162.5 46.5t-111.5 105.5zM463 -25l758 1401h65l-758 -1401h-65zM954 242v32l373 525h45v-504h119v-53h-119v-242h-57v242h-361zM1036 295h279v192l8 209h-8l-119 -172z" />
<glyph unicode="&#xbf;" horiz-adv-x="806" d="M106 -111q0 72 26 131.5t63.5 114.5t79.5 108.5t77 112t53.5 125t8.5 146.5h57q10 -86 -7.5 -157t-50 -129t-74.5 -111.5t-79 -105.5t-62.5 -108.5t-25.5 -121.5q0 -49 14.5 -95.5t44 -81t75.5 -56t112 -21.5q78 0 149.5 34.5t124.5 100.5l41 -37q-59 -66 -137 -111 t-182 -45q-74 0 -131.5 24.5t-96.5 66.5t-59.5 97.5t-20.5 118.5zM360 926q0 37 23 57.5t51 20.5q29 0 51.5 -20.5t22.5 -57.5q0 -41 -22.5 -61.5t-51.5 -20.5t-51.5 20.5t-22.5 61.5z" />
<glyph unicode="&#xc0;" horiz-adv-x="1064" d="M20 0l484 1352h57l483 -1352h-69l-168 483h-551l-170 -483h-66zM276 541h510l-94 270q-43 123 -81 233q-38 111 -74 238h-9q-37 -127 -74 -238q-38 -111 -81 -233zM319 1683l45 50l242 -246l-29 -33z" />
<glyph unicode="&#xc1;" horiz-adv-x="1064" d="M20 0l484 1352h57l483 -1352h-69l-168 483h-551l-170 -483h-66zM276 541h510l-94 270q-43 123 -81 233q-38 111 -74 238h-9q-37 -127 -74 -238q-38 -111 -81 -233zM458 1487l242 246l45 -50l-258 -229z" />
<glyph unicode="&#xc2;" horiz-adv-x="1064" d="M20 0l484 1352h57l483 -1352h-69l-168 483h-551l-170 -483h-66zM266 1487l237 233h58l237 -233l-28 -33l-234 205h-8l-234 -205zM276 541h510l-94 270q-43 123 -81 233q-38 111 -74 238h-9q-37 -127 -74 -238q-38 -111 -81 -233z" />
<glyph unicode="&#xc3;" horiz-adv-x="1064" d="M20 0l484 1352h57l483 -1352h-69l-168 483h-551l-170 -483h-66zM204 1487q4 88 46 152.5t122 64.5q59 0 100.5 -26.5t75 -57.5t66.5 -57.5t78 -26.5q47 0 77.5 45t41.5 119l49 -4q-4 -88 -46 -152.5t-122 -64.5q-59 0 -100.5 26.5t-75 57t-66.5 57.5t-78 27 q-47 0 -79.5 -45.5t-39.5 -118.5zM276 541h510l-94 270q-43 123 -81 233q-38 111 -74 238h-9q-37 -127 -74 -238q-38 -111 -81 -233z" />
<glyph unicode="&#xc4;" horiz-adv-x="1064" d="M20 0l484 1352h57l483 -1352h-69l-168 483h-551l-170 -483h-66zM270 1556q0 31 18.5 48.5t46.5 17.5q29 0 47.5 -17.5t18.5 -48.5t-18.5 -48t-47.5 -17t-47 17.5t-18 47.5zM276 541h510l-94 270q-43 123 -81 233q-38 111 -74 238h-9q-37 -127 -74 -238q-38 -111 -81 -233 zM663 1556q0 31 18.5 48.5t47.5 17.5t47 -17.5t18 -48.5t-18 -48t-47 -17t-47.5 17.5t-18.5 47.5z" />
<glyph unicode="&#xc5;" horiz-adv-x="1064" d="M20 0l484 1352h57l483 -1352h-69l-168 483h-551l-170 -483h-66zM276 541h510l-94 270q-43 123 -81 233q-38 111 -74 238h-9q-37 -127 -74 -238q-38 -111 -81 -233zM360 1606q0 78 50 125t122 47q70 0 121 -47.5t51 -124.5q0 -78 -51 -125t-121 -47q-72 0 -122 47t-50 125 zM409 1606q0 -63 36 -95t87 -32q47 0 83 31.5t36 95.5q0 59 -36 93t-83 34q-51 0 -87 -34t-36 -93z" />
<glyph unicode="&#xc6;" horiz-adv-x="1646" d="M53 0l762 1352h717v-58h-619v-544h512v-58h-512v-635h639v-57h-704v463h-465l-260 -463h-70zM416 520h432v770h-8q-66 -117 -132.5 -238.5t-134.5 -248.5z" />
<glyph unicode="&#xc7;" horiz-adv-x="1150" d="M115 680q0 160 41 289t114 219q74 90 180 139q105 49 234 49q117 0 204 -49t140 -110l-41 -46q-55 66 -131 105t-172 39q-117 0 -210 -44t-158 -127t-98 -201q-34 -118 -34 -263t34 -264t98 -203q65 -84 155 -130t205 -46q109 0 191 43q83 43 161 129l41 -41 q-78 -90 -171 -141q-93 -52 -226 -52q-125 0 -228 51q-102 50 -176 142t-113 222q-40 130 -40 290zM528 -389q135 10 184.5 36.5t49.5 73.5t-38 71t-122 36l82 176h57l-61 -139q66 -16 104.5 -47t38.5 -92q0 -78 -71.5 -118t-211.5 -50z" />
<glyph unicode="&#xc8;" horiz-adv-x="1044" d="M205 0v1352h725v-58h-660v-544h553v-58h-553v-635h680v-57h-745zM362 1683l45 50l242 -246l-29 -33z" />
<glyph unicode="&#xc9;" horiz-adv-x="1044" d="M205 0v1352h725v-58h-660v-544h553v-58h-553v-635h680v-57h-745zM501 1487l242 246l45 -50l-258 -229z" />
<glyph unicode="&#xca;" horiz-adv-x="1044" d="M205 0v1352h725v-58h-660v-544h553v-58h-553v-635h680v-57h-745zM309 1487l237 233h58l237 -233l-28 -33l-234 205h-8l-234 -205z" />
<glyph unicode="&#xcb;" horiz-adv-x="1044" d="M205 0v1352h725v-58h-660v-544h553v-58h-553v-635h680v-57h-745zM313 1556q0 31 18.5 48.5t46.5 17.5q29 0 47.5 -17.5t18.5 -48.5t-18.5 -48t-47.5 -17t-47 17.5t-18 47.5zM706 1556q0 31 18.5 48.5t47.5 17.5t47 -17.5t18 -48.5t-18 -48t-47 -17t-47.5 17.5t-18.5 47.5 z" />
<glyph unicode="&#xcc;" horiz-adv-x="475" d="M25 1683l45 50l242 -246l-29 -33zM205 0v1352h65v-1352h-65z" />
<glyph unicode="&#xcd;" horiz-adv-x="475" d="M164 1487l242 246l45 -50l-258 -229zM205 0v1352h65v-1352h-65z" />
<glyph unicode="&#xce;" horiz-adv-x="475" d="M-28 1487l237 233h58l237 -233l-28 -33l-234 205h-8l-234 -205zM205 0v1352h65v-1352h-65z" />
<glyph unicode="&#xcf;" horiz-adv-x="475" d="M-24 1556q0 31 18.5 48.5t46.5 17.5q29 0 47.5 -17.5t18.5 -48.5t-18.5 -48t-47.5 -17t-47 17.5t-18 47.5zM205 0v1352h65v-1352h-65zM369 1556q0 31 18.5 48.5t47.5 17.5t47 -17.5t18 -48.5t-18 -48t-47 -17t-47.5 17.5t-18.5 47.5z" />
<glyph unicode="&#xd0;" horiz-adv-x="1269" d="M78 688v53l168 4v607h303q156 0 270.5 -48.5t189 -137.5t110.5 -213t36 -273q0 -152 -36 -276.5t-110.5 -214t-189 -139.5t-270.5 -50h-303v688h-168zM311 57h230q143 0 246.5 47.5t170 130t97 197.5t30.5 248t-30.5 245.5t-97 194.5t-170 128t-246.5 46h-230v-549h344 v-57h-344v-631z" />
<glyph unicode="&#xd1;" horiz-adv-x="1294" d="M205 0v1352h69l598 -992l156 -266h8q-4 98 -6 192q-2 93 -2 189v877h62v-1352h-70l-598 991l-156 266h-8q4 -96 6 -184t2 -184v-889h-61zM329 1487q4 88 46 152.5t122 64.5q59 0 100.5 -26.5t75 -57.5t66.5 -57.5t78 -26.5q47 0 77.5 45t41.5 119l49 -4 q-4 -88 -46 -152.5t-122 -64.5q-59 0 -100.5 26.5t-75 57t-66.5 57.5t-78 27q-47 0 -79.5 -45.5t-39.5 -118.5z" />
<glyph unicode="&#xd2;" horiz-adv-x="1327" d="M115 680q0 160 41 289t113 219q73 90 173 139t222 49q119 0 220 -49t174 -139t113 -219q41 -129 41 -289t-41 -290t-113 -222q-73 -92 -174 -142q-101 -51 -220 -51q-121 0 -222 51q-100 50 -173 142t-113 222q-41 130 -41 290zM184 680q0 -145 35 -264t97 -203t151 -130 q88 -46 197 -46q106 0 195 46t152 130q62 84 97 203t35 264t-35 263t-97 201t-152 127q-89 44 -195 44q-109 0 -197 -44t-151 -127q-62 -83 -97 -201t-35 -263zM451 1683l45 50l242 -246l-29 -33z" />
<glyph unicode="&#xd3;" horiz-adv-x="1327" d="M115 680q0 160 41 289t113 219q73 90 173 139t222 49q119 0 220 -49t174 -139t113 -219q41 -129 41 -289t-41 -290t-113 -222q-73 -92 -174 -142q-101 -51 -220 -51q-121 0 -222 51q-100 50 -173 142t-113 222q-41 130 -41 290zM184 680q0 -145 35 -264t97 -203t151 -130 q88 -46 197 -46q106 0 195 46t152 130q62 84 97 203t35 264t-35 263t-97 201t-152 127q-89 44 -195 44q-109 0 -197 -44t-151 -127q-62 -83 -97 -201t-35 -263zM590 1487l242 246l45 -50l-258 -229z" />
<glyph unicode="&#xd4;" horiz-adv-x="1327" d="M115 680q0 160 41 289t113 219q73 90 173 139t222 49q119 0 220 -49t174 -139t113 -219q41 -129 41 -289t-41 -290t-113 -222q-73 -92 -174 -142q-101 -51 -220 -51q-121 0 -222 51q-100 50 -173 142t-113 222q-41 130 -41 290zM184 680q0 -145 35 -264t97 -203t151 -130 q88 -46 197 -46q106 0 195 46t152 130q62 84 97 203t35 264t-35 263t-97 201t-152 127q-89 44 -195 44q-109 0 -197 -44t-151 -127q-62 -83 -97 -201t-35 -263zM398 1487l237 233h58l237 -233l-28 -33l-234 205h-8l-234 -205z" />
<glyph unicode="&#xd5;" horiz-adv-x="1327" d="M115 680q0 160 41 289t113 219q73 90 173 139t222 49q119 0 220 -49t174 -139t113 -219q41 -129 41 -289t-41 -290t-113 -222q-73 -92 -174 -142q-101 -51 -220 -51q-121 0 -222 51q-100 50 -173 142t-113 222q-41 130 -41 290zM184 680q0 -145 35 -264t97 -203t151 -130 q88 -46 197 -46q106 0 195 46t152 130q62 84 97 203t35 264t-35 263t-97 201t-152 127q-89 44 -195 44q-109 0 -197 -44t-151 -127q-62 -83 -97 -201t-35 -263zM336 1487q4 88 46 152.5t122 64.5q59 0 100.5 -26.5t75 -57.5t66.5 -57.5t78 -26.5q47 0 77.5 45t41.5 119 l49 -4q-4 -88 -46 -152.5t-122 -64.5q-59 0 -100.5 26.5t-75 57t-66.5 57.5t-78 27q-47 0 -79.5 -45.5t-39.5 -118.5z" />
<glyph unicode="&#xd6;" horiz-adv-x="1327" d="M115 680q0 160 41 289t113 219q73 90 173 139t222 49q119 0 220 -49t174 -139t113 -219q41 -129 41 -289t-41 -290t-113 -222q-73 -92 -174 -142q-101 -51 -220 -51q-121 0 -222 51q-100 50 -173 142t-113 222q-41 130 -41 290zM184 680q0 -145 35 -264t97 -203t151 -130 q88 -46 197 -46q106 0 195 46t152 130q62 84 97 203t35 264t-35 263t-97 201t-152 127q-89 44 -195 44q-109 0 -197 -44t-151 -127q-62 -83 -97 -201t-35 -263zM402 1556q0 31 18.5 48.5t46.5 17.5q29 0 47.5 -17.5t18.5 -48.5t-18.5 -48t-47.5 -17t-47 17.5t-18 47.5z M795 1556q0 31 18.5 48.5t47.5 17.5t47 -17.5t18 -48.5t-18 -48t-47 -17t-47.5 17.5t-18.5 47.5z" />
<glyph unicode="&#xd7;" d="M106 328l336 348l-336 348l41 45l336 -352l336 352l41 -45l-336 -348l336 -348l-41 -45l-336 352l-336 -352z" />
<glyph unicode="&#xd8;" horiz-adv-x="1327" d="M119 -8l143 194q-66 92 -102.5 216t-36.5 278q0 160 41 289t113.5 219t173 139t221.5 49q106 0 197.5 -39t162.5 -110l123 166l45 -33l-131 -176q72 -92 112 -218t40 -286t-41 -290t-114 -222t-174 -142.5t-220 -50.5q-111 0 -206 43t-167 123l-135 -182zM193 680 q0 -135 28.5 -244.5t81.5 -193.5l690 932q-125 141 -321 141q-109 0 -197 -44t-150.5 -127t-97 -201t-34.5 -263zM338 195q63 -76 147 -117t187 -41q106 0 195 46t151.5 130t97.5 203t35 264q0 141 -32 254t-89 194z" />
<glyph unicode="&#xd9;" horiz-adv-x="1290" d="M201 504v848h65v-832q0 -139 31 -232t83 -149q52 -55 121 -79t142 -23q76 0 145 23q70 24 123 79t85 149q32 93 32 232v832h62v-848q0 -158 -39 -259t-103 -162q-63 -60 -143 -84t-162 -24t-161 24t-141 84t-101 162q-39 101 -39 259zM432 1683l45 50l242 -246l-29 -33z " />
<glyph unicode="&#xda;" horiz-adv-x="1290" d="M201 504v848h65v-832q0 -139 31 -232t83 -149q52 -55 121 -79t142 -23q76 0 145 23q70 24 123 79t85 149q32 93 32 232v832h62v-848q0 -158 -39 -259t-103 -162q-63 -60 -143 -84t-162 -24t-161 24t-141 84t-101 162q-39 101 -39 259zM571 1487l242 246l45 -50l-258 -229 z" />
<glyph unicode="&#xdb;" horiz-adv-x="1290" d="M201 504v848h65v-832q0 -139 31 -232t83 -149q52 -55 121 -79t142 -23q76 0 145 23q70 24 123 79t85 149q32 93 32 232v832h62v-848q0 -158 -39 -259t-103 -162q-63 -60 -143 -84t-162 -24t-161 24t-141 84t-101 162q-39 101 -39 259zM379 1487l237 233h58l237 -233 l-28 -33l-234 205h-8l-234 -205z" />
<glyph unicode="&#xdc;" horiz-adv-x="1290" d="M201 504v848h65v-832q0 -139 31 -232t83 -149q52 -55 121 -79t142 -23q76 0 145 23q70 24 123 79t85 149q32 93 32 232v832h62v-848q0 -158 -39 -259t-103 -162q-63 -60 -143 -84t-162 -24t-161 24t-141 84t-101 162q-39 101 -39 259zM383 1556q0 31 18.5 48.5t46.5 17.5 q29 0 47.5 -17.5t18.5 -48.5t-18.5 -48t-47.5 -17t-47 17.5t-18 47.5zM776 1556q0 31 18.5 48.5t47.5 17.5t47 -17.5t18 -48.5t-18 -48t-47 -17t-47.5 17.5t-18.5 47.5z" />
<glyph unicode="&#xdd;" horiz-adv-x="892" d="M8 1352h70l217 -439q37 -74 72 -145q35 -72 75 -145h9q41 74 78 145q38 72 73 145l217 439h66l-406 -795v-557h-65v557zM372 1487l242 246l45 -50l-258 -229z" />
<glyph unicode="&#xde;" horiz-adv-x="1138" d="M205 0v1352h65v-246h287q227 0 351 -83t124 -286q0 -195 -123 -290t-352 -95h-287v-352h-65zM270 410h262q219 0 325 75.5t106 251.5q0 178 -106.5 245t-324.5 67h-262v-639z" />
<glyph unicode="&#xdf;" horiz-adv-x="1085" d="M197 0v1102q0 188 92 292.5t239 104.5q61 0 110.5 -20.5t84.5 -56.5t53.5 -84t18.5 -105q0 -80 -33 -137.5t-72 -107.5t-71.5 -100t-32.5 -114q0 -61 32.5 -100t81 -67.5t105.5 -55.5t105 -63.5t81 -92t33 -141.5q0 -59 -21.5 -110.5t-60.5 -88.5t-91.5 -58.5 t-113.5 -21.5q-80 0 -149.5 29t-124.5 78l37 49q59 -49 114.5 -73.5t122.5 -24.5q55 0 96 18.5t69 49t42 69.5t14 80q0 76 -32.5 123t-80.5 79.5t-105.5 58.5t-105.5 58.5t-81 78.5t-33 122t33 131t72 104.5t71.5 100.5t32.5 123q0 92 -51 152.5t-154 60.5 q-121 0 -193.5 -89t-72.5 -280v-1073h-61z" />
<glyph unicode="&#xe0;" horiz-adv-x="995" d="M123 240q0 164 156 248q156 85 487 122q2 59 -7 120q-9 60 -36 109q-27 48 -75 77q-48 30 -124 30q-53 0 -100 -11t-88 -30q-41 -18 -75 -39q-34 -20 -56 -39l-33 50q23 16 58 38q36 23 82 42t102 33q55 13 114 14q86 0 144 -30q57 -30 92 -81t49 -118t14 -140v-635h-53 l-8 131h-4q-78 -61 -168 -108q-90 -48 -188 -48q-57 0 -109 16q-51 15 -90 47t-62 82t-22 120zM188 242q0 -57 18 -98q17 -40 48 -64q31 -25 71 -36t85 -11q90 0 174 42t182 126v356q-162 -18 -272 -46q-111 -28 -179 -67t-97 -89q-30 -50 -30 -113zM303 1483l49 41 l271 -316l-37 -32z" />
<glyph unicode="&#xe1;" horiz-adv-x="995" d="M123 240q0 164 156 248q156 85 487 122q2 59 -7 120q-9 60 -36 109q-27 48 -75 77q-48 30 -124 30q-53 0 -100 -11t-88 -30q-41 -18 -75 -39q-34 -20 -56 -39l-33 50q23 16 58 38q36 23 82 42t102 33q55 13 114 14q86 0 144 -30q57 -30 92 -81t49 -118t14 -140v-635h-53 l-8 131h-4q-78 -61 -168 -108q-90 -48 -188 -48q-57 0 -109 16q-51 15 -90 47t-62 82t-22 120zM188 242q0 -57 18 -98q17 -40 48 -64q31 -25 71 -36t85 -11q90 0 174 42t182 126v356q-162 -18 -272 -46q-111 -28 -179 -67t-97 -89q-30 -50 -30 -113zM410 1208l270 316 l49 -41l-283 -307z" />
<glyph unicode="&#xe2;" horiz-adv-x="995" d="M123 240q0 164 156 248q156 85 487 122q2 59 -7 120q-9 60 -36 109q-27 48 -75 77q-48 30 -124 30q-53 0 -100 -11t-88 -30q-41 -18 -75 -39q-34 -20 -56 -39l-33 50q23 16 58 38q36 23 82 42t102 33q55 13 114 14q86 0 144 -30q57 -30 92 -81t49 -118t14 -140v-635h-53 l-8 131h-4q-78 -61 -168 -108q-90 -48 -188 -48q-57 0 -109 16q-51 15 -90 47t-62 82t-22 120zM188 242q0 -57 18 -98q17 -40 48 -64q31 -25 71 -36t85 -11q90 0 174 42t182 126v356q-162 -18 -272 -46q-111 -28 -179 -67t-97 -89q-30 -50 -30 -113zM246 1208l241 299h58 l241 -299l-36 -32l-230 266h-8l-229 -266z" />
<glyph unicode="&#xe3;" horiz-adv-x="995" d="M123 240q0 164 156 248q156 85 487 122q2 59 -7 120q-9 60 -36 109q-27 48 -75 77q-48 30 -124 30q-53 0 -100 -11t-88 -30q-41 -18 -75 -39q-34 -20 -56 -39l-33 50q23 16 58 38q36 23 82 42t102 33q55 13 114 14q86 0 144 -30q57 -30 92 -81t49 -118t14 -140v-635h-53 l-8 131h-4q-78 -61 -168 -108q-90 -48 -188 -48q-57 0 -109 16q-51 15 -90 47t-62 82t-22 120zM188 242q0 -57 18 -98q17 -40 48 -64q31 -25 71 -36t85 -11q90 0 174 42t182 126v356q-162 -18 -272 -46q-111 -28 -179 -67t-97 -89q-30 -50 -30 -113zM188 1196q2 43 12 88 q9 45 28 81t52 58q32 23 80 23q57 0 98 -32q40 -32 73 -71q34 -39 68 -70q34 -32 79 -32q57 0 83 61q26 60 30 140l53 -4q-4 -43 -13 -87q-8 -44 -27 -81t-50 -60q-31 -22 -80 -22q-59 0 -100 32q-40 32 -73 70q-34 39 -67 71t-78 32q-59 0 -85 -59q-26 -58 -29 -142z" />
<glyph unicode="&#xe4;" horiz-adv-x="995" d="M123 240q0 164 156 248q156 85 487 122q2 59 -7 120q-9 60 -36 109q-27 48 -75 77q-48 30 -124 30q-53 0 -100 -11t-88 -30q-41 -18 -75 -39q-34 -20 -56 -39l-33 50q23 16 58 38q36 23 82 42t102 33q55 13 114 14q86 0 144 -30q57 -30 92 -81t49 -118t14 -140v-635h-53 l-8 131h-4q-78 -61 -168 -108q-90 -48 -188 -48q-57 0 -109 16q-51 15 -90 47t-62 82t-22 120zM188 242q0 -57 18 -98q17 -40 48 -64q31 -25 71 -36t85 -11q90 0 174 42t182 126v356q-162 -18 -272 -46q-111 -28 -179 -67t-97 -89q-30 -50 -30 -113zM274 1298q0 29 19 48 q18 18 47 18t47 -18t19 -48q0 -29 -19 -47q-18 -18 -47 -18t-47 18t-19 47zM627 1298q0 29 18 48q18 18 47 18t47 -18t19 -48q0 -29 -19 -47q-18 -18 -47 -18t-47 18t-18 47z" />
<glyph unicode="&#xe5;" horiz-adv-x="995" d="M123 240q0 164 156 248q156 85 487 122q2 59 -7 120q-9 60 -36 109q-27 48 -75 77q-48 30 -124 30q-53 0 -100 -11t-88 -30q-41 -18 -75 -39q-34 -20 -56 -39l-33 50q23 16 58 38q36 23 82 42t102 33q55 13 114 14q86 0 144 -30q57 -30 92 -81t49 -118t14 -140v-635h-53 l-8 131h-4q-78 -61 -168 -108q-90 -48 -188 -48q-57 0 -109 16q-51 15 -90 47t-62 82t-22 120zM188 242q0 -57 18 -98q17 -40 48 -64q31 -25 71 -36t85 -11q90 0 174 42t182 126v356q-162 -18 -272 -46q-111 -28 -179 -67t-97 -89q-30 -50 -30 -113zM328 1311q0 86 54 139 t134 53t134 -53t55 -139q0 -86 -55 -140q-54 -53 -134 -53t-134 53t-54 140zM377 1311q0 -68 40 -108t99 -40t99 40t40 108t-40 107q-40 40 -99 40t-99 -40t-40 -107z" />
<glyph unicode="&#xe6;" horiz-adv-x="1605" d="M139 238q0 166 156 250.5t475 121.5q2 59 -7 120t-36 109t-75 77.5t-124 29.5q-47 0 -93 -11t-86 -29.5t-72.5 -39t-55.5 -39.5l-33 50q23 16 59 38.5t81 42t97 33t107 13.5q123 0 194 -71t93 -188q53 117 145.5 188t202.5 71q170 0 265.5 -116t95.5 -335v-31.5t-4 -34.5 h-693q-2 -98 26 -181t77 -144.5t116.5 -95t145.5 -33.5q84 0 145.5 24.5t116.5 65.5l29 -53q-29 -16 -57.5 -34t-62.5 -31t-77 -21.5t-98 -8.5q-68 0 -121 18.5t-96 48.5t-76 66.5t-59 75.5q-47 -47 -101.5 -86t-110 -66.5t-108.5 -42t-98 -14.5q-57 0 -108.5 15.5 t-90.5 47.5t-61.5 81t-22.5 119zM205 242q0 -57 17.5 -97.5t48 -65t70.5 -35.5t85 -11q84 0 191.5 53t197.5 152q-23 47 -34 117.5t-11 144.5v57q-154 -18 -261.5 -46t-175 -66.5t-98 -89t-30.5 -113.5zM831 541h635q0 205 -79.5 305t-219.5 100q-66 0 -123 -29.5t-102 -84 t-73.5 -129t-37.5 -162.5z" />
<glyph unicode="&#xe7;" horiz-adv-x="913" d="M111 487q0 123 35 220q36 96 97 161q60 66 139 101t167 35q102 0 170 -38t117 -85l-41 -45q-49 47 -109 78q-59 32 -137 32t-147 -34t-118 -94q-50 -60 -79 -145t-29 -186q0 -102 27 -185t76 -143t117 -93q69 -33 153 -33t152 35q69 35 122 84l37 -46q-61 -55 -138 -93 t-173 -38q-94 0 -174 35t-138 101t-93 160q-34 95 -33 216zM375 -389q135 10 184 37t49 73q0 47 -38 71t-121 36l81 176h58l-62 -139q66 -16 105 -47t39 -92q0 -78 -72 -118t-211 -50z" />
<glyph unicode="&#xe8;" horiz-adv-x="978" d="M111 487q0 119 35 215q36 96 95 163q58 67 134 103t157 36q170 0 270 -116q99 -116 99 -335v-32q0 -15 -4 -34h-721q0 -98 28 -181t78 -144t120 -95q71 -34 159 -34q84 0 150 24q66 25 120 66l29 -53q-55 -35 -124 -65q-68 -30 -179 -30q-92 0 -173 35t-142 102t-97 160 q-35 94 -34 215zM176 545h664q0 205 -84 303t-224 98q-66 0 -126 -27q-61 -28 -110 -80q-48 -52 -80 -126t-40 -168zM319 1483l50 41l270 -316l-37 -32z" />
<glyph unicode="&#xe9;" horiz-adv-x="978" d="M111 487q0 119 35 215q36 96 95 163q58 67 134 103t157 36q170 0 270 -116q99 -116 99 -335v-32q0 -15 -4 -34h-721q0 -98 28 -181t78 -144t120 -95q71 -34 159 -34q84 0 150 24q66 25 120 66l29 -53q-55 -35 -124 -65q-68 -30 -179 -30q-92 0 -173 35t-142 102t-97 160 q-35 94 -34 215zM176 545h664q0 205 -84 303t-224 98q-66 0 -126 -27q-61 -28 -110 -80q-48 -52 -80 -126t-40 -168zM426 1208l270 316l49 -41l-282 -307z" />
<glyph unicode="&#xea;" horiz-adv-x="978" d="M111 487q0 119 35 215q36 96 95 163q58 67 134 103t157 36q170 0 270 -116q99 -116 99 -335v-32q0 -15 -4 -34h-721q0 -98 28 -181t78 -144t120 -95q71 -34 159 -34q84 0 150 24q66 25 120 66l29 -53q-55 -35 -124 -65q-68 -30 -179 -30q-92 0 -173 35t-142 102t-97 160 q-35 94 -34 215zM176 545h664q0 205 -84 303t-224 98q-66 0 -126 -27q-61 -28 -110 -80q-48 -52 -80 -126t-40 -168zM262 1208l242 299h57l242 -299l-37 -32l-229 266h-9l-229 -266z" />
<glyph unicode="&#xeb;" horiz-adv-x="978" d="M111 487q0 119 35 215q36 96 95 163q58 67 134 103t157 36q170 0 270 -116q99 -116 99 -335v-32q0 -15 -4 -34h-721q0 -98 28 -181t78 -144t120 -95q71 -34 159 -34q84 0 150 24q66 25 120 66l29 -53q-55 -35 -124 -65q-68 -30 -179 -30q-92 0 -173 35t-142 102t-97 160 q-35 94 -34 215zM176 545h664q0 205 -84 303t-224 98q-66 0 -126 -27q-61 -28 -110 -80q-48 -52 -80 -126t-40 -168zM291 1298q0 29 18 48q18 18 47 18t47 -18t19 -48q0 -29 -19 -47q-18 -18 -47 -18t-47 18t-18 47zM643 1298q0 29 19 48q18 18 47 18t47 -18t18 -48 q0 -29 -18 -47t-47 -18t-47 18t-19 47z" />
<glyph unicode="&#xec;" horiz-adv-x="454" d="M14 1483l49 41l271 -316l-37 -32zM197 0v979h61v-979h-61z" />
<glyph unicode="&#xed;" horiz-adv-x="454" d="M121 1208l270 316l49 -41l-282 -307zM197 0v979h61v-979h-61z" />
<glyph unicode="&#xee;" horiz-adv-x="454" d="M-43 1208l242 299h57l242 -299l-37 -32l-230 266h-8l-229 -266zM197 0v979h61v-979h-61z" />
<glyph unicode="&#xef;" horiz-adv-x="454" d="M-14 1298q0 29 18 48q18 18 47 18t47 -18t19 -48q0 -29 -19 -47q-18 -18 -47 -18t-47 18t-18 47zM197 0v979h61v-979h-61zM338 1298q0 29 18 48q18 18 47 18t48 -18q18 -18 18 -48q0 -29 -18 -47q-19 -18 -48 -18t-47 18t-18 47z" />
<glyph unicode="&#xf0;" horiz-adv-x="1089" d="M127 446q0 100 30.5 183.5t86 144t134.5 94t175 33.5q186 0 313 -162q-29 160 -92 274.5t-153 203.5l-289 -152l-25 45l273 143q-59 53 -125 96.5t-136 84.5l33 45q76 -41 146.5 -89.5t136.5 -107.5l291 152l24 -45l-276 -146q123 -125 199.5 -301t76.5 -430 q0 -123 -29.5 -222.5t-84 -169t-129 -107.5t-162.5 -38q-80 0 -156 32t-134 93.5t-93 148.5t-35 197zM193 446q0 -90 27.5 -165.5t75.5 -131t112.5 -86t136.5 -30.5q88 0 152.5 38t106.5 103.5t61.5 152.5t19.5 185q0 72 -6 133q-41 61 -83 100t-84 60.5t-83 30t-80 8.5 q-88 0 -154.5 -33t-111.5 -88t-67.5 -127t-22.5 -150z" />
<glyph unicode="&#xf1;" horiz-adv-x="1077" d="M197 0v979h53l8 -156h4q78 78 158 129t182 52q152 0 223 -91q72 -90 72 -282v-631h-61v623q0 164 -56 243q-55 80 -182 80q-92 0 -169 -49t-171 -147v-750h-61zM244 1196q2 43 11 88t29 81q19 36 51 58q32 23 81 23q57 0 97 -32t74 -71t67 -70q34 -32 79 -32q57 0 83 61 q26 60 30 140l53 -4q-4 -43 -12 -87t-28 -81q-19 -37 -50 -60q-31 -22 -80 -22q-59 0 -99 32t-74 70q-34 39 -67 71t-77 32q-59 0 -85 -59q-26 -58 -30 -142z" />
<glyph unicode="&#xf2;" horiz-adv-x="1089" d="M111 487q0 123 34 220q35 96 95 161q59 66 138 101t167 35t167 -35t138 -101t94 -161q35 -96 35 -220q0 -121 -35 -216t-94 -160q-59 -66 -138 -101t-167 -35t-167 35t-138 101t-95 160q-35 95 -34 216zM176 487q0 -102 29 -185t78 -143t116 -93q68 -33 146 -33t145 33 q68 33 117 93t78 143t28 185q0 100 -28 186q-29 85 -78 145t-117 94t-145 34q-78 0 -146 -34t-116 -94q-49 -60 -78 -145t-29 -186zM332 1483l49 41l270 -316l-37 -32z" />
<glyph unicode="&#xf3;" horiz-adv-x="1089" d="M111 487q0 123 34 220q35 96 95 161q59 66 138 101t167 35t167 -35t138 -101t94 -161q35 -96 35 -220q0 -121 -35 -216t-94 -160q-59 -66 -138 -101t-167 -35t-167 35t-138 101t-95 160q-35 95 -34 216zM176 487q0 -102 29 -185t78 -143t116 -93q68 -33 146 -33t145 33 q68 33 117 93t78 143t28 185q0 100 -28 186q-29 85 -78 145t-117 94t-145 34q-78 0 -146 -34t-116 -94q-49 -60 -78 -145t-29 -186zM438 1208l271 316l49 -41l-283 -307z" />
<glyph unicode="&#xf4;" horiz-adv-x="1089" d="M111 487q0 123 34 220q35 96 95 161q59 66 138 101t167 35t167 -35t138 -101t94 -161q35 -96 35 -220q0 -121 -35 -216t-94 -160q-59 -66 -138 -101t-167 -35t-167 35t-138 101t-95 160q-35 95 -34 216zM176 487q0 -102 29 -185t78 -143t116 -93q68 -33 146 -33t145 33 q68 33 117 93t78 143t28 185q0 100 -28 186q-29 85 -78 145t-117 94t-145 34q-78 0 -146 -34t-116 -94q-49 -60 -78 -145t-29 -186zM274 1208l242 299h57l242 -299l-37 -32l-229 266h-8l-230 -266z" />
<glyph unicode="&#xf5;" horiz-adv-x="1089" d="M111 487q0 123 34 220q35 96 95 161q59 66 138 101t167 35t167 -35t138 -101t94 -161q35 -96 35 -220q0 -121 -35 -216t-94 -160q-59 -66 -138 -101t-167 -35t-167 35t-138 101t-95 160q-35 95 -34 216zM176 487q0 -102 29 -185t78 -143t116 -93q68 -33 146 -33t145 33 q68 33 117 93t78 143t28 185q0 100 -28 186q-29 85 -78 145t-117 94t-145 34q-78 0 -146 -34t-116 -94q-49 -60 -78 -145t-29 -186zM217 1196q2 43 11 88t29 81q19 36 51 58q32 23 81 23q57 0 97 -32t74 -71t68 -70q34 -32 79 -32q57 0 83 61q26 60 29 140l53 -4 q-4 -43 -12 -87t-27 -81t-51 -60q-31 -22 -80 -22q-59 0 -99 32t-74 70q-34 39 -66 71q-33 32 -78 32q-59 0 -85 -59q-26 -58 -30 -142z" />
<glyph unicode="&#xf6;" horiz-adv-x="1089" d="M111 487q0 123 34 220q35 96 95 161q59 66 138 101t167 35t167 -35t138 -101t94 -161q35 -96 35 -220q0 -121 -35 -216t-94 -160q-59 -66 -138 -101t-167 -35t-167 35t-138 101t-95 160q-35 95 -34 216zM176 487q0 -102 29 -185t78 -143t116 -93q68 -33 146 -33t145 33 q68 33 117 93t78 143t28 185q0 100 -28 186q-29 85 -78 145t-117 94t-145 34q-78 0 -146 -34t-116 -94q-49 -60 -78 -145t-29 -186zM303 1298q0 29 19 48q18 18 47 18t47 -18t18 -48q0 -29 -18 -47t-47 -18t-47 18t-19 47zM655 1298q0 29 19 48q18 18 47 18t47 -18t18 -48 q0 -29 -18 -47t-47 -18t-47 18t-19 47z" />
<glyph unicode="&#xf7;" d="M70 647v58h827v-58h-827zM418 307q0 31 18.5 50.5t46.5 19.5q29 0 47.5 -19.5t18.5 -50.5q0 -35 -18.5 -54.5t-47.5 -19.5t-47 19.5t-18 54.5zM418 1044q0 31 18.5 50.5t46.5 19.5q29 0 47.5 -19.5t18.5 -50.5q0 -35 -18.5 -54t-47.5 -19t-47 19.5t-18 53.5z" />
<glyph unicode="&#xf8;" horiz-adv-x="1089" d="M94 -8l123 147q-49 66 -77.5 152t-28.5 196q0 123 34.5 219.5t94 162t138.5 100.5t167 35q84 0 157.5 -31t133.5 -90l114 137l45 -37l-121 -145q49 -66 77 -153t28 -198q0 -121 -35 -216t-94 -160.5t-138 -100.5t-167 -35q-82 0 -156 30t-133 89l-117 -139zM176 487 q0 -90 21.5 -164.5t60.5 -132.5l537 644q-49 53 -113 82.5t-137 29.5q-78 0 -145.5 -33.5t-117 -94t-78 -145.5t-28.5 -186zM295 143q49 -53 112.5 -81.5t137.5 -28.5q78 0 145.5 32.5t116.5 93t77.5 143.5t28.5 185q0 90 -21.5 165t-60.5 134z" />
<glyph unicode="&#xf9;" horiz-adv-x="1073" d="M180 348v631h62v-623q0 -164 55 -243q55 -80 182 -80q92 0 168 51t168 162v733h62v-979h-54l-8 168h-4q-74 -86 -154 -139q-80 -54 -182 -54q-152 0 -223 91q-72 90 -72 282zM324 1483l49 41l270 -316l-37 -32z" />
<glyph unicode="&#xfa;" horiz-adv-x="1073" d="M180 348v631h62v-623q0 -164 55 -243q55 -80 182 -80q92 0 168 51t168 162v733h62v-979h-54l-8 168h-4q-74 -86 -154 -139q-80 -54 -182 -54q-152 0 -223 91q-72 90 -72 282zM430 1208l270 316l50 -41l-283 -307z" />
<glyph unicode="&#xfb;" horiz-adv-x="1073" d="M180 348v631h62v-623q0 -164 55 -243q55 -80 182 -80q92 0 168 51t168 162v733h62v-979h-54l-8 168h-4q-74 -86 -154 -139q-80 -54 -182 -54q-152 0 -223 91q-72 90 -72 282zM266 1208l242 299h57l242 -299l-37 -32l-229 266h-9l-229 -266z" />
<glyph unicode="&#xfc;" horiz-adv-x="1073" d="M180 348v631h62v-623q0 -164 55 -243q55 -80 182 -80q92 0 168 51t168 162v733h62v-979h-54l-8 168h-4q-74 -86 -154 -139q-80 -54 -182 -54q-152 0 -223 91q-72 90 -72 282zM295 1298q0 29 18 48q18 18 47 18t48 -18q18 -18 18 -48q0 -29 -18 -47q-19 -18 -48 -18 t-47 18t-18 47zM647 1298q0 29 19 48q18 18 47 18t47 -18t18 -48q0 -29 -18 -47t-47 -18t-47 18t-19 47z" />
<glyph unicode="&#xfd;" horiz-adv-x="868" d="M25 979h69l250 -643q25 -61 53 -135q29 -74 58 -140h8q25 66 48 140q24 74 46 135l221 643h66l-393 -1118q-18 -57 -47 -114q-28 -56 -66 -101q-39 -45 -89 -73q-51 -28 -114 -28q-53 0 -94 21l16 57q16 -6 38 -11t44 -5q92 0 157 79t105 199l29 90zM352 1208l271 316 l49 -41l-283 -307z" />
<glyph unicode="&#xfe;" horiz-adv-x="1105" d="M197 -455v1934h61v-627q78 59 165 105.5t179 46.5q199 0 296 -136.5t97 -363.5q0 -125 -34.5 -223.5t-94 -166t-138.5 -103.5t-167 -36q-72 0 -147.5 32t-155.5 91v-553h-61zM258 168q90 -74 169 -104.5t138 -30.5q80 0 146.5 34.5t116 97t76 149.5t26.5 190 q0 94 -17.5 175t-57.5 140.5t-103.5 93t-153.5 33.5q-78 0 -161 -44t-179 -128v-606z" />
<glyph unicode="&#xff;" horiz-adv-x="868" d="M25 979h69l250 -643q25 -61 53 -135q29 -74 58 -140h8q25 66 48 140q24 74 46 135l221 643h66l-393 -1118q-18 -57 -47 -114q-28 -56 -66 -101q-39 -45 -89 -73q-51 -28 -114 -28q-53 0 -94 21l16 57q16 -6 38 -11t44 -5q92 0 157 79t105 199l29 90zM217 1298q0 29 19 48 q18 18 47 18t47 -18t18 -48q0 -29 -18 -47t-47 -18t-47 18t-19 47zM569 1298q0 29 19 48q18 18 47 18t47 -18t18 -48q0 -29 -18 -47t-47 -18t-47 18t-19 47z" />
<glyph unicode="&#x152;" horiz-adv-x="1695" d="M115 680q0 150 39 273.5t117.5 212.5t197.5 137.5t281 48.5h831v-58h-618v-544h512v-58h-512v-635h639v-57h-852q-162 0 -281 50t-197.5 139.5t-117.5 214t-39 276.5zM184 680q0 -133 34 -248t104.5 -197.5t178 -130t257.5 -47.5h139v1237h-139q-150 0 -257.5 -46 t-178 -128t-104.5 -194.5t-34 -245.5z" />
<glyph unicode="&#x153;" horiz-adv-x="1744" d="M111 487q0 123 34.5 219.5t93 162t136.5 100.5t162 35q121 0 228 -77t161 -231q53 141 151.5 224.5t220.5 83.5q170 0 269.5 -116t99.5 -335v-31.5t-4 -34.5h-705q-2 -98 27 -181t78 -144.5t117.5 -95t146.5 -33.5q84 0 149.5 24.5t120.5 65.5l29 -53q-55 -35 -123.5 -65 t-179.5 -30q-135 0 -239.5 82t-157.5 222q-55 -152 -155.5 -228t-233.5 -76q-84 0 -162 35t-136.5 100.5t-93 161t-34.5 215.5zM176 487q0 -102 27.5 -185t76 -143.5t114 -93t143.5 -32.5t144.5 32.5t114.5 93t74.5 143.5t26.5 185q0 100 -26.5 185.5t-74.5 146t-115 94 t-144 33.5q-78 0 -143.5 -33.5t-114 -94t-76 -145.5t-27.5 -186zM958 541h648q0 205 -84 305t-224 100q-66 0 -123 -29.5t-103 -84t-75.5 -129t-38.5 -162.5z" />
<glyph unicode="&#x178;" horiz-adv-x="892" d="M8 1352h70l217 -439q37 -74 72 -145q35 -72 75 -145h9q41 74 78 145q38 72 73 145l217 439h66l-406 -795v-557h-65v557zM184 1556q0 31 18.5 48.5t46.5 17.5q29 0 47.5 -17.5t18.5 -48.5t-18.5 -48t-47.5 -17t-47 17.5t-18 47.5zM577 1556q0 31 18.5 48.5t47.5 17.5 t47 -17.5t18 -48.5t-18 -48t-47 -17t-47.5 17.5t-18.5 47.5z" />
<glyph unicode="&#x2c6;" horiz-adv-x="1089" d="M274 1208l242 299h57l242 -299l-37 -32l-229 266h-8l-230 -266z" />
<glyph unicode="&#x2dc;" horiz-adv-x="1089" d="M217 1196q2 43 11 88t29 81q19 36 51 58q32 23 81 23q57 0 97 -32t74 -71t68 -70q34 -32 79 -32q57 0 83 61q26 60 29 140l53 -4q-4 -43 -12 -87t-27 -81t-51 -60q-31 -22 -80 -22q-59 0 -99 32t-74 70q-34 39 -66 71q-33 32 -78 32q-59 0 -85 -59q-26 -58 -30 -142z" />
<glyph unicode="&#x2000;" horiz-adv-x="889" />
<glyph unicode="&#x2001;" horiz-adv-x="1778" />
<glyph unicode="&#x2002;" horiz-adv-x="889" />
<glyph unicode="&#x2003;" horiz-adv-x="1778" />
<glyph unicode="&#x2004;" horiz-adv-x="592" />
<glyph unicode="&#x2005;" horiz-adv-x="444" />
<glyph unicode="&#x2006;" horiz-adv-x="296" />
<glyph unicode="&#x2007;" horiz-adv-x="296" />
<glyph unicode="&#x2008;" horiz-adv-x="222" />
<glyph unicode="&#x2009;" horiz-adv-x="355" />
<glyph unicode="&#x200a;" horiz-adv-x="98" />
<glyph unicode="&#x2010;" horiz-adv-x="602" d="M82 479v62h442v-62h-442z" />
<glyph unicode="&#x2011;" horiz-adv-x="602" d="M82 479v62h442v-62h-442z" />
<glyph unicode="&#x2012;" horiz-adv-x="602" d="M82 479v62h442v-62h-442z" />
<glyph unicode="&#x2013;" horiz-adv-x="983" d="M82 483v58h819v-58h-819z" />
<glyph unicode="&#x2014;" horiz-adv-x="1638" d="M82 483v58h1474v-58h-1474z" />
<glyph unicode="&#x2018;" horiz-adv-x="425" d="M119 1143q0 104 43 177t117 126l32 -37q-66 -55 -98.5 -110.5t-32.5 -141.5q4 2 17 2q25 0 47 -15.5t22 -49.5q0 -35 -19.5 -52.5t-49.5 -17.5q-35 0 -56.5 29.5t-21.5 89.5z" />
<glyph unicode="&#x2019;" horiz-adv-x="425" d="M115 1049q66 55 98.5 110t32.5 141q-4 -2 -17 -2q-25 0 -47 15.5t-22 50.5t19.5 52.5t49.5 17.5q35 0 56.5 -30t21.5 -89q0 -104 -43 -177t-117 -126z" />
<glyph unicode="&#x201a;" horiz-adv-x="425" d="M115 -219q66 55 98 110q33 55 33 142q-4 -2 -17 -2q-25 0 -47 15q-23 15 -22 50q0 35 19 52t50 18q35 0 57 -30t21 -89q0 -104 -43 -177t-117 -126z" />
<glyph unicode="&#x201c;" horiz-adv-x="688" d="M119 1143q0 104 43 177t117 126l32 -37q-66 -55 -98 -111q-33 -55 -33 -141q4 2 17 2q25 0 47 -15q23 -15 22 -50q0 -35 -19 -53q-19 -17 -50 -17q-35 0 -57 30t-21 89zM381 1143q0 104 43 177t117 126l32 -37q-66 -55 -98 -111q-33 -55 -33 -141q4 2 17 2q25 0 47 -15 q23 -15 22 -50q0 -35 -19 -53q-19 -17 -50 -17q-35 0 -57 30t-21 89z" />
<glyph unicode="&#x201d;" horiz-adv-x="688" d="M115 1049q66 55 98 110q33 55 33 141q-4 -2 -17 -2q-25 0 -47 16q-23 15 -22 50q0 35 19 52t50 18q35 0 57 -30t21 -89q0 -104 -43 -177t-117 -126zM377 1049q66 55 98 110q33 55 33 141q-4 -2 -16 -2q-25 0 -48 16q-23 15 -22 50q0 35 19 52t51 18q35 0 56 -30 q22 -30 21 -89q0 -104 -43 -177t-116 -126z" />
<glyph unicode="&#x201e;" horiz-adv-x="688" d="M115 -219q66 55 98 110q33 55 33 142q-4 -2 -17 -2q-25 0 -47 15q-23 15 -22 50q0 35 19 52t50 18q35 0 57 -30t21 -89q0 -104 -43 -177t-117 -126zM377 -219q66 55 98 110q33 55 33 142q-4 -2 -16 -2q-25 0 -48 15t-22 50q0 35 19 52t51 18q35 0 56 -30q22 -30 21 -89 q0 -104 -43 -177t-116 -126z" />
<glyph unicode="&#x2022;" horiz-adv-x="557" d="M82 541q0 51 16.5 91t44 67.5t63.5 43t73 15.5t71.5 -15.5t62 -43t45 -67.5t17.5 -91t-17.5 -91t-45 -68t-62 -43t-71.5 -15t-73 15t-63.5 43t-44 67.5t-16.5 91.5z" />
<glyph unicode="&#x2026;" horiz-adv-x="1892" d="M221 53q0 41 23 62q23 20 51 20q29 0 51 -20q23 -20 23 -62q0 -37 -23 -57q-22 -21 -51 -21t-51 21q-23 20 -23 57zM913 53q0 41 23 62q23 20 51 20q29 0 51 -20q23 -20 23 -62q0 -37 -23 -57q-22 -21 -51 -21t-51 21q-23 20 -23 57zM1606 53q0 41 22 62q23 20 51 20 q29 0 52 -20t22 -62q0 -37 -22 -57q-23 -21 -52 -21t-51 21q-23 20 -22 57z" />
<glyph unicode="&#x202f;" horiz-adv-x="355" />
<glyph unicode="&#x2039;" horiz-adv-x="520" d="M86 487v58l283 336l41 -37l-254 -328l254 -332l-41 -32z" />
<glyph unicode="&#x203a;" horiz-adv-x="520" d="M111 184l254 332l-254 328l41 37l282 -336v-58l-282 -335z" />
<glyph unicode="&#x205f;" horiz-adv-x="444" />
<glyph unicode="&#x20ac;" d="M49 512v49l129 8q-2 23 -2 45.5v44.5v37t2 37h-129v49l133 9q12 127 51 227t100.5 171t142.5 108.5t179 37.5q92 0 166 -49t117 -110l-45 -41q-47 66 -105.5 104.5t-132.5 38.5q-174 0 -277.5 -130t-125.5 -357h588v-58h-592q-2 -18 -2 -36.5v-37.5v-45t2 -45h510v-57 h-504q25 -221 120 -350t253 -129q90 0 156.5 43t129.5 129l45 -37q-63 -90 -142 -141.5t-193 -51.5q-180 0 -295 144.5t-144 392.5h-135z" />
<glyph unicode="&#x2122;" horiz-adv-x="1228" d="M4 1327v57h512v-57h-225v-569h-62v569h-225zM627 758v626h90l110 -266l66 -180h8l66 180l106 266h90v-626h-61v348l8 197h-8l-176 -447h-62l-176 447h-8l8 -197v-348h-61z" />
<glyph unicode="&#x25fc;" horiz-adv-x="1024" d="M0 0z" />
<glyph unicode="&#xfb01;" horiz-adv-x="1007" d="M70 922v49l135 8v242q0 145 60 214t165 68q63 0 135 -33l-20 -53q-31 16 -61 23q-30 6 -58 6q-84 0 -122 -62q-38 -61 -38 -172v-233h234v-57h-234v-922h-61v922h-135zM713 1298q0 35 20 53q20 17 49 17t49 -17t21 -53q0 -31 -21 -50q-20 -19 -49 -19t-49 19t-20 50z M750 0v979h61v-979h-61z" />
<glyph unicode="&#xfb02;" horiz-adv-x="987" d="M70 922v49l135 8v242q0 145 60 214t165 68q63 0 135 -33l-20 -53q-31 16 -61 23q-30 6 -58 6q-84 0 -122 -62q-38 -61 -38 -172v-233h234v-57h-234v-922h-61v922h-135zM713 106v1373h61v-1385q0 -61 41 -61h13t24 4l12 -53q-12 -4 -23 -7q-12 -2 -30 -2q-47 0 -73 30 t-25 101z" />
<glyph unicode="&#xfb03;" horiz-adv-x="1503" d="M70 922v49l135 8v201q0 154 67 228q68 75 183 75q37 0 77 -9q41 -9 82 -28l-20 -53q-39 18 -74 25t-69 7q-92 0 -139 -66q-46 -67 -46 -188v-192h471v242q0 145 61 214q60 69 165 68q63 0 135 -33l-21 -53q-31 16 -60 23q-30 6 -59 6q-84 0 -121 -62q-38 -61 -38 -172 v-233h233v-57h-233v-922h-62v922h-471v-922h-61v922h-135zM1208 1298q0 35 21 53q20 17 49 17t49 -17t21 -53q0 -31 -21 -50q-20 -19 -49 -19t-49 19t-21 50zM1245 0v979h62v-979h-62z" />
<glyph unicode="&#xfb04;" horiz-adv-x="1519" d="M70 922v49l135 8v201q0 154 67 228q68 75 183 75q37 0 77 -9q41 -9 82 -28l-20 -53q-39 18 -74 25t-69 7q-92 0 -139 -66q-46 -67 -46 -188v-192h471v242q0 145 61 214q60 69 165 68q63 0 135 -33l-21 -53q-31 16 -60 23q-30 6 -59 6q-84 0 -121 -62q-38 -61 -38 -172 v-233h233v-57h-233v-922h-62v922h-471v-922h-61v922h-135zM1245 106v1373h62v-1385q0 -61 41 -61h13t23 4l13 -53q-12 -4 -24 -7q-12 -2 -30 -2q-47 0 -72 30q-26 30 -26 101z" />
</font>
</defs></svg> 