<?xml version="1.0" standalone="no"?>
<!DOCTYPE svg PUBLIC "-//W3C//DTD SVG 1.1//EN" "http://www.w3.org/Graphics/SVG/1.1/DTD/svg11.dtd" >
<svg xmlns="http://www.w3.org/2000/svg">
<metadata></metadata>
<defs>
<font id="robotoblack" horiz-adv-x="1151" >
<font-face units-per-em="2048" ascent="1638" descent="-410" />
<missing-glyph horiz-adv-x="510" />
<glyph horiz-adv-x="2048" />
<glyph horiz-adv-x="2048" />
<glyph unicode="&#xd;" horiz-adv-x="510" />
<glyph unicode=" "  horiz-adv-x="510" />
<glyph unicode="&#x09;" horiz-adv-x="510" />
<glyph unicode="&#xa0;" horiz-adv-x="510" />
<glyph unicode="!" horiz-adv-x="565" d="M115 0v283h339v-283h-339zM115 516v940h339v-940h-339z" />
<glyph unicode="&#x22;" horiz-adv-x="649" d="M43 1042v518h229v-269l-85 -249h-144zM378 1042v518h227v-269l-84 -249h-143z" />
<glyph unicode="#" horiz-adv-x="1190" d="M37 410v183h252l44 264h-221v183h251l69 416h198l-68 -416h161l69 416h199l-69 -416h231v-183h-261l-44 -264h229v-183h-259l-67 -410h-199l67 410h-161l-67 -410h-199l67 410h-222zM488 593h161l44 264h-161z" />
<glyph unicode="$" horiz-adv-x="1186" d="M88 461l3 6h329q0 -124 54 -178.5t140 -54.5q72 0 109 42t37 110q0 79 -38 122.5t-135 85.5q-236 94 -343.5 190.5t-107.5 283.5q0 169 114 278.5t304 127.5v211h159v-215q180 -26 285 -148t102 -311l-2 -5h-331q0 109 -42 162.5t-112 53.5q-71 0 -105 -44t-34 -112 q0 -69 36.5 -112t136.5 -87q232 -99 341 -197.5t109 -281.5q0 -174 -109.5 -280t-294.5 -125v-201h-159v202q-194 19 -322 135.5t-124 341.5z" />
<glyph unicode="%" horiz-adv-x="1521" d="M91 1099v77q0 130 84 215.5t239 85.5q157 0 241 -85.5t84 -215.5v-77q0 -130 -84 -214.5t-239 -84.5q-156 0 -240.5 85t-84.5 214zM307 1099q0 -50 28 -83.5t81 -33.5q51 0 78.5 33.5t27.5 83.5v77q0 50 -28 84.5t-80 34.5q-51 0 -79 -34.5t-28 -84.5v-77zM312 188 l711 1138l157 -79l-711 -1138zM782 280v77q0 129 85 214.5t240 85.5q157 0 240.5 -85t83.5 -215v-77q0 -131 -83.5 -215.5t-238.5 -84.5q-156 0 -241.5 85t-85.5 215zM999 280q0 -48 32 -83t78 -35q62 0 84 31t22 87v77q0 49 -28.5 83.5t-79.5 34.5q-52 0 -80 -34.5 t-28 -83.5v-77z" />
<glyph unicode="&#x26;" horiz-adv-x="1380" d="M60 391q0 116 61.5 197.5t190.5 176.5l3 2q-64 90 -95.5 165t-31.5 152q0 174 113 283.5t299 109.5q159 0 258.5 -102t99.5 -248q0 -98 -45.5 -182t-123.5 -140l-87 -61l244 -280q35 56 54 123t19 141h238q0 -142 -31.5 -260t-100.5 -210l220 -253l-2 -5h-369l-74 84 q-87 -54 -173.5 -79.5t-190.5 -25.5q-218 0 -347 114t-129 298zM399 414q0 -77 46.5 -126t113.5 -49q43 0 86.5 9t85.5 28l-267 302l-9 -6q-31 -38 -43.5 -75.5t-12.5 -82.5zM480 1088q0 -39 19 -79.5t57 -88.5l60 38q56 36 75 70t19 75q0 44 -30.5 79t-80.5 35 q-57 0 -88 -37t-31 -92z" />
<glyph unicode="'" horiz-adv-x="316" d="M43 985v575h218v-292l-74 -283h-144z" />
<glyph unicode="(" horiz-adv-x="727" d="M120 564v28q0 389 148 659.5t348 347.5h6l61 -159q-128 -94 -211 -304t-83 -542v-32q0 -333 83 -542.5t211 -303.5l-61 -159h-6q-200 77 -348 347t-148 660z" />
<glyph unicode=")" horiz-adv-x="726" d="M44 -284q126 95 210 304.5t84 541.5v32q0 332 -84 542t-210 304l61 159h6q205 -76 362 -355t157 -652v-28q0 -374 -157 -652.5t-362 -354.5h-6z" />
<glyph unicode="*" horiz-adv-x="919" d="M26 1048l61 188l298 -130l-22 350h200l-25 -357l291 127l60 -190l-309 -90l205 -264l-161 -117l-173 293l-171 -283l-162 112l214 271z" />
<glyph unicode="+" horiz-adv-x="1094" d="M45 537v289h342v380h315v-380h341v-289h-341v-391h-315v391h-342z" />
<glyph unicode="," horiz-adv-x="541" d="M56 -326l70 327v253h292v-262l-163 -318h-199z" />
<glyph unicode="-" horiz-adv-x="921" d="M152 497v261h601v-261h-601z" />
<glyph unicode="." horiz-adv-x="619" d="M136 0v284h337v-284h-337z" />
<glyph unicode="/" horiz-adv-x="719" d="M-29 -125l497 1581h240l-498 -1581h-239z" />
<glyph unicode="0" horiz-adv-x="1186" d="M86 575v306q0 295 136 445.5t370 150.5q233 0 370.5 -151t137.5 -445v-306q0 -295 -137 -445.5t-369 -150.5q-234 0 -371 150.5t-137 445.5zM423 554q0 -170 43 -242.5t128 -72.5q83 0 126 72.5t43 242.5v350q0 167 -44 240t-127 73q-84 0 -126.5 -73t-42.5 -240v-350z " />
<glyph unicode="1" horiz-adv-x="1186" d="M144 1117v238l662 102v-1457h-337v1117h-325z" />
<glyph unicode="2" horiz-adv-x="1186" d="M65 994q-5 202 132 342.5t363 140.5q240 0 374.5 -118t134.5 -323q0 -138 -71.5 -244t-263.5 -315l-197 -211l3 -6h568v-260h-1019v220l468 492q89 102 131 182t42 139q0 84 -42.5 134t-127.5 50q-76 0 -119.5 -64.5t-43.5 -164.5h-330z" />
<glyph unicode="3" horiz-adv-x="1186" d="M54 398l2 6h330q0 -70 54.5 -117.5t132.5 -47.5q89 0 142 50t53 126q0 106 -55.5 154.5t-156.5 48.5h-159v251h159q91 0 140 49t49 136q0 69 -44 116t-128 47q-66 0 -116 -38t-50 -98h-328l-2 6q-6 174 137 282t347 108q237 0 379 -108.5t142 -307.5q0 -99 -61.5 -182.5 t-164.5 -130.5q117 -43 183 -130.5t66 -209.5q0 -200 -153 -314.5t-391 -114.5q-205 0 -358.5 107.5t-148.5 311.5z" />
<glyph unicode="4" horiz-adv-x="1186" d="M58 515l584 938v3h338v-887h147v-262h-147v-307h-338v307h-564zM360 569h282v448l-6 2l-26 -41z" />
<glyph unicode="5" horiz-adv-x="1186" d="M87 398l2 6l330 20q0 -87 48.5 -136t128.5 -49q92 0 130.5 64.5t38.5 163.5q0 120 -43 189t-136 69q-68 0 -109.5 -29t-57.5 -73l-303 17l84 816h854v-262h-579l-37 -303q38 29 95 47t125 20q214 4 329 -124.5t115 -364.5q0 -205 -131 -347.5t-375 -142.5 q-208 0 -361 115t-148 304z" />
<glyph unicode="6" horiz-adv-x="1186" d="M83 566v293q0 288 169.5 453t435.5 165q86 0 153 -14.5t148 -46.5l-56 -246q-70 21 -122.5 31.5t-120.5 10.5q-120 0 -192.5 -84.5t-69.5 -246.5l3 -5q44 50 117 78t166 28q195 0 303.5 -140.5t108.5 -359.5q0 -216 -143.5 -359.5t-366.5 -143.5q-239 0 -386 157 t-147 430zM421 566q0 -158 51.5 -242.5t143.5 -84.5q76 0 124 72t48 171q0 111 -46.5 176.5t-120.5 65.5q-70 0 -120.5 -19t-79.5 -53v-86z" />
<glyph unicode="7" horiz-adv-x="1186" d="M52 1196v260h1050v-260q-218 -249 -301 -486t-117 -569l-14 -141h-338l13 141q30 312 137 579t296 476h-726z" />
<glyph unicode="8" horiz-adv-x="1186" d="M86 401q0 115 63 204t174 140q-99 48 -153.5 131.5t-54.5 190.5q0 195 131.5 302.5t345.5 107.5q216 0 347 -107.5t131 -302.5q0 -107 -55 -190.5t-152 -131.5q111 -51 174 -140t63 -204q0 -204 -140 -313t-366 -109t-367 109.5t-141 312.5zM424 428q0 -88 46 -138.5 t124 -50.5q76 0 122.5 50.5t46.5 138.5q0 87 -47 137t-124 50t-122.5 -50t-45.5 -137zM454 1049q0 -80 36 -127t104 -47t103.5 46.5t35.5 127.5q0 78 -36 123t-105 45q-67 0 -102.5 -44.5t-35.5 -123.5z" />
<glyph unicode="9" horiz-adv-x="1186" d="M81 957q0 217 142 368.5t366 151.5q220 0 362.5 -159t142.5 -437v-346q0 -252 -162 -404t-408 -152q-75 0 -155.5 16.5t-153.5 46.5l35 241q70 -23 132.5 -33.5t141.5 -10.5q101 0 167 72.5t66 200.5v64q-49 -60 -114 -90.5t-138 -30.5q-199 0 -311.5 134.5t-112.5 367.5 zM419 957q0 -120 40 -189.5t120 -69.5q57 0 102.5 20t75.5 55v150q0 143 -47.5 218.5t-121.5 75.5q-78 0 -123.5 -79t-45.5 -181z" />
<glyph unicode=":" horiz-adv-x="613" d="M136 0v284h337v-284h-337zM136 798v284h337v-284h-337z" />
<glyph unicode=";" horiz-adv-x="579" d="M98 -326l70 327v253h292v-262l-163 -318h-199zM123 798v284h337v-284h-337z" />
<glyph unicode="&#x3c;" horiz-adv-x="1044" d="M46 412v266l884 360v-306l-552 -186v-6l552 -181v-307z" />
<glyph unicode="=" horiz-adv-x="1195" d="M128 293v260h926v-260h-926zM128 732v260h926v-260h-926z" />
<glyph unicode="&#x3e;" horiz-adv-x="1044" d="M114 52v307l552 181v6l-552 186v306l884 -360v-266z" />
<glyph unicode="?" horiz-adv-x="1043" d="M18 1060q-3 208 132.5 312.5t357.5 104.5q238 0 374.5 -120t136.5 -324q0 -125 -74.5 -230t-189.5 -165q-64 -42 -86.5 -90.5t-22.5 -131.5h-338q1 139 50 209t179 161q67 42 105.5 104t38.5 143q0 84 -45 134t-128 50q-67 0 -112 -41t-47 -122h-329zM309 0v270h336v-270 h-336z" />
<glyph unicode="@" horiz-adv-x="1809" d="M43 478q18 429 258 680.5t638 251.5q391 0 598.5 -238t191.5 -652q-9 -220 -132 -380.5t-367 -160.5q-81 0 -140 45.5t-83 128.5q-41 -85 -103.5 -127.5t-146.5 -42.5q-149 0 -228 118.5t-58 314.5q26 251 146.5 402t292.5 151q121 0 194.5 -26t161.5 -80l-3 -4h5 l-51 -566q-5 -87 11.5 -119.5t44.5 -32.5q112 0 179.5 107.5t75.5 271.5q16 339 -133 528.5t-460 189.5q-302 0 -480 -204t-193 -556q-17 -343 144.5 -542t463.5 -199q84 0 174.5 18.5t156.5 46.5l38 -166q-67 -42 -170.5 -65.5t-202.5 -23.5q-404 0 -622 249t-201 682z M719 416q-9 -120 17.5 -181.5t86.5 -61.5q54 0 96.5 30t74.5 111l40 452q-22 5 -43 8.5t-42 3.5q-104 0 -158.5 -90.5t-71.5 -271.5z" />
<glyph unicode="A" horiz-adv-x="1300" d="M7 0l470 1456h363l471 -1456h-340l-83 283h-459l-82 -283h-340zM504 543h309l-152 521h-6z" />
<glyph unicode="B" horiz-adv-x="1315" d="M114 0v1456h500q271 0 423 -100.5t152 -299.5q0 -104 -49 -185t-151 -122q128 -29 189 -116.5t61 -201.5q0 -213 -143 -322t-410 -109h-572zM453 260h233q108 0 162 42.5t54 130.5q0 95 -46.5 143.5t-150.5 48.5h-252v-365zM453 849h168q115 2 172 44.5t57 124.5 q0 93 -58 135.5t-178 42.5h-161v-347z" />
<glyph unicode="C" horiz-adv-x="1316" d="M80 576v304q0 264 162.5 430.5t422.5 166.5q276 0 422 -139t165 -395l-2 -6h-329q-7 142 -63.5 211t-192.5 69q-115 0 -181 -92.5t-66 -242.5v-306q0 -151 72 -244t198 -93q122 0 173 65t58 207h329l2 -6q-10 -256 -151.5 -391t-410.5 -135q-270 0 -439 166t-169 431z " />
<glyph unicode="D" horiz-adv-x="1338" d="M114 0v1456h526q257 0 430 -167.5t173 -429.5v-262q0 -263 -173 -430t-430 -167h-526zM453 260h164q135 0 211 92.5t76 244.5v264q0 151 -76 243t-211 92h-164v-936z" />
<glyph unicode="E" horiz-adv-x="1165" d="M114 0v1456h1014v-260h-675v-313h571v-260h-571v-363h673v-260h-1012z" />
<glyph unicode="F" horiz-adv-x="1177" d="M114 0v1456h1024v-260h-685v-350h583v-260h-583v-586h-339z" />
<glyph unicode="G" horiz-adv-x="1356" d="M88 576v304q0 263 164.5 430t423.5 167q281 0 421 -130t159 -355l-2 -6h-317q-17 115 -74.5 173t-175.5 58t-190 -93.5t-72 -241.5v-306q0 -152 71 -244.5t199 -92.5q93 0 146 15t84 40v230h-229v224h568v-547q-74 -88 -215 -155t-354 -67q-270 0 -438.5 166t-168.5 431z " />
<glyph unicode="H" horiz-adv-x="1444" d="M114 0v1456h339v-610h539v610h337v-1456h-337v586h-539v-586h-339z" />
<glyph unicode="I" horiz-adv-x="611" d="M137 0v1456h337v-1456h-337z" />
<glyph unicode="J" horiz-adv-x="1188" d="M61 430l2 6h330q0 -106 49 -151.5t126 -45.5q69 0 119 57t50 161v999h337v-999q0 -220 -144.5 -349t-361.5 -129q-237 0 -374 114q-133 110 -133 321v16z" />
<glyph unicode="K" horiz-adv-x="1325" d="M114 0v1456h339v-570h115l320 570h420l-451 -659l490 -797h-412l-326 584h-156v-584h-339z" />
<glyph unicode="L" horiz-adv-x="1109" d="M114 0v1456h339v-1196h627v-260h-966z" />
<glyph unicode="M" horiz-adv-x="1780" d="M114 0v1456h444l326 -1019h6l330 1019h446v-1456h-339v361l32 665l-6 1l-351 -1027h-228l-347 1018l-6 -1l32 -656v-361h-339z" />
<glyph unicode="N" horiz-adv-x="1444" d="M114 0v1456h339l533 -928l6 2v926h337v-1456h-337l-533 928l-6 -2v-926h-339z" />
<glyph unicode="O" horiz-adv-x="1400" d="M81 597v262q0 268 171.5 443t447.5 175q274 0 446 -175t172 -443v-262q0 -269 -170.5 -443.5t-445.5 -174.5q-277 0 -449 174.5t-172 443.5zM418 597q0 -158 73.5 -258t210.5 -100q133 0 206 100t73 258v264q0 156 -73.5 256t-207.5 100q-137 0 -209.5 -99.5 t-72.5 -256.5v-264z" />
<glyph unicode="P" horiz-adv-x="1344" d="M114 0v1456h591q259 0 411 -132.5t152 -346.5q0 -215 -152 -346.5t-411 -131.5h-252v-499h-339zM453 759h252q110 0 167.5 60.5t57.5 155.5q0 97 -57.5 159t-167.5 62h-252v-437z" />
<glyph unicode="Q" horiz-adv-x="1451" d="M89 597v262q0 268 171.5 443t447.5 175q274 0 446 -175t172 -443v-262q0 -127 -40.5 -237t-115.5 -192l244 -236l-206 -167l-261 255q-55 -20 -114.5 -30.5t-122.5 -10.5q-277 0 -449 174.5t-172 443.5zM426 597q0 -158 73.5 -258t210.5 -100q133 0 206 100t73 258v264 q0 156 -73.5 256t-207.5 100q-137 0 -209.5 -99.5t-72.5 -256.5v-264z" />
<glyph unicode="R" horiz-adv-x="1352" d="M114 0v1456h560q253 0 401 -117t148 -320q0 -113 -59.5 -194t-175.5 -132q134 -38 192.5 -126.5t58.5 -220.5v-92q0 -57 17 -130t59 -104v-20h-348q-40 31 -52.5 110t-12.5 146v88q0 104 -55 159t-161 55h-233v-558h-339zM453 818h223q102 0 156 46.5t54 133.5 q0 89 -55.5 143.5t-156.5 54.5h-221v-378z" />
<glyph unicode="S" horiz-adv-x="1293" d="M74 462l2 6h329q0 -126 68 -180t206 -54q105 0 156.5 42t51.5 110q0 77 -51 119t-183 89q-276 87 -409 186.5t-133 287.5q0 183 158.5 296t402.5 113q242 -1 396 -125q150 -121 150 -308v-12l-2 -6h-328q0 87 -59 141.5t-163 54.5q-102 0 -160 -45t-58 -111 q0 -64 58.5 -102.5t219.5 -96.5q248 -74 373.5 -182t125.5 -297q0 -192 -149.5 -300.5t-396.5 -108.5q-248 1 -429 125q-176 121 -176 345v13z" />
<glyph unicode="T" horiz-adv-x="1153" d="M26 1196v260h1104v-260h-384v-1196h-339v1196h-381z" />
<glyph unicode="U" horiz-adv-x="1417" d="M107 502v954h339v-954q0 -134 69 -198.5t195 -64.5q125 0 192.5 64t67.5 199v954h339v-954q0 -249 -165.5 -386t-433.5 -137q-271 0 -437 137t-166 386z" />
<glyph unicode="V" horiz-adv-x="1305" d="M-1 1456h353l285 -1061l10 -53h6l10 49l289 1065h354l-472 -1456h-365z" />
<glyph unicode="W" horiz-adv-x="1819" d="M10 1456h328l191 -955h6l257 955h235l258 -955h6l191 955h327l-334 -1456h-318l-245 898h-6l-243 -898h-318z" />
<glyph unicode="X" horiz-adv-x="1307" d="M14 0l428 734l-417 722h387l236 -491l240 491h390l-417 -722l449 -734h-410l-248 501l-248 -501h-390z" />
<glyph unicode="Y" horiz-adv-x="1310" d="M-3 1456h365l289 -636h6l290 636h367l-495 -944v-512h-337v529z" />
<glyph unicode="Z" horiz-adv-x="1196" d="M64 1196v260h1073v-146l-654 -1050h663v-260h-1079v152l651 1044h-654z" />
<glyph unicode="[" horiz-adv-x="577" d="M108 -349v2055h456v-246h-118v-1564h118v-245h-456z" />
<glyph unicode="\" horiz-adv-x="871" d="M-16 1456h338l608 -1581h-339z" />
<glyph unicode="]" horiz-adv-x="577" d="M14 -104h119v1564h-119v246h456v-2055h-456v245z" />
<glyph unicode="^" horiz-adv-x="916" d="M36 729l299 727h249l300 -727h-254l-165 413l-4 18h-6l-4 -18l-162 -413h-253z" />
<glyph unicode="_" horiz-adv-x="904" d="M0 0h903v-251h-903v251z" />
<glyph unicode="`" horiz-adv-x="695" d="M74 1472l2 6h347l208 -266h-275z" />
<glyph unicode="a" horiz-adv-x="1086" d="M45 305q0 161 120.5 248.5t366.5 87.5h123v77q0 69 -32.5 106t-100.5 37q-58 0 -86.5 -27.5t-28.5 -85.5l-327 1l-2 6v15q0 138 123 232q130 100 344 100q200 0 324.5 -100t124.5 -286v-408q0 -87 14.5 -161t43.5 -147l-334 1q-14 26 -25.5 58t-19.5 66 q-48 -67 -116 -106.5t-165 -39.5q-154 0 -250.5 89t-96.5 237zM382 323q0 -46 31.5 -74.5t81.5 -28.5t92 20t68 52v169h-120q-80 0 -116.5 -39t-36.5 -99z" />
<glyph unicode="b" d="M96 0v1560h338v-583q45 60 104.5 92.5t137.5 32.5q209 0 315.5 -153t106.5 -410v-21q0 -247 -106 -393t-314 -146q-89 0 -155 38.5t-112 110.5l-22 -128h-293zM434 308q24 -35 63 -52t96 -17q100 0 134 69.5t34 209.5v21q0 144 -36 223.5t-134 79.5q-55 0 -94.5 -20.5 t-62.5 -59.5v-454z" />
<glyph unicode="c" horiz-adv-x="1046" d="M45 529v23q0 243 133 396.5t377 153.5q206 0 329 -115q119 -111 119 -301v-12l-2 -6h-309q0 77 -34 125.5t-103 48.5q-96 0 -134.5 -79t-38.5 -211v-23q0 -136 38.5 -213t137.5 -77q68 0 101 37t33 109h309l2 -6v-11q-1 -170 -123 -278q-126 -112 -322 -111 q-246 0 -379.5 153t-133.5 397z" />
<glyph unicode="d" d="M51 518v21q0 253 110.5 408t311.5 155q75 0 135.5 -34.5t108.5 -98.5v591h338v-1560h-293l-24 133q-50 -75 -116.5 -114.5t-150.5 -39.5q-200 0 -310 148t-110 391zM389 518q0 -132 38.5 -205.5t129.5 -73.5q53 0 93.5 19.5t66.5 57.5v437q-26 43 -66 66t-92 23 q-90 0 -130 -83t-40 -220v-21z" />
<glyph unicode="e" horiz-adv-x="1083" d="M66 505v38q0 247 130 403q129 156 367 156h3q220 0 345 -132t125 -358v-177h-618l-2 -6q11 -83 68 -136.5t152 -53.5q96 0 153.5 15t145.5 52l80 -206q-71 -52 -183.5 -86.5t-241.5 -34.5q-239 0 -381.5 150t-142.5 376zM412 651l3 -5h291v26q0 82 -34 126t-106 44 q-73 0 -109.5 -52t-44.5 -139z" />
<glyph unicode="f" horiz-adv-x="743" d="M12 848v234h156v112q0 187 112 287t317 100q38 0 78 -5.5t89 -15.5l-25 -249q-27 5 -48.5 7.5t-52.5 2.5q-63 0 -97 -33t-34 -94v-112h210v-234h-210v-848h-339v848h-156z" />
<glyph unicode="g" d="M51 518v21q0 253 110 408t311 155q86 0 151 -40.5t112 -115.5l23 136h296v-1040q0 -217 -149 -348t-401 -131q-84 0 -176 23t-175 62l55 250q74 -32 141 -47.5t153 -15.5q104 0 159 56t55 153v55q-46 -59 -107 -89.5t-139 -30.5q-200 0 -309.5 148t-109.5 391zM388 518 q0 -132 38.5 -205.5t129.5 -73.5q55 0 94.5 17t65.5 52v454q-25 38 -64.5 59t-93.5 21q-90 0 -130 -83t-40 -220v-21z" />
<glyph unicode="h" d="M86 0v1560h338v-612q49 73 119.5 113.5t155.5 40.5q168 0 264 -117t96 -363v-622h-338v624q0 124 -37.5 171t-114.5 47q-49 0 -85 -14.5t-60 -40.5v-787h-338z" />
<glyph unicode="i" horiz-adv-x="561" d="M111 0v1082h339v-1082h-339zM111 1333v227h339v-227h-339z" />
<glyph unicode="j" horiz-adv-x="548" d="M-115 -420l14 255q29 -6 49.5 -9t51.5 -3q56 0 85.5 41t29.5 121v1097h339v-1097q0 -202 -108.5 -312t-301.5 -110q-44 0 -80.5 4t-78.5 13zM109 1334v226h339v-226h-339z" />
<glyph unicode="k" horiz-adv-x="1119" d="M96 0v1560h338v-875h45l231 397h387l-336 -489l389 -593h-385l-274 430h-57v-430h-338z" />
<glyph unicode="l" horiz-adv-x="561" d="M111 0v1560h339v-1560h-339z" />
<glyph unicode="m" horiz-adv-x="1764" d="M96 0v1082h318l12 -143q51 78 128.5 120.5t177.5 42.5q101 0 174 -44t110 -134q50 85 128.5 131.5t183.5 46.5q158 0 248.5 -108.5t90.5 -334.5v-659h-339v659q0 105 -32.5 144t-97.5 39q-49 0 -86.5 -17.5t-63.5 -48.5q0 -17 1 -29.5t1 -24.5v-722h-338v659 q0 105 -32 144t-99 39q-46 0 -83.5 -17.5t-63.5 -48.5v-776h-338z" />
<glyph unicode="n" d="M90 0v1082h317l13 -152q53 81 131 126.5t174 45.5q159 0 248.5 -103t89.5 -328v-671h-338v672q0 93 -38.5 131.5t-113.5 38.5q-47 0 -83.5 -17t-62.5 -47v-778h-337z" />
<glyph unicode="o" d="M51 530v21q0 244 138 397.5t385 153.5q248 0 386 -153.5t138 -397.5v-21q0 -245 -138 -398t-384 -153q-249 0 -387 153t-138 398zM389 530q0 -136 42.5 -213.5t144.5 -77.5q99 0 142 78t43 213v21q0 132 -43 211.5t-144 79.5q-100 0 -142.5 -80t-42.5 -211v-21z" />
<glyph unicode="p" d="M96 -416v1498h316l12 -119q46 67 108 103t144 36q201 0 311.5 -155t110.5 -408v-21q0 -244 -110 -391.5t-310 -147.5q-78 0 -138.5 30t-105.5 87v-512h-338zM434 308q24 -35 63.5 -52t97.5 -17q89 0 127.5 73.5t38.5 205.5v21q0 137 -40 220t-128 83q-57 0 -96.5 -21 t-62.5 -61v-452z" />
<glyph unicode="q" d="M51 518v21q0 253 110.5 408t311.5 155q85 0 150.5 -40.5t112.5 -115.5l27 136h293v-1498h-338v516q-46 -59 -107.5 -90t-139.5 -31q-200 0 -310 148t-110 391zM389 518q0 -132 38.5 -205.5t129.5 -73.5q56 0 96 17.5t65 52.5v450q-25 41 -64.5 62t-94.5 21 q-90 0 -130 -83t-40 -220v-21z" />
<glyph unicode="r" horiz-adv-x="757" d="M96 0v1082h318l12 -159q34 85 90 132t131 47q24 0 49 -3.5t44 -8.5l-33 -306l-123 1q-58 0 -95 -19.5t-55 -55.5v-710h-338z" />
<glyph unicode="s" horiz-adv-x="1048" d="M41 341l2 6h306q2 -77 46.5 -111t126.5 -34q68 0 103 26.5t35 75.5q0 40 -45.5 71.5t-165.5 56.5q-189 37 -285 115t-96 213q0 143 120 242.5t325 99.5q216 0 344 -96q122 -92 122 -236v-14l-2 -6h-328q0 64 -32.5 97t-104.5 33q-53 0 -89 -29t-36 -74q0 -43 41.5 -73 t167.5 -54q198 -39 293.5 -116.5t95.5 -219.5q0 -146 -129.5 -240.5t-342.5 -94.5q-221 0 -349 112q-123 107 -123 238v12z" />
<glyph unicode="t" horiz-adv-x="742" d="M7 848v234h152v269h337v-269h183v-234h-183v-496q0 -58 23.5 -83.5t63.5 -25.5q32 0 50.5 2t47.5 8l24 -250q-56 -13 -101 -18.5t-106 -5.5q-167 0 -253 89t-86 282v498h-152z" />
<glyph unicode="u" d="M88 422v660h337v-662q0 -91 34.5 -136t98.5 -45q54 0 95 15t70 45v783h338v-1082h-295l-21 128q-52 -72 -127.5 -110.5t-170.5 -38.5q-168 0 -263.5 108t-95.5 335z" />
<glyph unicode="v" horiz-adv-x="1053" d="M0 1082h356l145 -636l20 -115l6 -1l22 116l143 636h355l-352 -1082h-343z" />
<glyph unicode="w" horiz-adv-x="1485" d="M21 1082h312l119 -632h6l176 632h213l178 -627h6l117 627h312l-254 -1082h-286l-176 574h-6l-177 -574h-285z" />
<glyph unicode="x" horiz-adv-x="1053" d="M5 0l325 547l-315 535h377l132 -319h6l137 319h379l-314 -535l325 -547h-379l-144 329h-6l-144 -329h-379z" />
<glyph unicode="y" horiz-adv-x="1053" d="M-5 1082h359l161 -605l1 -8h6l179 613h360l-431 -1243q-50 -120 -129 -198t-251 -78q-44 0 -72 5.5t-88 20.5l41 241l21 -4.5t18 -1.5q80 0 117 23.5t55 70.5l27 70z" />
<glyph unicode="z" horiz-adv-x="1053" d="M65 0v188l481 634h-460v260h888v-182l-482 -640h492v-260h-919z" />
<glyph unicode="{" horiz-adv-x="665" d="M40 505v227q82 0 122 51.5t40 145.5v203q0 171 82.5 290.5t277.5 174.5l63 -176q-73 -29 -102 -103t-29 -186v-203q0 -104 -46 -184.5t-139 -125.5q93 -47 139 -127.5t46 -182.5v-203q0 -112 29 -186t102 -103l-63 -177q-195 55 -277.5 175t-82.5 291v203q0 92 -40 144 t-122 52z" />
<glyph unicode="|" horiz-adv-x="523" d="M172 -270v1726h184v-1726h-184z" />
<glyph unicode="}" horiz-adv-x="665" d="M41 -183q72 29 101.5 103t29.5 186v203q0 103 45.5 183.5t140.5 126.5q-95 45 -140.5 125.5t-45.5 184.5v203q0 112 -29.5 186t-101.5 103l63 176q194 -55 277 -174.5t83 -290.5v-203q0 -94 39.5 -145.5t122.5 -51.5v-227q-83 0 -122.5 -52t-39.5 -144v-203 q0 -171 -83 -291t-277 -175z" />
<glyph unicode="~" horiz-adv-x="1295" d="M94 435q0 175 87 288t226 113q81 0 156 -32.5t147 -96.5q43 -42 76.5 -60.5t72.5 -18.5q43 0 74.5 50t31.5 122l232 -31q0 -175 -88.5 -288.5t-226.5 -113.5q-83 0 -154 30.5t-146 99.5q-47 43 -79.5 61t-73.5 18q-43 0 -73.5 -50t-30.5 -121z" />
<glyph unicode="&#xa2;" horiz-adv-x="1210" d="M98 529v23q0 217 107 364t306 178v224h200v-225q162 -28 255.5 -138.5t91.5 -281.5l-3 -5h-310q0 77 -34 125.5t-103 48.5q-96 0 -134.5 -79t-38.5 -211v-23q0 -136 38.5 -213t137.5 -77q68 0 101 37t33 109h310l2 -5q3 -153 -93 -259.5t-253 -132.5v-233h-200v232 q-200 30 -306.5 177t-106.5 365z" />
<glyph unicode="&#xa3;" horiz-adv-x="1227" d="M103 575v261h154l-7 185q0 213 124.5 334.5t333.5 121.5q223 0 345 -115t118 -304l-2 -6h-330q0 85 -37.5 125t-94.5 40t-88 -51t-31 -145l9 -185h325v-261h-312l3 -51q0 -73 -34.5 -141t-98.5 -123h692v-260h-1006v260h10q47 12 70.5 86.5t23.5 156.5l-3 72h-164z" />
<glyph unicode="&#xa5;" horiz-adv-x="1258" d="M18 1456h367l243 -579h6l244 579h366l-366 -714h213v-210h-295v-100h295v-210h-295v-222h-337v222h-323v210h323v100h-323v210h249z" />
<glyph unicode="&#xa8;" horiz-adv-x="1123" d="M148 1252v204h290v-204h-290zM663 1252v204h290v-204h-290z" />
<glyph unicode="&#xa9;" horiz-adv-x="1608" d="M85 729q0 315 207 531t503 216q295 0 502.5 -216t207.5 -531q0 -316 -208 -533t-502 -217q-296 0 -503 217t-207 533zM207 729q0 -264 171.5 -444.5t416.5 -180.5q244 0 415.5 180.5t171.5 444.5q0 263 -171.5 442.5t-415.5 179.5q-246 0 -417 -179.5t-171 -442.5z M432 669v119q0 173 94.5 280t254.5 107q157 0 245.5 -79.5t84.5 -228.5l-2 -6h-148q0 94 -45 136.5t-135 42.5q-94 0 -144 -69t-50 -182v-120q0 -115 50 -183.5t144 -68.5q90 0 134.5 41.5t44.5 137.5h148l2 -6q4 -151 -84 -229.5t-245 -78.5q-160 0 -254.5 106t-94.5 281z " />
<glyph unicode="&#xab;" horiz-adv-x="1054" d="M55 541v19l272 390h206l-232 -400l232 -399h-206zM478 541v19l272 390h206l-232 -400l232 -399h-206z" />
<glyph unicode="&#xad;" horiz-adv-x="921" d="M152 497v261h601v-261h-601z" />
<glyph unicode="&#xae;" horiz-adv-x="1608" d="M85 729q0 315 207 531t503 216q295 0 502.5 -216t207.5 -531q0 -316 -208 -533t-502 -217q-296 0 -503 217t-207 533zM207 729q0 -264 171.5 -444.5t416.5 -180.5q244 0 415.5 180.5t171.5 444.5q0 263 -171.5 442.5t-415.5 179.5q-246 0 -417 -179.5t-171 -442.5z M500 316v850h281q151 0 238 -69t87 -195q0 -56 -27.5 -98.5t-79.5 -71.5q55 -31 79.5 -86.5t24.5 -130.5v-56q0 -41 3.5 -73.5t13.5 -53.5v-16h-155q-9 21 -11 61.5t-2 82.5v54q0 71 -33.5 105t-109.5 34h-158v-337h-151zM651 787h128q74 0 125.5 30t51.5 86q0 72 -39 101 t-136 29h-130v-246z" />
<glyph unicode="&#xb4;" horiz-adv-x="762" d="M96 1212l206 266h348l2 -6l-280 -260h-276z" />
<glyph unicode="&#xb8;" horiz-adv-x="569" d="M86 -136l31 146h256l-10 -61q64 -11 107 -52t43 -121q0 -114 -97 -181t-277 -67l-7 186q41 0 64.5 19t23.5 58q0 38 -30.5 53.5t-103.5 19.5z" />
<glyph unicode="&#xbb;" horiz-adv-x="1054" d="M55 151l232 399l-232 400h207l272 -390v-19l-272 -390h-207zM490 151l232 399l-232 400h207l272 -390v-19l-272 -390h-207z" />
<glyph unicode="&#xc0;" horiz-adv-x="1300" d="M7 0l470 1456h363l471 -1456h-340l-83 283h-459l-82 -283h-340zM270 1819l2 6h347l208 -266h-275zM504 543h309l-152 521h-6z" />
<glyph unicode="&#xc2;" horiz-adv-x="1300" d="M7 0l470 1456h363l471 -1456h-340l-83 283h-459l-82 -283h-340zM251 1587v26l300 240h193l305 -244v-22h-265l-137 126l-136 -126h-260zM504 543h309l-152 521h-6z" />
<glyph unicode="&#xc6;" horiz-adv-x="1926" d="M16 0l735 1456h1039v-264h-549l13 -316h455v-264h-444l15 -348h571v-264h-897l-14 329h-382l-152 -329h-390zM683 599h246l-20 473l-6 1z" />
<glyph unicode="&#xc7;" horiz-adv-x="1316" d="M80 576v304q0 264 162.5 430.5t422.5 166.5q276 0 422 -139t165 -395l-2 -6h-329q-7 142 -63.5 211t-192.5 69q-115 0 -181 -92.5t-66 -242.5v-306q0 -151 72 -244t198 -93q122 0 173 65t58 207h329l2 -6q-10 -256 -151.5 -391t-410.5 -135q-270 0 -439 166t-169 431z M497 -136l31 146h256l-10 -61q64 -11 107 -52t43 -121q0 -114 -97 -181t-277 -67l-7 186q41 0 64.5 19t23.5 58q0 38 -30.5 53.5t-103.5 19.5z" />
<glyph unicode="&#xc8;" horiz-adv-x="1165" d="M114 0v1456h1014v-260h-675v-313h571v-260h-571v-363h673v-260h-1012zM214 1819l2 6h347l208 -266h-275z" />
<glyph unicode="&#xc9;" horiz-adv-x="1165" d="M114 0v1456h1014v-260h-675v-313h571v-260h-571v-363h673v-260h-1012zM414 1561l206 266h348l2 -6l-280 -260h-276z" />
<glyph unicode="&#xca;" horiz-adv-x="1165" d="M114 0v1456h1014v-260h-675v-313h571v-260h-571v-363h673v-260h-1012zM195 1587v26l300 240h193l305 -244v-22h-265l-137 126l-136 -126h-260z" />
<glyph unicode="&#xcb;" horiz-adv-x="1165" d="M114 0v1456h1014v-260h-675v-313h571v-260h-571v-363h673v-260h-1012zM189 1601v204h290v-204h-290zM704 1601v204h290v-204h-290z" />
<glyph unicode="&#xce;" horiz-adv-x="611" d="M-89 1587v26l300 240h193l305 -244v-22h-265l-137 126l-136 -126h-260zM137 0v1456h337v-1456h-337z" />
<glyph unicode="&#xcf;" horiz-adv-x="611" d="M-95 1601v204h290v-204h-290zM137 0v1456h337v-1456h-337zM420 1601v204h290v-204h-290z" />
<glyph unicode="&#xd4;" horiz-adv-x="1400" d="M81 597v262q0 268 171.5 443t447.5 175q274 0 446 -175t172 -443v-262q0 -269 -170.5 -443.5t-445.5 -174.5q-277 0 -449 174.5t-172 443.5zM304 1608v26l300 240h193l305 -244v-22h-265l-137 126l-136 -126h-260zM418 597q0 -158 73.5 -258t210.5 -100q133 0 206 100 t73 258v264q0 156 -73.5 256t-207.5 100q-137 0 -209.5 -99.5t-72.5 -256.5v-264z" />
<glyph unicode="&#xd9;" horiz-adv-x="1417" d="M107 502v954h339v-954q0 -134 69 -198.5t195 -64.5q125 0 192.5 64t67.5 199v954h339v-954q0 -249 -165.5 -386t-433.5 -137q-271 0 -437 137t-166 386zM331 1819l2 6h347l208 -266h-275z" />
<glyph unicode="&#xdb;" horiz-adv-x="1417" d="M107 502v954h339v-954q0 -134 69 -198.5t195 -64.5q125 0 192.5 64t67.5 199v954h339v-954q0 -249 -165.5 -386t-433.5 -137q-271 0 -437 137t-166 386zM312 1587v26l300 240h193l305 -244v-22h-265l-137 126l-136 -126h-260z" />
<glyph unicode="&#xdc;" horiz-adv-x="1417" d="M107 502v954h339v-954q0 -134 69 -198.5t195 -64.5q125 0 192.5 64t67.5 199v954h339v-954q0 -249 -165.5 -386t-433.5 -137q-271 0 -437 137t-166 386zM306 1601v204h290v-204h-290zM821 1601v204h290v-204h-290z" />
<glyph unicode="&#xe0;" horiz-adv-x="1086" d="M45 305q0 161 120.5 248.5t366.5 87.5h123v77q0 69 -32.5 106t-100.5 37q-58 0 -86.5 -27.5t-28.5 -85.5l-327 1l-2 6q-7 148 123 247.5t344 99.5q200 0 324.5 -100t124.5 -286v-408q0 -87 14.5 -161t43.5 -147l-334 1q-14 26 -25.5 58t-19.5 66q-48 -67 -116 -106.5 t-165 -39.5q-154 0 -250.5 89t-96.5 237zM161 1497l2 6h347l208 -266h-275zM382 323q0 -46 31.5 -74.5t81.5 -28.5t92 20t68 52v169h-120q-80 0 -116.5 -39t-36.5 -99z" />
<glyph unicode="&#xe2;" horiz-adv-x="1086" d="M45 305q0 161 120.5 248.5t366.5 87.5h123v77q0 69 -32.5 106t-100.5 37q-58 0 -86.5 -27.5t-28.5 -85.5l-327 1l-2 6q-7 148 123 247.5t344 99.5q200 0 324.5 -100t124.5 -286v-408q0 -87 14.5 -161t43.5 -147l-334 1q-14 26 -25.5 58t-19.5 66q-48 -67 -116 -106.5 t-165 -39.5q-154 0 -250.5 89t-96.5 237zM142 1265v26l300 240h193l305 -244v-22h-265l-137 126l-136 -126h-260zM382 323q0 -46 31.5 -74.5t81.5 -28.5t92 20t68 52v169h-120q-80 0 -116.5 -39t-36.5 -99z" />
<glyph unicode="&#xe6;" horiz-adv-x="1730" d="M41 324q0 159 132.5 245t386.5 86h158v46q0 66 -35 103.5t-99 37.5q-70 0 -109.5 -29t-39.5 -73l-328 18l-1 6q-7 147 126.5 242.5t355.5 95.5q97 0 179 -22.5t143 -66.5q61 43 140.5 66t176.5 23q211 0 334.5 -132.5t123.5 -357.5v-177h-619l-2 -6q4 -88 57.5 -139 t162.5 -51q88 0 148.5 16t136.5 51l81 -206q-66 -51 -178.5 -86t-233.5 -35q-125 0 -223.5 37.5t-166.5 107.5q-60 -64 -157 -104.5t-227 -40.5q-203 0 -313 92.5t-110 252.5zM378 320q0 -52 37 -80.5t113 -28.5q49 0 102.5 24t87.5 58v141q-1 4 -1 7.5v9.5h-155 q-87 0 -135.5 -38.5t-48.5 -92.5zM1062 651l2 -5h292v26q0 80 -34 125t-95 45q-86 0 -123.5 -50.5t-41.5 -140.5z" />
<glyph unicode="&#xe7;" horiz-adv-x="1046" d="M45 529v23q0 243 133 396.5t377 153.5q206 0 329 -115t119 -313l-2 -6h-309q0 77 -34 125.5t-103 48.5q-96 0 -134.5 -79t-38.5 -211v-23q0 -136 38.5 -213t137.5 -77q68 0 101 37t33 109h309l2 -6q4 -177 -122.5 -288.5t-322.5 -111.5q-246 0 -379.5 153t-133.5 397z M403 -136l31 146h256l-10 -61q64 -11 107 -52t43 -121q0 -114 -97 -181t-277 -67l-7 186q41 0 64.5 19t23.5 58q0 38 -30.5 53.5t-103.5 19.5z" />
<glyph unicode="&#xe8;" horiz-adv-x="1083" d="M66 505v38q0 247 129.5 403.5t370.5 155.5q220 0 345 -132t125 -358v-177h-618l-2 -6q11 -83 68 -136.5t152 -53.5q96 0 153.5 15t145.5 52l80 -206q-71 -52 -183.5 -86.5t-241.5 -34.5q-239 0 -381.5 150t-142.5 376zM163 1498l2 6h347l208 -266h-275zM412 651l3 -5h291 v26q0 82 -34 126t-106 44q-73 0 -109.5 -52t-44.5 -139z" />
<glyph unicode="&#xe9;" horiz-adv-x="1083" d="M66 505v38q0 247 129.5 403.5t370.5 155.5q220 0 345 -132t125 -358v-177h-618l-2 -6q11 -83 68 -136.5t152 -53.5q96 0 153.5 15t145.5 52l80 -206q-71 -52 -183.5 -86.5t-241.5 -34.5q-239 0 -381.5 150t-142.5 376zM363 1240l206 266h348l2 -6l-280 -260h-276z M412 651l3 -5h291v26q0 82 -34 126t-106 44q-73 0 -109.5 -52t-44.5 -139z" />
<glyph unicode="&#xea;" horiz-adv-x="1083" d="M66 505v38q0 247 129.5 403.5t370.5 155.5q220 0 345 -132t125 -358v-177h-618l-2 -6q11 -83 68 -136.5t152 -53.5q96 0 153.5 15t145.5 52l80 -206q-71 -52 -183.5 -86.5t-241.5 -34.5q-239 0 -381.5 150t-142.5 376zM144 1266v26l300 240h193l305 -244v-22h-265 l-137 126l-136 -126h-260zM412 651l3 -5h291v26q0 82 -34 126t-106 44q-73 0 -109.5 -52t-44.5 -139z" />
<glyph unicode="&#xeb;" horiz-adv-x="1083" d="M66 505v38q0 247 129.5 403.5t370.5 155.5q220 0 345 -132t125 -358v-177h-618l-2 -6q11 -83 68 -136.5t152 -53.5q96 0 153.5 15t145.5 52l80 -206q-71 -52 -183.5 -86.5t-241.5 -34.5q-239 0 -381.5 150t-142.5 376zM140 1280v204h290v-204h-290zM412 651l3 -5h291v26 q0 82 -34 126t-106 44q-73 0 -109.5 -52t-44.5 -139zM655 1280v204h290v-204h-290z" />
<glyph unicode="&#xee;" horiz-adv-x="584" d="M-101 1246v26l300 240h193l305 -244v-22h-265l-137 126l-136 -126h-260zM123 0v1082h339v-1082h-339z" />
<glyph unicode="&#xef;" horiz-adv-x="584" d="M-107 1258v204h290v-204h-290zM123 0v1082h339v-1082h-339zM408 1258v204h290v-204h-290z" />
<glyph unicode="&#xf4;" d="M51 530v21q0 244 138 397.5t385 153.5q248 0 386 -153.5t138 -397.5v-21q0 -245 -138 -398t-384 -153q-249 0 -387 153t-138 398zM179 1265v26l300 240h193l305 -244v-22h-265l-137 126l-136 -126h-260zM389 530q0 -136 42.5 -213.5t144.5 -77.5q99 0 142 78t43 213v21 q0 132 -43 211.5t-144 79.5q-100 0 -142.5 -80t-42.5 -211v-21z" />
<glyph unicode="&#xf9;" d="M88 422v660h337v-662q0 -91 34.5 -136t98.5 -45q54 0 95 15t70 45v783h338v-1082h-295l-21 128q-52 -72 -127.5 -110.5t-170.5 -38.5q-168 0 -263.5 108t-95.5 335zM197 1476l2 6h347l208 -266h-275z" />
<glyph unicode="&#xfb;" d="M88 422v660h337v-662q0 -91 34.5 -136t98.5 -45q54 0 95 15t70 45v783h338v-1082h-295l-21 128q-52 -72 -127.5 -110.5t-170.5 -38.5q-168 0 -263.5 108t-95.5 335zM178 1246v26l300 240h193l305 -244v-22h-265l-137 126l-136 -126h-260z" />
<glyph unicode="&#xfc;" d="M88 422v660h337v-662q0 -91 34.5 -136t98.5 -45q54 0 95 15t70 45v783h338v-1082h-295l-21 128q-52 -72 -127.5 -110.5t-170.5 -38.5q-168 0 -263.5 108t-95.5 335zM172 1258v204h290v-204h-290zM687 1258v204h290v-204h-290z" />
<glyph unicode="&#xff;" horiz-adv-x="1053" d="M-5 1082h359l161 -605l1 -8h6l179 613h360l-431 -1243q-50 -120 -129 -198t-251 -78q-44 0 -72 5.5t-88 20.5l41 241l21 -4.5t18 -1.5q80 0 117 23.5t55 70.5l27 70zM127 1258v204h290v-204h-290zM642 1258v204h290v-204h-290z" />
<glyph unicode="&#x152;" horiz-adv-x="1995" d="M93 576v304q0 265 173.5 431t453.5 166q69 0 140 -6t150 -15h923v-260h-675v-313h571v-260h-571v-363h673v-260h-921q-92 -10 -156.5 -15.5t-131.5 -5.5q-280 0 -454.5 166t-174.5 431zM430 576q0 -165 77 -251t215 -86q49 0 98.5 3t98.5 10v951q-52 6 -101.5 10t-97.5 4 q-138 0 -214 -85.5t-76 -249.5v-306z" />
<glyph unicode="&#x153;" horiz-adv-x="1845" d="M75 530v21q0 244 137.5 397.5t384.5 153.5q110 0 200 -32.5t157 -91.5q63 60 148.5 92t191.5 32q220 0 345 -132t125 -358v-177h-617l-2 -6q11 -83 67.5 -136.5t152.5 -53.5q95 0 152.5 15t145.5 52l80 -206q-70 -52 -182.5 -86.5t-241.5 -34.5q-109 0 -200 33t-159 95 q-67 -62 -158 -95t-203 -33q-248 0 -386 153t-138 398zM412 530q0 -136 42.5 -213.5t144.5 -77.5q99 0 142 78t43 213v21q0 132 -43 211.5t-144 79.5q-99 0 -142 -80t-43 -211v-21zM1141 651l3 -5h291v26q0 82 -34.5 126t-106.5 44t-108.5 -52t-44.5 -139z" />
<glyph unicode="&#x178;" horiz-adv-x="1310" d="M-3 1456h365l289 -636h6l290 636h367l-495 -944v-512h-337v529zM262 1601v204h290v-204h-290zM777 1601v204h290v-204h-290z" />
<glyph unicode="&#x2c6;" horiz-adv-x="1033" d="M120 1252v26l300 240h193l305 -244v-22h-265l-137 126l-136 -126h-260z" />
<glyph unicode="&#x2da;" horiz-adv-x="674" d="M128 1294q0 81 62 137t153 56q89 0 150 -56t61 -137q0 -82 -61 -135.5t-150 -53.5q-92 0 -153.5 53.5t-61.5 135.5zM249 1294q0 -42 26.5 -68t67.5 -26q40 0 64.5 25.5t24.5 68.5t-24.5 69.5t-64.5 26.5q-41 0 -67.5 -26.5t-26.5 -69.5z" />
<glyph unicode="&#x2dc;" horiz-adv-x="987" d="M111 1271q0 94 59.5 163.5t149.5 69.5q56 0 157.5 -41.5t153.5 -41.5q31 0 54.5 32t23.5 78l178 -51q0 -96 -60 -164.5t-150 -68.5q-70 0 -164.5 42t-146.5 42q-33 0 -55 -32.5t-22 -77.5z" />
<glyph unicode="&#x2000;" horiz-adv-x="937" />
<glyph unicode="&#x2001;" horiz-adv-x="1874" />
<glyph unicode="&#x2002;" horiz-adv-x="937" />
<glyph unicode="&#x2003;" horiz-adv-x="1874" />
<glyph unicode="&#x2004;" horiz-adv-x="624" />
<glyph unicode="&#x2005;" horiz-adv-x="468" />
<glyph unicode="&#x2006;" horiz-adv-x="312" />
<glyph unicode="&#x2007;" horiz-adv-x="312" />
<glyph unicode="&#x2008;" horiz-adv-x="234" />
<glyph unicode="&#x2009;" horiz-adv-x="374" />
<glyph unicode="&#x200a;" horiz-adv-x="104" />
<glyph unicode="&#x2010;" horiz-adv-x="921" d="M152 497v261h601v-261h-601z" />
<glyph unicode="&#x2011;" horiz-adv-x="921" d="M152 497v261h601v-261h-601z" />
<glyph unicode="&#x2012;" horiz-adv-x="921" d="M152 497v261h601v-261h-601z" />
<glyph unicode="&#x2013;" horiz-adv-x="1412" d="M157 578v264h1085v-264h-1085z" />
<glyph unicode="&#x2014;" horiz-adv-x="1675" d="M126 578v264h1334v-264h-1334z" />
<glyph unicode="&#x2018;" horiz-adv-x="398" d="M35 1016v195l162 349h166l-60 -343v-201h-268z" />
<glyph unicode="&#x2019;" horiz-adv-x="398" d="M46 1016l60 351v193h268v-194l-162 -350h-166z" />
<glyph unicode="&#x201a;" horiz-adv-x="399" d="M35 -266l60 269v306h269v-292l-139 -283h-190z" />
<glyph unicode="&#x201c;" horiz-adv-x="739" d="M35 1016v195l162 349h166l-60 -343v-201h-268zM375 1016v195l162 349h166l-60 -343v-201h-268z" />
<glyph unicode="&#x201d;" horiz-adv-x="747" d="M37 1016l60 351v193h268v-194l-162 -350h-166zM383 1016l60 351v193h268v-194l-162 -350h-166z" />
<glyph unicode="&#x201e;" horiz-adv-x="733" d="M35 -216l60 236v288h246v-275l-162 -249h-144zM392 -216l60 244v280h246v-275l-162 -249h-144z" />
<glyph unicode="&#x2026;" horiz-adv-x="1587" d="M147 0v284h337v-284h-337zM636 0v284h337v-284h-337zM1124 0v284h337v-284h-337z" />
<glyph unicode="&#x202f;" horiz-adv-x="374" />
<glyph unicode="&#x2039;" horiz-adv-x="650" d="M108 541v19l272 390h206l-232 -400l232 -399h-206z" />
<glyph unicode="&#x203a;" horiz-adv-x="620" d="M76 151l232 399l-232 400h207l272 -390v-19l-272 -390h-207z" />
<glyph unicode="&#x205f;" horiz-adv-x="468" />
<glyph unicode="&#x20ac;" horiz-adv-x="1130" d="M67 442v210h146v115h-146v210h146v13q0 202 154.5 344.5t405.5 142.5q60 0 117.5 -8t125.5 -23l-21 -264q-53 16 -109.5 25.5t-112.5 9.5q-105 0 -163 -67.5t-58 -157.5v-15h396v-210h-396v-115h396v-210h-396v-14q0 -79 57.5 -134t165.5 -55q57 0 112.5 8t107.5 25 l21 -262q-57 -15 -118 -23t-123 -8q-252 0 -407 131.5t-155 317.5v14h-146z" />
<glyph unicode="&#x2122;" horiz-adv-x="1298" d="M92 1340v116h406v-116h-121v-423h-168v423h-117zM564 913v543h180l100 -348h6l99 348h175v-543h-147v243l-6 1l-83 -244h-83l-88 260l-6 -1v-259h-147z" />
<glyph unicode="&#xe000;" horiz-adv-x="1080" d="M0 0v1080h1080v-1080h-1080z" />
<hkern u1="&#x22;" u2="w" k="-11" />
<hkern u1="&#x27;" u2="w" k="-11" />
<hkern u1="&#x28;" u2="&#x178;" k="-22" />
<hkern u1="&#x28;" u2="Y" k="-22" />
<hkern u1="&#x28;" u2="W" k="-38" />
<hkern u1="&#x28;" u2="V" k="-20" />
<hkern u1="&#x2f;" u2="&#x2f;" k="248" />
<hkern u1="A" u2="w" k="33" />
<hkern u1="A" u2="t" k="17" />
<hkern u1="A" u2="&#x3f;" k="81" />
<hkern u1="C" u2="&#x7d;" k="17" />
<hkern u1="C" u2="]" k="12" />
<hkern u1="C" u2="&#x29;" k="26" />
<hkern u1="D" u2="&#xc6;" k="33" />
<hkern u1="E" u2="w" k="22" />
<hkern u1="E" u2="f" k="18" />
<hkern u1="F" u2="&#x2026;" k="274" />
<hkern u1="F" u2="&#x201e;" k="274" />
<hkern u1="F" u2="&#x201a;" k="274" />
<hkern u1="F" u2="&#x153;" k="21" />
<hkern u1="F" u2="&#xff;" k="24" />
<hkern u1="F" u2="&#xfc;" k="22" />
<hkern u1="F" u2="&#xfb;" k="22" />
<hkern u1="F" u2="&#xf9;" k="22" />
<hkern u1="F" u2="&#xf4;" k="21" />
<hkern u1="F" u2="&#xeb;" k="21" />
<hkern u1="F" u2="&#xea;" k="21" />
<hkern u1="F" u2="&#xe9;" k="21" />
<hkern u1="F" u2="&#xe8;" k="21" />
<hkern u1="F" u2="&#xe7;" k="21" />
<hkern u1="F" u2="&#xe2;" k="34" />
<hkern u1="F" u2="&#xe0;" k="34" />
<hkern u1="F" u2="&#xc2;" k="59" />
<hkern u1="F" u2="&#xc0;" k="59" />
<hkern u1="F" u2="y" k="24" />
<hkern u1="F" u2="v" k="24" />
<hkern u1="F" u2="u" k="22" />
<hkern u1="F" u2="r" k="26" />
<hkern u1="F" u2="q" k="21" />
<hkern u1="F" u2="o" k="21" />
<hkern u1="F" u2="g" k="21" />
<hkern u1="F" u2="e" k="21" />
<hkern u1="F" u2="d" k="21" />
<hkern u1="F" u2="c" k="21" />
<hkern u1="F" u2="a" k="34" />
<hkern u1="F" u2="T" k="-20" />
<hkern u1="F" u2="J" k="208" />
<hkern u1="F" u2="A" k="59" />
<hkern u1="F" u2="&#x2e;" k="274" />
<hkern u1="F" u2="&#x2c;" k="274" />
<hkern u1="K" u2="w" k="63" />
<hkern u1="L" u2="w" k="52" />
<hkern u1="O" u2="&#xc6;" k="33" />
<hkern u1="P" u2="&#xc6;" k="297" />
<hkern u1="P" u2="t" k="-14" />
<hkern u1="Q" u2="&#x178;" k="35" />
<hkern u1="Q" u2="Y" k="35" />
<hkern u1="Q" u2="W" k="20" />
<hkern u1="Q" u2="V" k="28" />
<hkern u1="Q" u2="T" k="33" />
<hkern u1="R" u2="&#x178;" k="48" />
<hkern u1="R" u2="Y" k="48" />
<hkern u1="R" u2="V" k="19" />
<hkern u1="R" u2="T" k="50" />
<hkern u1="T" u2="&#xe6;" k="84" />
<hkern u1="T" u2="&#xc6;" k="189" />
<hkern u1="T" u2="&#xbb;" k="146" />
<hkern u1="T" u2="&#xab;" k="148" />
<hkern u1="T" u2="w" k="47" />
<hkern u1="T" u2="r" k="65" />
<hkern u1="V" u2="&#x7d;" k="-19" />
<hkern u1="V" u2="r" k="30" />
<hkern u1="V" u2="]" k="-17" />
<hkern u1="V" u2="&#x29;" k="-20" />
<hkern u1="W" u2="&#x7d;" k="-14" />
<hkern u1="W" u2="r" k="21" />
<hkern u1="W" u2="]" k="-12" />
<hkern u1="W" u2="&#x29;" k="-15" />
<hkern u1="Y" u2="&#xe6;" k="63" />
<hkern u1="Y" u2="&#xc6;" k="96" />
<hkern u1="Y" u2="&#xbb;" k="51" />
<hkern u1="Y" u2="&#xab;" k="82" />
<hkern u1="Y" u2="&#x7d;" k="-19" />
<hkern u1="Y" u2="t" k="22" />
<hkern u1="Y" u2="r" k="40" />
<hkern u1="Y" u2="f" k="22" />
<hkern u1="Y" u2="]" k="-18" />
<hkern u1="Y" u2="&#x2a;" k="49" />
<hkern u1="Y" u2="&#x29;" k="-20" />
<hkern u1="Y" u2="&#x26;" k="30" />
<hkern u1="Z" u2="w" k="27" />
<hkern u1="[" u2="&#xdc;" k="18" />
<hkern u1="[" u2="&#xdb;" k="18" />
<hkern u1="[" u2="&#xd9;" k="18" />
<hkern u1="[" u2="U" k="18" />
<hkern u1="[" u2="J" k="18" />
<hkern u1="f" u2="&#x201d;" k="-16" />
<hkern u1="f" u2="&#x201c;" k="-16" />
<hkern u1="f" u2="&#x2019;" k="-16" />
<hkern u1="f" u2="&#x2018;" k="-16" />
<hkern u1="f" u2="&#x153;" k="24" />
<hkern u1="f" u2="&#xeb;" k="24" />
<hkern u1="f" u2="&#xea;" k="24" />
<hkern u1="f" u2="&#xe9;" k="24" />
<hkern u1="f" u2="&#xe8;" k="24" />
<hkern u1="f" u2="&#xe7;" k="24" />
<hkern u1="f" u2="&#x7d;" k="-19" />
<hkern u1="f" u2="q" k="24" />
<hkern u1="f" u2="g" k="24" />
<hkern u1="f" u2="e" k="24" />
<hkern u1="f" u2="d" k="24" />
<hkern u1="f" u2="c" k="24" />
<hkern u1="f" u2="]" k="-18" />
<hkern u1="f" u2="&#x29;" k="-20" />
<hkern u1="f" u2="&#x27;" k="-16" />
<hkern u1="f" u2="&#x22;" k="-16" />
<hkern u1="k" u2="&#x153;" k="20" />
<hkern u1="k" u2="&#xeb;" k="20" />
<hkern u1="k" u2="&#xea;" k="20" />
<hkern u1="k" u2="&#xe9;" k="20" />
<hkern u1="k" u2="&#xe8;" k="20" />
<hkern u1="k" u2="&#xe7;" k="20" />
<hkern u1="k" u2="q" k="20" />
<hkern u1="k" u2="g" k="20" />
<hkern u1="k" u2="e" k="20" />
<hkern u1="k" u2="d" k="20" />
<hkern u1="k" u2="c" k="20" />
<hkern u1="r" u2="w" k="-17" />
<hkern u1="r" u2="t" k="-24" />
<hkern u1="r" u2="f" k="-20" />
<hkern u1="t" u2="&#xf4;" k="30" />
<hkern u1="t" u2="o" k="30" />
<hkern u1="v" u2="f" k="-13" />
<hkern u1="w" u2="&#x2026;" k="124" />
<hkern u1="w" u2="&#x201e;" k="124" />
<hkern u1="w" u2="&#x201a;" k="124" />
<hkern u1="w" u2="&#x2e;" k="124" />
<hkern u1="w" u2="&#x2c;" k="124" />
<hkern u1="y" u2="f" k="-13" />
<hkern u1="&#x7b;" u2="&#xdc;" k="20" />
<hkern u1="&#x7b;" u2="&#xdb;" k="20" />
<hkern u1="&#x7b;" u2="&#xd9;" k="20" />
<hkern u1="&#x7b;" u2="U" k="20" />
<hkern u1="&#x7b;" u2="J" k="20" />
<hkern u1="&#xc0;" u2="w" k="33" />
<hkern u1="&#xc0;" u2="t" k="17" />
<hkern u1="&#xc0;" u2="&#x3f;" k="81" />
<hkern u1="&#xc2;" u2="w" k="33" />
<hkern u1="&#xc2;" u2="t" k="17" />
<hkern u1="&#xc2;" u2="&#x3f;" k="81" />
<hkern u1="&#xc7;" u2="&#x7d;" k="17" />
<hkern u1="&#xc7;" u2="]" k="12" />
<hkern u1="&#xc7;" u2="&#x29;" k="26" />
<hkern u1="&#xc8;" u2="w" k="22" />
<hkern u1="&#xc8;" u2="f" k="18" />
<hkern u1="&#xc9;" u2="w" k="22" />
<hkern u1="&#xc9;" u2="f" k="18" />
<hkern u1="&#xca;" u2="w" k="22" />
<hkern u1="&#xca;" u2="f" k="18" />
<hkern u1="&#xcb;" u2="w" k="22" />
<hkern u1="&#xcb;" u2="f" k="18" />
<hkern u1="&#xd4;" u2="&#xc6;" k="33" />
<hkern u1="&#xff;" u2="f" k="-13" />
<hkern u1="&#x178;" u2="&#xe6;" k="63" />
<hkern u1="&#x178;" u2="&#xc6;" k="96" />
<hkern u1="&#x178;" u2="&#xbb;" k="51" />
<hkern u1="&#x178;" u2="&#xab;" k="82" />
<hkern u1="&#x178;" u2="&#x7d;" k="-19" />
<hkern u1="&#x178;" u2="t" k="22" />
<hkern u1="&#x178;" u2="r" k="40" />
<hkern u1="&#x178;" u2="f" k="22" />
<hkern u1="&#x178;" u2="]" k="-18" />
<hkern u1="&#x178;" u2="&#x2a;" k="49" />
<hkern u1="&#x178;" u2="&#x29;" k="-20" />
<hkern u1="&#x178;" u2="&#x26;" k="30" />
<hkern u1="&#x2018;" u2="w" k="-11" />
<hkern u1="&#x2019;" u2="w" k="-11" />
<hkern u1="&#x201c;" u2="w" k="-11" />
<hkern u1="&#x201d;" u2="w" k="-11" />
<hkern g1="comma,period,quotesinglbase,quotedblbase,ellipsis" 	g2="quotedbl,quotesingle,quoteleft,quoteright,quotedblleft,quotedblright" 	k="285" />
<hkern g1="A,Agrave,Acircumflex" 	g2="quotedbl,quotesingle,quoteleft,quoteright,quotedblleft,quotedblright" 	k="120" />
<hkern g1="A,Agrave,Acircumflex" 	g2="m,n,p" 	k="48" />
<hkern g1="A,Agrave,Acircumflex" 	g2="o,ocircumflex" 	k="12" />
<hkern g1="A,Agrave,Acircumflex" 	g2="C,G,O,Q,Ccedilla,Ocircumflex,OE" 	k="11" />
<hkern g1="A,Agrave,Acircumflex" 	g2="T" 	k="89" />
<hkern g1="A,Agrave,Acircumflex" 	g2="U,Ugrave,Ucircumflex,Udieresis" 	k="17" />
<hkern g1="A,Agrave,Acircumflex" 	g2="V" 	k="77" />
<hkern g1="A,Agrave,Acircumflex" 	g2="W" 	k="39" />
<hkern g1="A,Agrave,Acircumflex" 	g2="Y,Ydieresis" 	k="150" />
<hkern g1="A,Agrave,Acircumflex" 	g2="u,ugrave,ucircumflex,udieresis" 	k="11" />
<hkern g1="A,Agrave,Acircumflex" 	g2="v,y,ydieresis" 	k="50" />
<hkern g1="A,Agrave,Acircumflex" 	g2="z" 	k="-12" />
<hkern g1="B" 	g2="T" 	k="27" />
<hkern g1="B" 	g2="V" 	k="24" />
<hkern g1="B" 	g2="Y,Ydieresis" 	k="55" />
<hkern g1="C,Ccedilla" 	g2="T" 	k="29" />
<hkern g1="D,O,Ocircumflex" 	g2="A,Agrave,Acircumflex" 	k="21" />
<hkern g1="D,O,Ocircumflex" 	g2="T" 	k="27" />
<hkern g1="D,O,Ocircumflex" 	g2="V" 	k="22" />
<hkern g1="D,O,Ocircumflex" 	g2="Y,Ydieresis" 	k="43" />
<hkern g1="D,O,Ocircumflex" 	g2="comma,period,quotesinglbase,quotedblbase,ellipsis" 	k="122" />
<hkern g1="D,O,Ocircumflex" 	g2="X" 	k="22" />
<hkern g1="D,O,Ocircumflex" 	g2="Z" 	k="23" />
<hkern g1="E,Egrave,Eacute,Ecircumflex,Edieresis" 	g2="c,d,e,g,q,ccedilla,egrave,eacute,ecircumflex,edieresis,oe" 	k="19" />
<hkern g1="E,Egrave,Eacute,Ecircumflex,Edieresis" 	g2="o,ocircumflex" 	k="19" />
<hkern g1="E,Egrave,Eacute,Ecircumflex,Edieresis" 	g2="T" 	k="-20" />
<hkern g1="E,Egrave,Eacute,Ecircumflex,Edieresis" 	g2="u,ugrave,ucircumflex,udieresis" 	k="17" />
<hkern g1="E,Egrave,Eacute,Ecircumflex,Edieresis" 	g2="v,y,ydieresis" 	k="26" />
<hkern g1="H,I,M,N,Icircumflex,Idieresis" 	g2="A,Agrave,Acircumflex" 	k="-18" />
<hkern g1="H,I,M,N,Icircumflex,Idieresis" 	g2="T" 	k="29" />
<hkern g1="H,I,M,N,Icircumflex,Idieresis" 	g2="Y,Ydieresis" 	k="28" />
<hkern g1="H,I,M,N,Icircumflex,Idieresis" 	g2="X" 	k="-17" />
<hkern g1="J,U,Ugrave,Ucircumflex,Udieresis" 	g2="A,Agrave,Acircumflex" 	k="22" />
<hkern g1="K" 	g2="c,d,e,g,q,ccedilla,egrave,eacute,ecircumflex,edieresis,oe" 	k="26" />
<hkern g1="K" 	g2="o,ocircumflex" 	k="27" />
<hkern g1="K" 	g2="C,G,O,Q,Ccedilla,Ocircumflex,OE" 	k="31" />
<hkern g1="K" 	g2="u,ugrave,ucircumflex,udieresis" 	k="23" />
<hkern g1="K" 	g2="v,y,ydieresis" 	k="40" />
<hkern g1="K" 	g2="hyphen,endash,emdash" 	k="164" />
<hkern g1="L" 	g2="quotedbl,quotesingle,quoteleft,quoteright,quotedblleft,quotedblright" 	k="258" />
<hkern g1="L" 	g2="A,Agrave,Acircumflex" 	k="-19" />
<hkern g1="L" 	g2="C,G,O,Q,Ccedilla,Ocircumflex,OE" 	k="25" />
<hkern g1="L" 	g2="T" 	k="205" />
<hkern g1="L" 	g2="U,Ugrave,Ucircumflex,Udieresis" 	k="24" />
<hkern g1="L" 	g2="V" 	k="206" />
<hkern g1="L" 	g2="W" 	k="93" />
<hkern g1="L" 	g2="Y,Ydieresis" 	k="279" />
<hkern g1="L" 	g2="u,ugrave,ucircumflex,udieresis" 	k="14" />
<hkern g1="L" 	g2="v,y,ydieresis" 	k="123" />
<hkern g1="P" 	g2="A,Agrave,Acircumflex" 	k="178" />
<hkern g1="P" 	g2="a,agrave,acircumflex" 	k="11" />
<hkern g1="P" 	g2="c,d,e,g,q,ccedilla,egrave,eacute,ecircumflex,edieresis,oe" 	k="13" />
<hkern g1="P" 	g2="o,ocircumflex" 	k="13" />
<hkern g1="P" 	g2="v,y,ydieresis" 	k="-15" />
<hkern g1="P" 	g2="comma,period,quotesinglbase,quotedblbase,ellipsis" 	k="404" />
<hkern g1="P" 	g2="X" 	k="51" />
<hkern g1="P" 	g2="Z" 	k="36" />
<hkern g1="P" 	g2="J" 	k="184" />
<hkern g1="T" 	g2="A,Agrave,Acircumflex" 	k="109" />
<hkern g1="T" 	g2="a,agrave,acircumflex" 	k="83" />
<hkern g1="T" 	g2="c,d,e,g,q,ccedilla,egrave,eacute,ecircumflex,edieresis,oe" 	k="89" />
<hkern g1="T" 	g2="m,n,p" 	k="89" />
<hkern g1="T" 	g2="o,ocircumflex" 	k="79" />
<hkern g1="T" 	g2="s" 	k="76" />
<hkern g1="T" 	g2="C,G,O,Q,Ccedilla,Ocircumflex,OE" 	k="28" />
<hkern g1="T" 	g2="T" 	k="-16" />
<hkern g1="T" 	g2="V" 	k="-16" />
<hkern g1="T" 	g2="W" 	k="-15" />
<hkern g1="T" 	g2="Y,Ydieresis" 	k="-16" />
<hkern g1="T" 	g2="u,ugrave,ucircumflex,udieresis" 	k="65" />
<hkern g1="T" 	g2="v,y,ydieresis" 	k="82" />
<hkern g1="T" 	g2="z" 	k="60" />
<hkern g1="T" 	g2="comma,period,quotesinglbase,quotedblbase,ellipsis" 	k="258" />
<hkern g1="T" 	g2="hyphen,endash,emdash" 	k="272" />
<hkern g1="T" 	g2="J" 	k="216" />
<hkern g1="T" 	g2="S" 	k="16" />
<hkern g1="T" 	g2="x" 	k="77" />
<hkern g1="V" 	g2="A,Agrave,Acircumflex" 	k="75" />
<hkern g1="V" 	g2="a,agrave,acircumflex" 	k="46" />
<hkern g1="V" 	g2="c,d,e,g,q,ccedilla,egrave,eacute,ecircumflex,edieresis,oe" 	k="44" />
<hkern g1="V" 	g2="o,ocircumflex" 	k="46" />
<hkern g1="V" 	g2="C,G,O,Q,Ccedilla,Ocircumflex,OE" 	k="13" />
<hkern g1="V" 	g2="u,ugrave,ucircumflex,udieresis" 	k="28" />
<hkern g1="V" 	g2="v,y,ydieresis" 	k="11" />
<hkern g1="V" 	g2="comma,period,quotesinglbase,quotedblbase,ellipsis" 	k="215" />
<hkern g1="V" 	g2="hyphen,endash,emdash" 	k="157" />
<hkern g1="W" 	g2="A,Agrave,Acircumflex" 	k="43" />
<hkern g1="W" 	g2="a,agrave,acircumflex" 	k="33" />
<hkern g1="W" 	g2="c,d,e,g,q,ccedilla,egrave,eacute,ecircumflex,edieresis,oe" 	k="31" />
<hkern g1="W" 	g2="o,ocircumflex" 	k="31" />
<hkern g1="W" 	g2="T" 	k="-14" />
<hkern g1="W" 	g2="u,ugrave,ucircumflex,udieresis" 	k="19" />
<hkern g1="W" 	g2="comma,period,quotesinglbase,quotedblbase,ellipsis" 	k="143" />
<hkern g1="W" 	g2="hyphen,endash,emdash" 	k="60" />
<hkern g1="X" 	g2="c,d,e,g,q,ccedilla,egrave,eacute,ecircumflex,edieresis,oe" 	k="26" />
<hkern g1="X" 	g2="o,ocircumflex" 	k="21" />
<hkern g1="X" 	g2="C,G,O,Q,Ccedilla,Ocircumflex,OE" 	k="25" />
<hkern g1="X" 	g2="V" 	k="-14" />
<hkern g1="X" 	g2="u,ugrave,ucircumflex,udieresis" 	k="21" />
<hkern g1="X" 	g2="v,y,ydieresis" 	k="31" />
<hkern g1="X" 	g2="hyphen,endash,emdash" 	k="156" />
<hkern g1="Y,Ydieresis" 	g2="A,Agrave,Acircumflex" 	k="150" />
<hkern g1="Y,Ydieresis" 	g2="a,agrave,acircumflex" 	k="63" />
<hkern g1="Y,Ydieresis" 	g2="c,d,e,g,q,ccedilla,egrave,eacute,ecircumflex,edieresis,oe" 	k="65" />
<hkern g1="Y,Ydieresis" 	g2="m,n,p" 	k="40" />
<hkern g1="Y,Ydieresis" 	g2="o,ocircumflex" 	k="65" />
<hkern g1="Y,Ydieresis" 	g2="s" 	k="58" />
<hkern g1="Y,Ydieresis" 	g2="C,G,O,Q,Ccedilla,Ocircumflex,OE" 	k="29" />
<hkern g1="Y,Ydieresis" 	g2="T" 	k="-17" />
<hkern g1="Y,Ydieresis" 	g2="U,Ugrave,Ucircumflex,Udieresis" 	k="96" />
<hkern g1="Y,Ydieresis" 	g2="V" 	k="-18" />
<hkern g1="Y,Ydieresis" 	g2="W" 	k="-17" />
<hkern g1="Y,Ydieresis" 	g2="Y,Ydieresis" 	k="-18" />
<hkern g1="Y,Ydieresis" 	g2="u,ugrave,ucircumflex,udieresis" 	k="39" />
<hkern g1="Y,Ydieresis" 	g2="v,y,ydieresis" 	k="20" />
<hkern g1="Y,Ydieresis" 	g2="z" 	k="30" />
<hkern g1="Y,Ydieresis" 	g2="comma,period,quotesinglbase,quotedblbase,ellipsis" 	k="231" />
<hkern g1="Y,Ydieresis" 	g2="X" 	k="-13" />
<hkern g1="Y,Ydieresis" 	g2="hyphen,endash,emdash" 	k="152" />
<hkern g1="Y,Ydieresis" 	g2="J" 	k="96" />
<hkern g1="Y,Ydieresis" 	g2="S" 	k="16" />
<hkern g1="Y,Ydieresis" 	g2="x" 	k="23" />
<hkern g1="Z" 	g2="A,Agrave,Acircumflex" 	k="-13" />
<hkern g1="Z" 	g2="c,d,e,g,q,ccedilla,egrave,eacute,ecircumflex,edieresis,oe" 	k="21" />
<hkern g1="Z" 	g2="o,ocircumflex" 	k="21" />
<hkern g1="Z" 	g2="C,G,O,Q,Ccedilla,Ocircumflex,OE" 	k="26" />
<hkern g1="Z" 	g2="u,ugrave,ucircumflex,udieresis" 	k="19" />
<hkern g1="Z" 	g2="v,y,ydieresis" 	k="27" />
<hkern g1="a,agrave,acircumflex" 	g2="quotedbl,quotesingle,quoteleft,quoteright,quotedblleft,quotedblright" 	k="17" />
<hkern g1="a,agrave,acircumflex" 	g2="v,y,ydieresis" 	k="15" />
<hkern g1="b,p" 	g2="quotedbl,quotesingle,quoteleft,quoteright,quotedblleft,quotedblright" 	k="29" />
<hkern g1="b,p" 	g2="v,y,ydieresis" 	k="11" />
<hkern g1="b,p" 	g2="z" 	k="15" />
<hkern g1="b,p" 	g2="x" 	k="15" />
<hkern g1="c,ccedilla" 	g2="quotedbl,quotesingle,quoteleft,quoteright,quotedblleft,quotedblright" 	k="11" />
<hkern g1="e,egrave,eacute,ecircumflex,edieresis" 	g2="quotedbl,quotesingle,quoteleft,quoteright,quotedblleft,quotedblright" 	k="14" />
<hkern g1="e,egrave,eacute,ecircumflex,edieresis" 	g2="v,y,ydieresis" 	k="13" />
<hkern g1="h,m,n" 	g2="quotedbl,quotesingle,quoteleft,quoteright,quotedblleft,quotedblright" 	k="16" />
<hkern g1="o,ocircumflex" 	g2="quotedbl,quotesingle,quoteleft,quoteright,quotedblleft,quotedblright" 	k="20" />
<hkern g1="o,ocircumflex" 	g2="v,y,ydieresis" 	k="15" />
<hkern g1="o,ocircumflex" 	g2="z" 	k="16" />
<hkern g1="o,ocircumflex" 	g2="x" 	k="21" />
<hkern g1="r" 	g2="quotedbl,quotesingle,quoteleft,quoteright,quotedblleft,quotedblright" 	k="-16" />
<hkern g1="r" 	g2="a,agrave,acircumflex" 	k="20" />
<hkern g1="r" 	g2="c,d,e,g,q,ccedilla,egrave,eacute,ecircumflex,edieresis,oe" 	k="19" />
<hkern g1="r" 	g2="o,ocircumflex" 	k="20" />
<hkern g1="r" 	g2="v,y,ydieresis" 	k="-18" />
<hkern g1="r" 	g2="comma,period,quotesinglbase,quotedblbase,ellipsis" 	k="173" />
<hkern g1="v,y,ydieresis" 	g2="quotedbl,quotesingle,quoteleft,quoteright,quotedblleft,quotedblright" 	k="-15" />
<hkern g1="v,y,ydieresis" 	g2="a,agrave,acircumflex" 	k="15" />
<hkern g1="v,y,ydieresis" 	g2="c,d,e,g,q,ccedilla,egrave,eacute,ecircumflex,edieresis,oe" 	k="13" />
<hkern g1="v,y,ydieresis" 	g2="o,ocircumflex" 	k="15" />
<hkern g1="v,y,ydieresis" 	g2="comma,period,quotesinglbase,quotedblbase,ellipsis" 	k="167" />
<hkern g1="x" 	g2="c,d,e,g,q,ccedilla,egrave,eacute,ecircumflex,edieresis,oe" 	k="20" />
<hkern g1="x" 	g2="o,ocircumflex" 	k="40" />
<hkern g1="z" 	g2="c,d,e,g,q,ccedilla,egrave,eacute,ecircumflex,edieresis,oe" 	k="16" />
<hkern g1="z" 	g2="o,ocircumflex" 	k="16" />
</font>
</defs></svg> 