<?xml version="1.0" standalone="no"?>
<!DOCTYPE svg PUBLIC "-//W3C//DTD SVG 1.1//EN" "http://www.w3.org/Graphics/SVG/1.1/DTD/svg11.dtd" >
<svg xmlns="http://www.w3.org/2000/svg">
<metadata></metadata>
<defs>
<font id="roboto_condensedlight_italic" horiz-adv-x="934" >
<font-face units-per-em="2048" ascent="1638" descent="-410" />
<missing-glyph horiz-adv-x="424" />
<glyph horiz-adv-x="2048" />
<glyph horiz-adv-x="2048" />
<glyph unicode="&#xd;" horiz-adv-x="424" />
<glyph horiz-adv-x="28" />
<glyph unicode="&#x9;" horiz-adv-x="28" />
<glyph unicode=" "  horiz-adv-x="424" />
<glyph unicode="&#x09;" horiz-adv-x="424" />
<glyph unicode="&#xa0;" horiz-adv-x="424" />
<glyph unicode="!" horiz-adv-x="415" d="M58 0l34 168h129l-34 -168h-129zM159 478l195 978h117l-195 -978h-117z" />
<glyph unicode="&#x22;" horiz-adv-x="538" d="M215 1080l42 254l37 226h100l-35 -219l-78 -261h-66zM433 1080l43 258l36 222h99l-35 -219l-77 -261h-66z" />
<glyph unicode="#" horiz-adv-x="1031" d="M64 410l19 96h211l152 435h-216l20 99h231l146 416h95l-146 -416h230l146 416h94l-146 -416h171l-20 -99h-186l-153 -435h194l-19 -96h-208l-144 -410h-94l144 410h-230l-144 -410h-94l143 410h-196zM388 506h230l153 435h-230z" />
<glyph unicode="$" horiz-adv-x="929" d="M100 419h117q-30 -184 30.5 -258t166.5 -74q105 0 184 78t98 194q18 113 -23.5 180.5t-167.5 132.5q-154 66 -218 159t-37 262q26 167 119 266t230 115l32 203h99l-32 -204q128 -20 186 -136.5t27 -310.5h-118q25 157 -17 249t-146 92q-102 0 -173 -77.5t-89 -193.5 q-19 -117 21.5 -183.5t173.5 -131.5q152 -68 214.5 -160t36.5 -260q-28 -171 -123.5 -267t-239.5 -112l-30 -190h-98l30 190q-134 16 -210.5 121.5t-42.5 315.5z" />
<glyph unicode="%" horiz-adv-x="1282" d="M238 1099l15 77q27 135 109 218t193 83q101 0 153 -88.5t28 -212.5l-15 -77q-28 -135 -109.5 -217t-190.5 -82q-102 0 -155 88t-28 211zM272 169l787 1138l61 -49l-788 -1138zM333 1099q-19 -92 7 -151t99 -59q65 0 117.5 62t70.5 148l15 77q19 92 -7 152t-97 60 q-66 0 -119.5 -63.5t-70.5 -148.5zM676 279l15 78q27 134 109 217t192 83q101 0 153 -88t28 -212l-15 -78q-28 -136 -109 -218t-190 -82q-102 0 -155 88t-28 212zM770 279q-19 -93 7.5 -152t99.5 -59q65 0 117.5 62.5t70.5 148.5l15 78q19 95 -7 153t-98 58 q-66 0 -119.5 -62t-70.5 -149z" />
<glyph unicode="&#x26;" horiz-adv-x="1079" d="M72 372q20 126 95.5 218.5t213.5 194.5l6 5q-54 103 -74.5 185.5t-5.5 169.5q27 165 115.5 248.5t222.5 83.5q119 0 183 -82.5t45 -203.5q-16 -96 -65 -158.5t-136 -128.5l-144 -116l253 -462l6 1q46 65 80 148t50 177h110q-22 -132 -69.5 -237t-121.5 -191l123 -224 h-144l-71 130q-81 -73 -170.5 -112t-182.5 -39q-169 0 -258.5 108.5t-60.5 284.5zM192 372q-21 -129 32.5 -209t182.5 -80q70 0 145.5 35t143.5 100l-259 481l-6 10l-39 -31q-105 -93 -148 -167.5t-52 -138.5zM429 1147q-11 -66 3 -134t53 -145l156 125q55 44 82.5 93 t37.5 105q12 80 -23 130t-110 50q-76 0 -130.5 -65t-68.5 -159z" />
<glyph unicode="'" horiz-adv-x="320" d="M210 1088l48 266l33 206h100l-32 -197l-82 -275h-67z" />
<glyph unicode="(" horiz-adv-x="545" d="M144 573l2 15q60 375 219.5 654.5t313.5 382.5l5 -1l12 -75q-127 -104 -252.5 -366t-177.5 -592l-4 -20q-55 -343 -13 -597t137 -364l-35 -72l-6 1q-120 101 -190.5 383.5t-10.5 650.5z" />
<glyph unicode=")" horiz-adv-x="553" d="M-108 -390q125 104 252 367.5t180 593.5l4 20q54 340 9.5 597t-134.5 366l35 71l6 -1q118 -100 188 -388t13 -648l-2 -15q-62 -384 -220 -657.5t-313 -377.5l-6 1z" />
<glyph unicode="*" horiz-adv-x="754" d="M174 1105l52 104l241 -122l70 369h101l-81 -372l287 126l9 -104l-292 -114l121 -293l-97 -64l-107 304l-224 -302l-70 63l234 299z" />
<glyph unicode="+" horiz-adv-x="990" d="M117 626l23 116h353l93 464h120l-93 -464h357l-23 -116h-357l-96 -480h-120l96 480h-353z" />
<glyph unicode="," horiz-adv-x="341" d="M-68 -258l110 280l34 168h119l-34 -171l-154 -277h-75z" />
<glyph unicode="-" horiz-adv-x="483" d="M78 568l20 104h380l-20 -104h-380z" />
<glyph unicode="." horiz-adv-x="432" d="M59 0l33 166h127l-33 -166h-127z" />
<glyph unicode="/" horiz-adv-x="680" d="M-77 -125l796 1581h104l-796 -1581h-104z" />
<glyph unicode="0" horiz-adv-x="941" d="M137 564l65 326q59 298 182.5 442.5t295.5 144.5q157 0 228 -156t16 -431l-65 -326q-60 -300 -182.5 -442.5t-293.5 -142.5q-158 0 -230 155t-16 430zM244.5 197q39.5 -114 159.5 -114q109 0 199 123t134 339l73 366q47 236 8 348t-159 112q-111 0 -201 -121.5 t-133 -338.5l-73 -366q-47 -234 -7.5 -348z" />
<glyph unicode="1" horiz-adv-x="929" d="M327 1285l17 86l419 88l-293 -1465h-118l266 1332z" />
<glyph unicode="2" horiz-adv-x="929" d="M46 0l15 94l462 540q126 146 182.5 245.5t72.5 194.5q21 139 -22 218t-144 79q-120 0 -201.5 -92t-104.5 -243h-110l-2 6q26 190 143.5 312.5t291.5 122.5q146 0 220.5 -109.5t46.5 -289.5q-20 -126 -95.5 -245.5t-206.5 -272.5l-383 -451l2 -5h576l-17 -104h-726z" />
<glyph unicode="3" horiz-adv-x="929" d="M83 394h118q-24 -144 30.5 -227.5t167.5 -83.5q109 0 187.5 81t102.5 228q25 158 -26 227.5t-176 69.5h-120l13 81l4 24h120q112 0 183 79t91 203q22 141 -21.5 218t-154.5 77q-99 0 -178.5 -81.5t-100.5 -214.5h-108l-2 6q24 178 137.5 287t268.5 109q150 0 228 -108 t49 -297q-19 -108 -81 -196.5t-160 -131.5q99 -40 135.5 -132t17.5 -216q-32 -203 -148.5 -310t-276.5 -107q-149 0 -240.5 109.5t-59.5 305.5z" />
<glyph unicode="4" horiz-adv-x="929" d="M52 366l14 71l725 1019h126l-197 -986h171l-21 -104h-171l-73 -366h-117l73 366h-530zM205 470h398l158 795l-5 2l-45 -79z" />
<glyph unicode="5" horiz-adv-x="929" d="M132 383h114q-24 -152 23.5 -226t149.5 -74q113 0 190.5 99t107.5 280q27 168 -18 262.5t-154 94.5q-99 0 -159.5 -44.5t-97.5 -132.5l-94 17l193 797h564l-18 -115h-464l-125 -513q49 48 103 75.5t131 30.5q152 3 222 -125t35 -345q-37 -229 -145.5 -357t-286.5 -128 q-138 0 -220.5 102.5t-50.5 301.5z" />
<glyph unicode="6" horiz-adv-x="929" d="M145 541l58 363q42 264 182 418.5t314 154.5q58 0 114.5 -17.5t92.5 -48.5l-44 -100q-36 30 -77.5 45t-102.5 15q-122 0 -225 -126.5t-135 -328.5l-16 -98q60 67 136.5 105t159.5 38q149 0 220 -137t38 -350q-37 -224 -154.5 -359.5t-276.5 -135.5q-156 0 -241 151.5 t-43 410.5zM260 532q-35 -216 18.5 -333t166.5 -117q104 0 187 115t109 277q28 179 -17.5 283t-161.5 104q-87 0 -162.5 -56t-119.5 -146z" />
<glyph unicode="7" horiz-adv-x="929" d="M221 1350l17 106h762l-17 -106q-236 -268 -370.5 -550.5t-230.5 -676.5l-31 -123h-116l29 123q92 370 241 668t359 559h-643z" />
<glyph unicode="8" horiz-adv-x="929" d="M85 386q27 138 108.5 231.5t196.5 131.5q-81 42 -119 129.5t-15 202.5q40 201 151.5 298.5t266.5 97.5q140 0 219.5 -106t42.5 -290q-26 -128 -97.5 -214.5t-171.5 -123.5q93 -44 138.5 -138.5t21.5 -218.5q-43 -210 -163 -308.5t-288 -98.5q-156 0 -243 106.5t-48 300.5 zM204 386q-31 -152 22.5 -227.5t170.5 -75.5q104 0 194 82t118 221q29 146 -25.5 227t-165.5 81q-105 0 -196 -86.5t-118 -221.5zM375 1081q-27 -137 19 -209.5t146 -72.5q90 0 170.5 78t105.5 204q27 134 -19.5 212t-143.5 78q-92 0 -172 -80t-106 -210z" />
<glyph unicode="9" horiz-adv-x="929" d="M114 39l37 104q46 -32 95 -46t114 -14q119 0 213.5 112t127.5 316l19 118l-5 3q-50 -82 -122 -126t-153 -44q-154 0 -232 139t-43 357q36 229 161 374t275 145q165 0 247 -139t41 -399l-68 -426q-42 -264 -171 -399t-306 -135q-57 0 -119 15.5t-111 44.5zM286 958 q-28 -174 17 -283t154 -109q93 0 169.5 67t119.5 163l25 152q34 215 -15 319t-168 104q-97 0 -186 -122t-116 -291z" />
<glyph unicode=":" horiz-adv-x="395" d="M53 0l33 166h127l-33 -166h-127zM234 914l33 166h127l-33 -166h-127z" />
<glyph unicode=";" horiz-adv-x="400" d="M-41 -258l110 280l34 168h119l-34 -171l-154 -277h-75zM237 916l33 166h127l-33 -166h-127z" />
<glyph unicode="&#x3c;" horiz-adv-x="852" d="M88 500l15 73l5 26l718 375l5 -4l-24 -122l-522 -270l-97 -27v-6l84 -28l415 -266l-26 -130z" />
<glyph unicode="=" d="M132 421l22 109h658l-22 -109h-658zM214 832l22 109h658l-22 -109h-658z" />
<glyph unicode="&#x3e;" horiz-adv-x="869" d="M52 117l26 128l543 272l97 27v6l-84 29l-436 268l26 127l594 -378l-5 -25l-10 -49l-5 -26z" />
<glyph unicode="?" horiz-adv-x="775" d="M211 1122q32 165 137.5 260t240.5 95q136 0 203.5 -103t34.5 -271q-30 -144 -97.5 -236.5t-197.5 -221.5q-56 -53 -75 -99t-38 -142h-119q27 130 55.5 182.5t120.5 138.5q108 119 158 190.5t73 185.5q27 134 -9.5 200t-130.5 66q-79 0 -149.5 -69t-94.5 -182h-110zM217 0 l31 157h130l-31 -157h-130z" />
<glyph unicode="@" horiz-adv-x="1573" d="M125 478q99 424 344 683.5t557 259.5q301 0 426.5 -247.5t28.5 -661.5q-50 -217 -171.5 -375t-296.5 -158q-61 0 -96.5 50t-33.5 139q-63 -95 -135.5 -142t-155.5 -47q-100 0 -135.5 122t17.5 315q70 254 198 408t267 154q75 0 123.5 -28t93.5 -80l-2 -2h3l-157 -575 q-34 -132 -13 -180t64 -40l6 -1q102 -5 196.5 121t141.5 319q93 388 -1.5 604t-389.5 216q-247 0 -471 -238.5t-313 -615.5q-92 -379 9 -611.5t375 -232.5q68 0 150 22t141 57l11 -77q-62 -41 -152.5 -65t-170.5 -24q-296 0 -427 254t-31 677zM555 170q14 -91 88 -91 q62 0 125 39.5t126 141.5l8 33l150 548q-21 20 -49 32t-63 12q-103 0 -198.5 -120t-158.5 -349q-42 -155 -28 -246z" />
<glyph unicode="A" horiz-adv-x="1057" d="M-46 0l730 1456h106l143 -1456h-121l-36 404h-502l-199 -404h-121zM328 514h438l-66 741l-6 1z" />
<glyph unicode="B" horiz-adv-x="1041" d="M76 0l291 1456h351q168 0 254 -98q61 -68 61 -181q0 -48 -11 -105q-24 -117 -91 -197t-161 -112q104 -23 148 -123q28 -63 27 -141q0 -45 -9 -94q-42 -209 -160.5 -307t-292.5 -98h-407zM215 104h289q111 0 198.5 79.5t115.5 219.5q10 54 10 98q0 71 -26 121 q-43 80 -160 79h-308zM355 804h269q100 3 177 73.5t103 198.5q10 52 10 93q0 75 -34 117q-52 64 -183 64h-233z" />
<glyph unicode="C" horiz-adv-x="1059" d="M150 612l48 239q60 299 197 462.5t331 163.5q178 0 280 -130q80 -102 81 -260q0 -44 -7 -91h-117q4 37 4 71q1 127 -51 205q-64 98 -205 99q-132 0 -240.5 -144.5t-153.5 -373.5l-49 -241q-21 -103 -21 -187q0 -116 39 -199q67 -143 216 -143q126 0 210.5 88.5 t140.5 274.5h109l2 -6q-59 -223 -177 -342t-301 -119q-184 0 -287 182q-68 119 -68 276q0 82 19 175z" />
<glyph unicode="D" horiz-adv-x="1090" d="M76 0l291 1456h309q205 0 327 -184q85 -128 84 -297q0 -75 -16 -158l-37 -189q-61 -302 -214 -465t-371 -163h-373zM215 104h255q152 0 275.5 146.5t170.5 377.5l38 192q17 86 17 159q1 133 -55 226q-86 145 -261 145h-191z" />
<glyph unicode="E" horiz-adv-x="964" d="M76 0l291 1456h736l-21 -106h-618l-109 -543h543l-20 -104h-544l-119 -599h624l-21 -104h-742z" />
<glyph unicode="F" horiz-adv-x="963" d="M76 0l291 1456h744l-21 -106h-626l-114 -565h546l-21 -106h-546l-135 -679h-118z" />
<glyph unicode="G" horiz-adv-x="1146" d="M139 517l87 433q54 272 197 399.5t350 127.5q184 0 277 -109q68 -81 68 -205q0 -44 -9 -94l-3 -5h-111q7 42 7 79q0 90 -42 147q-60 81 -208 81q-141 0 -254.5 -109t-153.5 -310l-87 -435q-18 -88 -18 -158q0 -109 43 -172q72 -104 235 -104q107 0 190.5 45t121.5 106 l75 378h-284l21 105h403l-103 -519q-55 -82 -171 -150.5t-274 -68.5q-196 0 -302 141q-72 95 -72 243q0 71 17 154z" />
<glyph unicode="H" horiz-adv-x="1173" d="M76 0l291 1456h118l-137 -683h617l137 683h116l-291 -1456h-116l133 669h-617l-133 -669h-118z" />
<glyph unicode="I" horiz-adv-x="473" d="M91 0l291 1456h119l-291 -1456h-119z" />
<glyph unicode="J" horiz-adv-x="918" d="M63 401h119q-15 -71 -15 -126q0 -73 27 -117q45 -75 161 -75q91 0 175 90.5t113 238.5l209 1044h118l-209 -1044q-43 -213 -157.5 -323t-269.5 -110q-153 0 -232 109q-53 72 -53 185q0 59 14 128z" />
<glyph unicode="K" horiz-adv-x="981" d="M57 0l291 1456h118l-132 -658h148l519 658h145l3 -5l-597 -722l329 -729h-136l-296 689h-137l-137 -689h-118z" />
<glyph unicode="L" horiz-adv-x="888" d="M76 0l291 1456h119l-270 -1352h558l-21 -104h-677z" />
<glyph unicode="M" horiz-adv-x="1383" d="M70 0l291 1456h151l126 -1273l6 -1l637 1274h152l-291 -1456h-117l128 639l128 584l-6 2l-631 -1225h-78l-141 1223h-6l-105 -584l-128 -639h-116z" />
<glyph unicode="N" horiz-adv-x="1177" d="M76 0l291 1456h119l369 -1211h6l243 1211h118l-291 -1456h-118l-370 1212h-6l-242 -1212h-119z" />
<glyph unicode="O" horiz-adv-x="1120" d="M146 612l48 239q60 303 200 464.5t344 161.5q195 0 303 -182q72 -121 72 -282q0 -80 -18 -171l-47 -239q-61 -302 -204.5 -463t-351.5 -161q-191 1 -296 181q-69 118 -69 276q0 82 19 176zM264 612q-20 -102 -20 -185q0 -119 40 -201q70 -140 229 -140q146 0 257.5 141 t159.5 376l48 241q19 97 19 178q1 122 -43 206q-72 140 -237 140q-141 0 -249.5 -141t-154.5 -374z" />
<glyph unicode="P" horiz-adv-x="1041" d="M76 0l291 1456h413q170 0 252 -119q57 -82 56 -197q0 -52 -11 -110q-42 -206 -162 -316.5t-305 -110.5h-296l-120 -603h-118zM335 708h296q122 0 210.5 93t116.5 227q11 56 11 104q0 76 -29 130q-47 88 -181 88h-295z" />
<glyph unicode="Q" horiz-adv-x="1121" d="M146 612l48 239q60 303 200 464.5t344 161.5q195 0 303 -182q72 -121 72 -282q0 -81 -18 -171l-47 -239q-36 -179 -102 -309.5t-158 -207.5l145 -222l-96 -77l-152 233q-45 -20 -93.5 -30.5t-99.5 -10.5q-191 0 -296 181q-69 118 -69 276q0 82 19 176zM264 612 q-20 -102 -20 -185q0 -119 40 -201q70 -140 229 -140q146 0 257.5 141t159.5 376l48 241q19 97 19 178q0 122 -43 206q-73 140 -237 140q-141 0 -249.5 -141t-154.5 -374z" />
<glyph unicode="R" horiz-adv-x="1093" d="M74 0l291 1455h400q174 0 258 -105q58 -72 58 -186q0 -52 -12 -112q-25 -125 -95.5 -213t-176.5 -129q93 -36 125 -124q18 -50 18 -113q0 -47 -10 -102l-27 -137q-13 -64 -13 -111v-13q2 -52 25 -86l-5 -24h-121q-21 33 -21 90v10q2 64 17 136l27 133q10 52 10 95 q0 74 -30 120q-48 74 -159 73h-310l-131 -657h-118zM344 761h268q135 0 223.5 80.5t115.5 211.5q11 57 11 103q0 76 -31 122q-50 72 -187 72h-282z" />
<glyph unicode="S" horiz-adv-x="1003" d="M122 414l3 5h112q-12 -61 -12 -109q1 -104 55 -154q80 -74 215 -73q101 0 188.5 68.5t107.5 166.5q9 46 9 84q0 74 -33 122q-50 74 -209 150q-177 76 -251 174q-49 65 -49 170q0 53 13 117q32 165 145.5 253.5t270.5 88.5q175 0 269 -118q66 -82 65 -207q0 -54 -12 -116 h-119q10 51 10 95q0 89 -40 149q-60 90 -194 91q-98 0 -177.5 -69t-98.5 -165q-10 -50 -10 -92q0 -71 29 -115q46 -72 209 -149q178 -77 253 -178q51 -68 51 -173q0 -51 -12 -110q-34 -170 -152 -255.5t-284 -85.5q-172 0 -286 106q-80 74 -80 207q0 56 14 122z" />
<glyph unicode="T" horiz-adv-x="981" d="M231 1350l21 106h888l-21 -106h-386l-270 -1350h-117l270 1350h-385z" />
<glyph unicode="U" horiz-adv-x="1074" d="M137 437l204 1019h115l-204 -1019q-14 -69 -14 -125q0 -92 38 -144q60 -86 190 -85q125 0 226 89t136 265l204 1019h117l-204 -1019q-47 -238 -180 -348t-320 -110q-168 -1 -260 119q-62 81 -62 208q0 60 14 131z" />
<glyph unicode="V" horiz-adv-x="1038" d="M202 1456h127l135 -1204l9 -86l6 -1l37 87l519 1204h127l-660 -1456h-106z" />
<glyph unicode="W" horiz-adv-x="1467" d="M222 1456h118l30 -1039l-2 -192l6 -1l69 193l396 1039h108l66 -1039l5 -194l6 -1l63 195l359 1039h119l-521 -1456h-109l-67 1111l-5 130l-6 1l-45 -131l-428 -1111h-108z" />
<glyph unicode="X" horiz-adv-x="1030" d="M-8 0l505 738l-261 718h142l201 -613l6 -1l397 614h142l-490 -718l269 -738h-141l-209 632l-6 1l-412 -633h-143z" />
<glyph unicode="Y" horiz-adv-x="1017" d="M245 1456h136l177 -764l6 -1l484 765h135l-596 -924l-107 -532h-117l108 541z" />
<glyph unicode="Z" horiz-adv-x="919" d="M16 0l7 95l805 1256h-571l21 105h706l-18 -90l-811 -1262h632l-21 -104h-750z" />
<glyph unicode="[" horiz-adv-x="452" d="M24 -312l316 1976h289l-17 -106h-168l-282 -1764h168l-17 -106h-289z" />
<glyph unicode="\" horiz-adv-x="676" d="M255 1456h113l165 -1581h-115z" />
<glyph unicode="]" horiz-adv-x="452" d="M-103 -312l17 106h169l282 1764h-169l17 106h290l-316 -1976h-290z" />
<glyph unicode="^" horiz-adv-x="701" d="M130 729l381 727h85l90 -727h-111l-50 481l-2 83l-6 2l-35 -85l-239 -481h-113z" />
<glyph unicode="_" horiz-adv-x="740" d="M-90 -104l21 104h708l-21 -104h-708z" />
<glyph unicode="`" horiz-adv-x="530" d="M250 1476h155l119 -266h-109z" />
<glyph unicode="a" horiz-adv-x="905" d="M72 288q31 160 148 245t292 85h177l27 133q9 45 9 82q0 63 -26 101q-41 62 -141 62q-85 0 -159.5 -62.5t-91.5 -151.5l-108 1l-2 6q21 130 130.5 221.5t257.5 91.5q134 0 208 -93q51 -64 51 -164q0 -44 -10 -96l-106 -531q-12 -60 -18 -112q-4 -38 -5 -77q0 -14 1 -29 h-123q2 53 5.5 89.5t10.5 74.5q-61 -80 -146 -132.5t-176 -52.5q-121 -1 -177 85q-38 57 -37 138q0 40 9 86zM189 284q-7 -34 -7 -63q0 -47 20 -81q32 -52 111 -53q88 0 175.5 59t136.5 147l46 232h-181q-108 0 -195 -70.5t-106 -170.5z" />
<glyph unicode="b" d="M49 0l312 1560h118l-121 -601l5 -4q49 69 116.5 108t147.5 39q147 0 213 -166q38 -95 37 -219q0 -93 -21 -201l-4 -21q-52 -259 -156 -387.5t-261 -128.5q-81 0 -144.5 47.5t-97.5 128.5l-43 -155h-101zM219 262q17 -81 70.5 -128.5t141.5 -47.5q109 0 186 109t116 300 l4 21q22 113 22 203q-1 83 -19 145q-40 130 -161 130q-80 0 -144.5 -62t-113.5 -159z" />
<glyph unicode="c" horiz-adv-x="872" d="M94 456l27 168q34 216 150.5 347t296.5 131q139 0 219 -107q59 -79 59 -195q0 -41 -7 -86h-111q6 39 6 73q0 83 -36 135q-51 74 -147 74q-127 0 -207 -107t-105 -265l-27 -168q-11 -67 -11 -123q0 -86 26 -148q43 -102 177 -102q86 0 165.5 67.5t98.5 186.5h103l2 -6 q-22 -157 -135.5 -254.5t-249.5 -97.5q-172 -1 -250 135q-55 95 -54 224q0 56 10 118z" />
<glyph unicode="d" d="M118 530l4 21q55 277 160.5 414t264.5 137q80 0 141.5 -41t94.5 -115l123 614h118l-312 -1560h-104l17 126q-55 -71 -124 -109t-149 -38q-144 -1 -212 157q-41 93 -41 215q0 83 19 179zM238 205q40 -119 162 -119q75 0 137.5 51.5t112.5 141.5l106 530q-18 81 -68.5 133 t-135.5 52q-111 0 -190.5 -120t-119.5 -323l-4 -21q-21 -104 -21 -185q1 -81 21 -140z" />
<glyph unicode="e" horiz-adv-x="869" d="M91 446l29 180q34 213 160 344.5t277 131.5q157 0 230 -122q51 -85 51 -210q0 -54 -10 -116l-19 -119h-588l-14 -89q-8 -53 -8 -99q0 -95 36 -163q54 -100 176 -101q81 0 150 31.5t120 87.5l35 -85q-57 -64 -136.5 -101t-184.5 -37q-161 1 -249 133q-64 96 -64 229 q0 50 9 105zM243 644l2 -5h462l8 46q7 45 7 84q0 83 -30 141q-44 86 -152 86q-101 0 -187.5 -103t-109.5 -249z" />
<glyph unicode="f" horiz-adv-x="570" d="M119 0l196 981h-139l20 101h139l32 156q35 175 117.5 259t206.5 84q25 0 52 -5.5t52 -14.5l-34 -101q-17 6 -36 9.5t-43 3.5q-70 0 -122.5 -62t-74.5 -173l-32 -156h193l-20 -101h-193l-196 -981h-118z" />
<glyph unicode="g" horiz-adv-x="935" d="M32 -366l53 105q39 -31 93 -48.5t115 -17.5q112 0 193.5 91.5t113.5 249.5l19 95l-5 4q-49 -64 -115 -99t-143 -35q-145 0 -215 157q-42 95 -42 217q0 82 19 177l4 21q55 276 162 413.5t267 137.5q83 0 145.5 -44t94.5 -122l41 146h100l-213 -1068q-45 -223 -159 -337 t-287 -114q-57 0 -126 19.5t-115 51.5zM237 530q-20 -101 -20 -181q0 -83 21 -143q43 -120 165 -120q75 0 137.5 52t112.5 143l105 526q-18 83 -67.5 135t-135.5 52q-111 0 -192.5 -120.5t-121.5 -322.5z" />
<glyph unicode="h" d="M49 0l312 1560h118l-126 -628l5 -3q55 83 131.5 128t165.5 45q128 0 184 -108q32 -61 32 -157q0 -74 -19 -169l-134 -668h-119l134 670q19 96 19 160q0 61 -17 95q-35 69 -132 69q-79 0 -153 -60t-128 -158l-155 -776h-118z" />
<glyph unicode="i" horiz-adv-x="410" d="M61 0l216 1082h118l-216 -1082h-118zM339 1390l34 170h118l-34 -170h-118z" />
<glyph unicode="j" horiz-adv-x="424" d="M-230 -418l32 105q12 -6 32 -11t33 -5q60 0 110.5 62t73.5 178l234 1171h117l-234 -1171q-36 -178 -115.5 -263t-198.5 -85q-21 0 -41.5 5t-42.5 14zM342 1390l34 170h118l-34 -170h-118z" />
<glyph unicode="k" horiz-adv-x="835" d="M50 0l312 1560h117l-186 -929h100l375 451h135l2 -5l-422 -488l250 -589h-141l-212 525h-108l-105 -525h-117z" />
<glyph unicode="l" horiz-adv-x="410" d="M61 0l312 1560h118l-312 -1560h-118z" />
<glyph unicode="m" horiz-adv-x="1452" d="M47 0l216 1082h104l-22 -156q58 86 133.5 131t168.5 45q85 0 138 -57t63 -170q59 108 141 167.5t183 59.5q126 0 182 -118q30 -64 29 -161q0 -83 -21 -191l-126 -632h-119l127 634q23 118 23 193q0 61 -15 94q-34 74 -132 74q-94 0 -172 -98.5t-117 -239.5q-1 -2 -1 -3 v-3l-130 -651h-118l127 633q22 112 22 186q0 63 -16 99q-35 76 -131 76q-85 0 -152 -61.5t-114 -164.5l-154 -768h-117z" />
<glyph unicode="n" d="M49 0l216 1082h105l-23 -161l5 -3q54 89 130.5 136.5t168.5 47.5q130 0 186 -110q31 -61 32 -158q0 -76 -20 -174l-132 -660h-119l132 659q21 104 21 172q0 61 -17 94q-35 69 -136 69q-81 0 -153.5 -63.5t-125.5 -166.5l-152 -764h-118z" />
<glyph unicode="o" d="M92 461l25 159q35 219 158 350.5t298 131.5q166 0 251 -137q61 -99 61 -234q0 -53 -9 -111l-25 -159q-36 -221 -158.5 -351.5t-297.5 -130.5q-169 0 -253 136q-60 97 -60 232q0 54 10 114zM210 461q-9 -58 -10 -109q0 -96 34 -164q50 -106 177 -105q118 0 206.5 109.5 t114.5 268.5l25 159q9 55 9 104q0 96 -34 166q-51 106 -176 106q-120 0 -208 -109.5t-113 -266.5z" />
<glyph unicode="p" d="M-34 -416l299 1498h100l-15 -133q56 73 125.5 113t149.5 40q147 0 213 -168q38 -96 38 -220q0 -94 -22 -203l-4 -21q-52 -258 -155 -384.5t-260 -126.5q-82 0 -145 37t-99 106l-107 -538h-118zM216 247q19 -77 71.5 -120.5t136.5 -43.5q111 0 189.5 108.5t116.5 298.5 l4 21q22 111 22 200q0 85 -20 150q-41 133 -163 133q-75 0 -137.5 -56t-110.5 -146z" />
<glyph unicode="q" d="M118 530l4 21q55 277 160.5 414t264.5 137q80 0 142 -40t95 -113l36 133h103l-299 -1498h-119l105 524q-54 -62 -119 -95.5t-139 -33.5q-144 0 -212 157q-41 94 -41 215q0 83 19 179zM238 204q40 -121 162 -121q71 0 131.5 48.5t109.5 132.5l112 561q-20 76 -70 123.5 t-131 47.5q-111 0 -190.5 -121t-119.5 -324l-4 -21q-21 -104 -21 -186q0 -81 21 -140z" />
<glyph unicode="r" horiz-adv-x="584" d="M49 0l216 1082h104l-20 -162l5 -3q49 88 117 136.5t149 48.5q17 0 35 -4t28 -7l-39 -117l-75 6q-75 0 -139.5 -59.5t-111.5 -161.5l-151 -759h-118z" />
<glyph unicode="s" horiz-adv-x="834" d="M67 299l2 5h111q-3 -23 -2 -44q0 -84 45 -125q57 -52 144 -52q90 0 155.5 52t76.5 124q3 19 3 36q0 53 -28 92q-36 52 -149 112q-147 69 -209 139q-47 54 -47 133q0 24 4 51q18 121 117.5 200.5t239.5 79.5q141 0 215 -92q55 -69 55 -162q0 -31 -6 -65l-3 -5h-111 q3 22 3 42q0 64 -33 112q-44 64 -137 64q-91 0 -151.5 -52t-70.5 -118q-3 -20 -3 -38q0 -48 24 -78q32 -42 152 -109q144 -65 208 -141q50 -60 50 -145q0 -24 -4 -49q-22 -133 -121.5 -210t-245.5 -77q-153 -1 -231 95q-59 72 -59 163q0 30 6 62z" />
<glyph unicode="t" horiz-adv-x="576" d="M156 981l20 101h142l56 276h119l-56 -276h178l-20 -101h-178l-140 -702q-12 -61 -12 -100q1 -35 9 -53q20 -40 67 -40q21 0 45.5 3t51.5 9l-4 -92q-25 -12 -63.5 -19.5t-75.5 -7.5q-87 -1 -128 73q-23 41 -23 108q0 52 14 119l140 702h-142z" />
<glyph unicode="u" d="M137 454l125 628h118l-126 -630q-24 -120 -24 -197q0 -58 14 -91q32 -78 126 -78q92 0 165.5 58.5t122.5 157.5l156 780h118l-216 -1082h-106l23 150l-5 3q-53 -85 -128 -129.5t-167 -44.5q-129 -1 -187 117q-31 64 -31 164q0 84 22 194z" />
<glyph unicode="v" horiz-adv-x="827" d="M152 1082h122l93 -809l5 -99l6 -1l40 100l348 809h121l-494 -1082h-92z" />
<glyph unicode="w" horiz-adv-x="1250" d="M191 1082h118l7 -729l-5 -164l5 -1l66 165l323 729h98l31 -729l-1 -172l6 -1l66 173l292 729h120l-465 -1082h-97l-33 735l-3 170l-6 1l-69 -171l-324 -735h-98z" />
<glyph unicode="x" horiz-adv-x="827" d="M-18 0l384 550l-200 532h137l138 -433l6 -1l279 434h138l-369 -532l207 -550h-137l-148 451l-6 1l-291 -452h-138z" />
<glyph unicode="y" horiz-adv-x="827" d="M-76 -423l34 103q9 -2 31 -4.5t32 -2.5q54 0 103 58.5t87 139.5l72 144l-113 1067h131l58 -784l5 -104l6 -1l418 889h131l-618 -1255q-53 -107 -124 -185.5t-173 -78.5q-16 0 -42 5t-38 9z" />
<glyph unicode="z" horiz-adv-x="797" d="M-2 0l18 90l661 885h-474l21 107h607l-18 -91l-665 -887h520l-21 -104h-649z" />
<glyph unicode="{" horiz-adv-x="567" d="M83 543l13 83l4 23q86 0 141 67.5t75 188.5l36 227q28 177 108 292.5t235 165.5h6l11 -75q-102 -40 -160 -139.5t-81 -243.5l-36 -227q-19 -116 -69.5 -196t-133.5 -116q68 -40 94 -121t10 -187l-36 -225q-25 -148 2 -243t118 -137l-37 -76l-6 1q-138 50 -181 168 t-15 287l36 225q20 126 -12 192t-122 66z" />
<glyph unicode="|" horiz-adv-x="402" d="M40 -270l276 1726h97l-276 -1726h-97z" />
<glyph unicode="}" horiz-adv-x="567" d="M-96 -320q101 42 160.5 140t82.5 240l36 225q18 116 69.5 196.5t139.5 115.5q-74 36 -101 117t-9 191l36 227q23 149 -4 245.5t-116 137.5l36 75h6q136 -50 179 -168.5t16 -289.5l-36 -227q-21 -127 11.5 -191.5t123.5 -64.5l-13 -79l-4 -27q-87 0 -142.5 -69t-74.5 -189 l-36 -225q-29 -175 -109 -290t-233 -166l-6 2z" />
<glyph unicode="~" horiz-adv-x="1131" d="M129 474q21 137 98.5 225.5t178.5 88.5q66 0 121.5 -38.5t109.5 -110.5q39 -57 75.5 -82.5t81.5 -25.5q54 0 105.5 64t67.5 160l89 -15q-22 -134 -102 -226.5t-178 -92.5q-68 0 -121 36t-111 114q-39 53 -76 80t-80 27q-56 0 -107 -61t-66 -159z" />
<glyph unicode="&#xa2;" horiz-adv-x="910" d="M110 456l27 168q31 204 137 332.5t271 143.5l44 218h119l-46 -227q106 -29 161 -129.5t32 -247.5h-111q21 134 -30 208t-147 74q-127 0 -207 -107t-105 -265l-27 -168q-28 -169 15 -271t177 -102q86 0 165.5 67.5t98.5 186.5h103l2 -6q-21 -146 -121.5 -240.5 t-227.5 -109.5l-45 -226h-119l47 234q-130 31 -186.5 159.5t-26.5 307.5z" />
<glyph unicode="&#xa3;" horiz-adv-x="958" d="M34 0l21 104h6q52 14 98.5 128t70.5 234l30 175h-150l21 104h147l51 295q43 217 148.5 327t252.5 110q141 0 205 -106.5t30 -280.5h-119q31 156 -7.5 218.5t-129.5 62.5q-85 0 -158 -88t-104 -243l-51 -295h345l-21 -104h-341l-30 -175q-23 -115 -59 -208t-82 -154h599 l-21 -104h-752z" />
<glyph unicode="&#xa5;" horiz-adv-x="999" d="M100 326l20 104h313l37 173h-314l20 104h279l-204 749h136l175 -683l6 -1l448 684h136l-503 -749h279l-20 -104h-319l-37 -173h320l-20 -104h-319l-65 -326h-119l65 326h-314z" />
<glyph unicode="&#xa8;" horiz-adv-x="842" d="M288 1296l26 160h157l-26 -160h-157zM679 1296l26 160h156l-26 -160h-156z" />
<glyph unicode="&#xa9;" horiz-adv-x="1379" d="M144 729q52 327 256.5 537t453.5 210q235 0 377 -217.5t93 -529.5q-53 -328 -257.5 -539t-451.5 -211q-237 0 -379.5 218.5t-91.5 531.5zM225 729q-47 -289 71.5 -476t332.5 -187q202 0 386 194t229 469q45 287 -73 472.5t-331 185.5q-204 0 -388 -193t-227 -465z M434 669l19 119q28 179 121 283t222 104q121 0 181.5 -80.5t36.5 -232.5h-96q18 116 -17 168t-120 52q-84 0 -147.5 -83t-83.5 -210l-19 -120q-22 -136 13.5 -215.5t123.5 -79.5q81 0 134 54t72 168h88l2 -6q-22 -156 -103 -232t-208 -76q-123 0 -185 107.5t-34 279.5z" />
<glyph unicode="&#xab;" horiz-adv-x="774" d="M122 512l1 6l3 13l309 379h96l-289 -389l133 -389h-96zM372 512l1 6l3 13l309 379h96l-289 -389l133 -389h-96z" />
<glyph unicode="&#xad;" horiz-adv-x="483" d="M78 568l20 104h380l-20 -104h-380z" />
<glyph unicode="&#xae;" horiz-adv-x="1383" d="M142 729q52 327 256.5 537t453.5 210q236 0 378 -218t93 -529q-53 -328 -257.5 -539t-452.5 -211q-237 0 -379.5 218.5t-91.5 531.5zM222 729q-47 -289 71 -476t334 -187q202 0 385.5 194t228.5 469q45 287 -72.5 472.5t-330.5 185.5q-205 0 -389 -192.5t-227 -465.5z M440 316l136 850h221q119 0 178.5 -64.5t40.5 -184.5q-12 -70 -50.5 -118.5t-101.5 -78.5q53 -25 71.5 -78.5t7.5 -126.5l-9 -56q-7 -41 -8.5 -73.5t2.5 -53.5l-2 -16h-99q-4 22 0.5 63.5t11.5 80.5l8 54q14 86 -10.5 121t-95.5 35h-149l-56 -354h-96zM607 764h143 q62 0 110.5 40t59.5 111q14 88 -16 123t-122 35h-125z" />
<glyph unicode="&#xb4;" horiz-adv-x="528" d="M239 1212l208 266h142l3 -6l-253 -260h-100z" />
<glyph unicode="&#xb8;" horiz-adv-x="424" d="M-68 -427l10 72q61 0 112 30.5t63 88.5q12 60 -13.5 80.5t-102.5 28.5l48 127h88l-22 -63q57 -9 85 -49t12 -122q-20 -97 -91 -148t-184 -49z" />
<glyph unicode="&#xbb;" horiz-adv-x="772" d="M52 166l288 389l-131 394h96l156 -384l-2 -6h1l-3 -13l-309 -380h-96zM310 166l288 389l-131 394h96l156 -384l-2 -6h1l-3 -13l-309 -380h-96z" />
<glyph unicode="&#xc0;" horiz-adv-x="1057" d="M-46 0l730 1456h106l143 -1456h-121l-36 404h-502l-199 -404h-121zM328 514h438l-66 741l-6 1zM567 1827h155l119 -266h-109z" />
<glyph unicode="&#xc2;" horiz-adv-x="1057" d="M-46 0l730 1456h106l143 -1456h-121l-36 404h-502l-199 -404h-121zM328 514h438l-66 741l-6 1zM558 1601l5 21l229 222h83l143 -224l-4 -19h-104l-92 166l-159 -166h-101z" />
<glyph unicode="&#xc6;" horiz-adv-x="1516" d="M-69 0l986 1456h713l-21 -106h-547l-90 -540h464l-21 -104h-460l-101 -602h554l-21 -104h-669l65 387h-452l-256 -387h-144zM407 503h395l135 806l-4 -11z" />
<glyph unicode="&#xc7;" horiz-adv-x="1019" d="M150 612l48 239q60 299 197 462.5t331 163.5q179 0 280.5 -130t73.5 -351h-117q17 178 -47.5 276.5t-204.5 98.5q-132 0 -240.5 -144.5t-153.5 -373.5l-49 -241q-49 -243 18 -386t216 -143q126 0 210.5 88.5t140.5 274.5h109l2 -6q-59 -223 -177 -342t-301 -119 q-184 0 -287 182t-49 451zM284 -435l10 72q61 0 112 30.5t63 88.5q12 60 -13.5 80.5t-102.5 28.5l48 127h88l-22 -63q57 -9 85 -49t12 -122q-20 -97 -91 -148t-184 -49z" />
<glyph unicode="&#xc8;" horiz-adv-x="964" d="M76 0l291 1456h736l-21 -106h-618l-109 -543h543l-20 -104h-544l-119 -599h624l-21 -104h-742zM523 1827h155l119 -266h-109z" />
<glyph unicode="&#xc9;" horiz-adv-x="964" d="M76 0l291 1456h736l-21 -106h-618l-109 -543h543l-20 -104h-544l-119 -599h624l-21 -104h-742zM669 1557l208 266h142l3 -6l-253 -260h-100z" />
<glyph unicode="&#xca;" horiz-adv-x="964" d="M76 0l291 1456h736l-21 -106h-618l-109 -543h543l-20 -104h-544l-119 -599h624l-21 -104h-742zM514 1601l5 21l229 222h83l143 -224l-4 -19h-104l-92 166l-159 -166h-101z" />
<glyph unicode="&#xcb;" horiz-adv-x="964" d="M76 0l291 1456h736l-21 -106h-618l-109 -543h543l-20 -104h-544l-119 -599h624l-21 -104h-742zM476 1638l26 160h157l-26 -160h-157zM867 1638l26 160h156l-26 -160h-156z" />
<glyph unicode="&#xce;" horiz-adv-x="473" d="M91 0l291 1456h119l-291 -1456h-119zM246 1601l5 21l229 222h83l143 -224l-4 -19h-104l-92 166l-159 -166h-101z" />
<glyph unicode="&#xcf;" horiz-adv-x="473" d="M91 0l291 1456h119l-291 -1456h-119zM208 1638l26 160h157l-26 -160h-157zM599 1638l26 160h156l-26 -160h-156z" />
<glyph unicode="&#xd4;" horiz-adv-x="1079" d="M146 612l48 239q60 303 200 464.5t344 161.5q195 0 303 -182t54 -453l-47 -239q-61 -302 -204.5 -463t-351.5 -161q-191 0 -296 180.5t-50 452.5zM264 612q-49 -246 20.5 -386t228.5 -140q146 0 257.5 141t159.5 376l48 241q48 244 -24.5 384t-236.5 140 q-141 0 -249.5 -141t-154.5 -374zM551 1622l5 21l229 222h83l143 -224l-4 -19h-104l-92 166l-159 -166h-101z" />
<glyph unicode="&#xd9;" horiz-adv-x="1074" d="M137 437l204 1019h115l-204 -1019q-37 -183 23.5 -268.5t190.5 -85.5q125 0 226 89t136 265l204 1019h117l-204 -1019q-47 -238 -180 -348t-320 -110q-168 0 -260 119.5t-48 338.5zM559 1827h155l119 -266h-109z" />
<glyph unicode="&#xdb;" horiz-adv-x="1074" d="M137 437l204 1019h115l-204 -1019q-37 -183 23.5 -268.5t190.5 -85.5q125 0 226 89t136 265l204 1019h117l-204 -1019q-47 -238 -180 -348t-320 -110q-168 0 -260 119.5t-48 338.5zM550 1601l5 21l229 222h83l143 -224l-4 -19h-104l-92 166l-159 -166h-101z" />
<glyph unicode="&#xdc;" horiz-adv-x="1074" d="M137 437l204 1019h115l-204 -1019q-37 -183 23.5 -268.5t190.5 -85.5q125 0 226 89t136 265l204 1019h117l-204 -1019q-47 -238 -180 -348t-320 -110q-168 0 -260 119.5t-48 338.5zM512 1638l26 160h157l-26 -160h-157zM903 1638l26 160h156l-26 -160h-156z" />
<glyph unicode="&#xe0;" horiz-adv-x="905" d="M72 288q31 160 148 245t292 85h177l27 133q24 122 -17 183.5t-141 61.5q-85 0 -159.5 -62.5t-91.5 -151.5l-108 1l-2 6q21 130 130.5 221.5t257.5 91.5q134 0 208 -93t41 -260l-106 -531q-13 -60 -18.5 -112t-3.5 -106h-123q2 53 5.5 89.5t10.5 74.5q-61 -80 -146 -132.5 t-176 -52.5q-120 0 -176.5 85.5t-28.5 223.5zM189 284q-19 -92 13 -144.5t111 -52.5q88 0 175.5 59t136.5 147l46 232h-181q-108 0 -195 -70.5t-106 -170.5zM399 1505h155l119 -266h-109z" />
<glyph unicode="&#xe2;" horiz-adv-x="905" d="M72 288q31 160 148 245t292 85h177l27 133q24 122 -17 183.5t-141 61.5q-85 0 -159.5 -62.5t-91.5 -151.5l-108 1l-2 6q21 130 130.5 221.5t257.5 91.5q134 0 208 -93t41 -260l-106 -531q-13 -60 -18.5 -112t-3.5 -106h-123q2 53 5.5 89.5t10.5 74.5q-61 -80 -146 -132.5 t-176 -52.5q-120 0 -176.5 85.5t-28.5 223.5zM189 284q-19 -92 13 -144.5t111 -52.5q88 0 175.5 59t136.5 147l46 232h-181q-108 0 -195 -70.5t-106 -170.5zM390 1279l5 21l229 222h83l143 -224l-4 -19h-104l-92 166l-159 -166h-101z" />
<glyph unicode="&#xe6;" horiz-adv-x="1394" d="M42 294q33 168 138.5 253t278.5 85h197l18 88q28 140 -4 208t-123 68t-164 -67t-92 -165l-106 13l-2 6q25 147 129.5 233t255.5 86q86 0 147 -47.5t81 -135.5q66 88 149 135.5t172 47.5q152 0 221 -126.5t26 -339.5l-20 -101h-583l-5 -25q-41 -202 3 -314.5t183 -112.5 q77 0 147.5 33t128.5 85l25 -90q-48 -52 -129.5 -92t-192.5 -40q-101 0 -172.5 54.5t-103.5 153.5q-58 -86 -158 -147t-228 -61q-125 0 -185.5 86t-31.5 229zM160 290q-21 -103 14 -155.5t127 -52.5q66 0 149 50t128 109l58 292h-195q-104 0 -182.5 -71.5t-98.5 -171.5z M789 641l2 -5h455l6 31q31 154 -5.5 241.5t-150.5 87.5q-95 0 -180.5 -101.5t-126.5 -253.5z" />
<glyph unicode="&#xe7;" horiz-adv-x="872" d="M94 456l27 168q34 216 150.5 347t296.5 131q139 0 219 -107t52 -281h-111q21 134 -30 208t-147 74q-127 0 -207 -107t-105 -265l-27 -168q-28 -169 15 -271t177 -102q86 0 165.5 67.5t98.5 186.5h103l2 -6q-22 -157 -135.5 -254.5t-249.5 -97.5q-171 0 -249.5 135.5 t-44.5 341.5zM210 -435l10 72q61 0 112 30.5t63 88.5q12 60 -13.5 80.5t-102.5 28.5l48 127h88l-22 -63q57 -9 85 -49t12 -122q-20 -97 -91 -148t-184 -49z" />
<glyph unicode="&#xe8;" horiz-adv-x="869" d="M91 446l29 180q34 213 160 344.5t277 131.5q157 0 230 -122.5t41 -325.5l-19 -119h-588l-14 -89q-26 -162 28 -262.5t176 -100.5q81 0 150 31.5t120 87.5l35 -85q-57 -64 -136.5 -101t-184.5 -37q-161 0 -249 132.5t-55 334.5zM243 644l2 -5h462l8 46q21 139 -23.5 225 t-151.5 86q-101 0 -187.5 -103t-109.5 -249zM372 1506h155l119 -266h-109z" />
<glyph unicode="&#xe9;" horiz-adv-x="869" d="M91 446l29 180q34 213 160 344.5t277 131.5q157 0 230 -122.5t41 -325.5l-19 -119h-588l-14 -89q-26 -162 28 -262.5t176 -100.5q81 0 150 31.5t120 87.5l35 -85q-57 -64 -136.5 -101t-184.5 -37q-161 0 -249 132.5t-55 334.5zM243 644l2 -5h462l8 46q21 139 -23.5 225 t-151.5 86q-101 0 -187.5 -103t-109.5 -249zM518 1236l208 266h142l3 -6l-253 -260h-100z" />
<glyph unicode="&#xea;" horiz-adv-x="869" d="M91 446l29 180q34 213 160 344.5t277 131.5q157 0 230 -122.5t41 -325.5l-19 -119h-588l-14 -89q-26 -162 28 -262.5t176 -100.5q81 0 150 31.5t120 87.5l35 -85q-57 -64 -136.5 -101t-184.5 -37q-161 0 -249 132.5t-55 334.5zM243 644l2 -5h462l8 46q21 139 -23.5 225 t-151.5 86q-101 0 -187.5 -103t-109.5 -249zM363 1280l5 21l229 222h83l143 -224l-4 -19h-104l-92 166l-159 -166h-101z" />
<glyph unicode="&#xeb;" horiz-adv-x="869" d="M91 446l29 180q34 213 160 344.5t277 131.5q157 0 230 -122.5t41 -325.5l-19 -119h-588l-14 -89q-26 -162 28 -262.5t176 -100.5q81 0 150 31.5t120 87.5l35 -85q-57 -64 -136.5 -101t-184.5 -37q-161 0 -249 132.5t-55 334.5zM243 644l2 -5h462l8 46q21 139 -23.5 225 t-151.5 86q-101 0 -187.5 -103t-109.5 -249zM325 1317l26 160h157l-26 -160h-157zM716 1317l26 160h156l-26 -160h-156z" />
<glyph unicode="&#xee;" horiz-adv-x="406" d="M57 0l216 1082h118l-216 -1082h-118zM143 1258l5 21l229 222h83l143 -224l-4 -19h-104l-92 166l-159 -166h-101z" />
<glyph unicode="&#xef;" horiz-adv-x="406" d="M57 0l216 1082h118l-216 -1082h-118zM105 1296l26 160h157l-26 -160h-157zM496 1296l26 160h156l-26 -160h-156z" />
<glyph unicode="&#xf4;" d="M92 461l25 159q35 219 158 350.5t298 131.5q166 0 251 -137t52 -345l-25 -159q-36 -221 -158.5 -351.5t-297.5 -130.5q-168 0 -252.5 136t-50.5 346zM210 461q-27 -167 23.5 -272.5t177.5 -105.5q118 0 206.5 109.5t114.5 268.5l25 159q26 164 -25 270t-176 106 q-120 0 -208 -109.5t-113 -266.5zM379 1279l5 21l229 222h83l143 -224l-4 -19h-104l-92 166l-159 -166h-101z" />
<glyph unicode="&#xf9;" d="M137 454l125 628h118l-126 -630q-42 -210 -10.5 -288t126.5 -78q92 0 165.5 58.5t122.5 157.5l156 780h118l-216 -1082h-106l23 150l-5 3q-53 -85 -128 -129.5t-167 -44.5q-129 0 -187 117.5t-9 357.5zM420 1484h155l119 -266h-109z" />
<glyph unicode="&#xfb;" d="M137 454l125 628h118l-126 -630q-42 -210 -10.5 -288t126.5 -78q92 0 165.5 58.5t122.5 157.5l156 780h118l-216 -1082h-106l23 150l-5 3q-53 -85 -128 -129.5t-167 -44.5q-129 0 -187 117.5t-9 357.5zM411 1258l5 21l229 222h83l143 -224l-4 -19h-104l-92 166l-159 -166 h-101z" />
<glyph unicode="&#xfc;" d="M137 454l125 628h118l-126 -630q-42 -210 -10.5 -288t126.5 -78q92 0 165.5 58.5t122.5 157.5l156 780h118l-216 -1082h-106l23 150l-5 3q-53 -85 -128 -129.5t-167 -44.5q-129 0 -187 117.5t-9 357.5zM373 1296l26 160h157l-26 -160h-157zM764 1296l26 160h156l-26 -160 h-156z" />
<glyph unicode="&#xff;" horiz-adv-x="827" d="M-76 -423l34 103q9 -2 31 -4.5t32 -2.5q54 0 103 58.5t87 139.5l72 144l-113 1067h131l58 -784l5 -104l6 -1l418 889h131l-618 -1255q-53 -107 -124 -185.5t-173 -78.5q-16 0 -42 5t-38 9zM320 1296l26 160h157l-26 -160h-157zM711 1296l26 160h156l-26 -160h-156z" />
<glyph unicode="&#x152;" horiz-adv-x="1551" d="M129 576l61 304q56 282 204 439.5t345 157.5q52 0 113.5 -6t122.5 -15h687l-21 -106h-618l-109 -543h543l-20 -104h-544l-119 -599h624l-21 -104h-693q-78 -10 -133 -15.5t-110 -5.5q-180 0 -272 168.5t-40 428.5zM246 576q-49 -242 10 -367.5t206 -125.5q45 0 95 3.5 t97 11.5l252 1260q-43 7 -90.5 11t-96.5 4q-135 0 -251 -133.5t-161 -357.5z" />
<glyph unicode="&#x153;" horiz-adv-x="1508" d="M109 524l6 32q51 255 181 400.5t306 145.5q102 0 172.5 -65t99.5 -179q71 116 165.5 180t193.5 64q153 0 222.5 -128t28.5 -336l-21 -103h-587l-5 -25q-39 -195 7.5 -311t168.5 -116q79 0 150 31.5t125 87.5l30 -85q-58 -63 -139.5 -100.5t-186.5 -37.5q-98 0 -170 64 t-101 175q-70 -116 -166 -177.5t-209 -61.5q-163 0 -241 154.5t-30 390.5zM227 524q-40 -200 3 -320.5t171 -120.5q115 0 213 129t135 312l6 32q39 196 -4.5 318t-169.5 122q-115 0 -213.5 -130t-134.5 -310zM906 644l2 -5h458l6 30q29 149 -11.5 238t-148.5 89 q-88 0 -176 -102t-130 -250z" />
<glyph unicode="&#x178;" horiz-adv-x="1017" d="M245 1456h136l177 -764l6 -1l484 765h135l-596 -924l-107 -532h-117l108 541zM477 1631l26 160h157l-26 -160h-157zM868 1631l26 160h156l-26 -160h-156z" />
<glyph unicode="&#x2c6;" horiz-adv-x="752" d="M309 1252l5 21l229 222h83l143 -224l-4 -19h-104l-92 166l-159 -166h-101z" />
<glyph unicode="&#x2da;" horiz-adv-x="595" d="M326 1323q14 75 67 121.5t117 46.5q57 0 93 -49.5t23 -118.5q-16 -77 -67.5 -121t-114.5 -44q-59 0 -96 47t-22 118zM398 1323q-9 -43 8.5 -67.5t51.5 -24.5q30 0 58 26.5t37 65.5q8 43 -8.5 68.5t-49.5 25.5q-31 0 -60.5 -27.5t-36.5 -66.5z" />
<glyph unicode="&#x2dc;" horiz-adv-x="758" d="M239 1280q14 90 67.5 147.5t122.5 57.5q45 0 102.5 -55t99.5 -55q34 0 65.5 36.5t40.5 90.5l68 -21q-15 -92 -68.5 -148.5t-121.5 -56.5q-54 0 -107 54.5t-95 54.5q-35 0 -66 -35t-39 -88z" />
<glyph unicode="&#x2000;" horiz-adv-x="932" />
<glyph unicode="&#x2001;" horiz-adv-x="1865" />
<glyph unicode="&#x2002;" horiz-adv-x="932" />
<glyph unicode="&#x2003;" horiz-adv-x="1865" />
<glyph unicode="&#x2004;" horiz-adv-x="621" />
<glyph unicode="&#x2005;" horiz-adv-x="466" />
<glyph unicode="&#x2006;" horiz-adv-x="310" />
<glyph unicode="&#x2007;" horiz-adv-x="310" />
<glyph unicode="&#x2008;" horiz-adv-x="233" />
<glyph unicode="&#x2009;" horiz-adv-x="373" />
<glyph unicode="&#x200a;" horiz-adv-x="103" />
<glyph unicode="&#x2010;" horiz-adv-x="483" d="M78 568l20 104h380l-20 -104h-380z" />
<glyph unicode="&#x2011;" horiz-adv-x="483" d="M78 568l20 104h380l-20 -104h-380z" />
<glyph unicode="&#x2012;" horiz-adv-x="483" d="M78 568l20 104h380l-20 -104h-380z" />
<glyph unicode="&#x2013;" horiz-adv-x="1145" d="M218 684l27 104h856l-28 -104h-855z" />
<glyph unicode="&#x2014;" horiz-adv-x="1341" d="M214 684l34 104h1053l-34 -104h-1053z" />
<glyph unicode="&#x2018;" horiz-adv-x="332" d="M211 1071l35 175l166 314h64l-112 -315l-35 -174h-118z" />
<glyph unicode="&#x2019;" horiz-adv-x="332" d="M211 1071l109 306l37 183h119l-36 -180l-165 -309h-64z" />
<glyph unicode="&#x201a;" horiz-adv-x="326" d="M-46 -213l97 266l41 205h119l-39 -195l-154 -276h-64z" />
<glyph unicode="&#x201c;" horiz-adv-x="551" d="M211 1071l35 175l166 314h64l-112 -315l-35 -174h-118zM430 1071l35 175l166 314h64l-112 -315l-35 -174h-118z" />
<glyph unicode="&#x201d;" horiz-adv-x="556" d="M211 1071l109 306l37 183h119l-36 -180l-165 -309h-64zM435 1071l109 306l37 183h119l-36 -180l-165 -309h-64z" />
<glyph unicode="&#x201e;" horiz-adv-x="537" d="M-44 -203l103 296l36 181h119l-35 -175l-159 -302h-64zM166 -203l103 299l36 178h119l-35 -175l-159 -302h-64z" />
<glyph unicode="&#x2026;" horiz-adv-x="1084" d="M69 0l33 166h127l-33 -166h-127zM403 0l33 166h127l-33 -166h-127zM720 0l33 166h127l-33 -166h-127z" />
<glyph unicode="&#x202f;" horiz-adv-x="373" />
<glyph unicode="&#x2039;" horiz-adv-x="511" d="M123 546l1 6l3 13l309 379h96l-289 -389l133 -389h-96z" />
<glyph unicode="&#x203a;" horiz-adv-x="511" d="M35 166l288 389l-131 394h96l156 -384l-2 -6h1l-3 -13l-309 -380h-96z" />
<glyph unicode="&#x205f;" horiz-adv-x="466" />
<glyph unicode="&#x20ac;" horiz-adv-x="879" d="M98 531l18 104h126l39 167h-126l18 104h126l7 36q52 260 186 397.5t315 137.5q42 0 88 -8.5t92 -22.5l-33 -110q-38 16 -80.5 25.5t-87.5 9.5q-120 0 -221.5 -117t-139.5 -310l-8 -38h413l-18 -104h-413l-39 -167h413l-18 -104h-413l-3 -17q-42 -210 9.5 -320.5 t181.5 -110.5q43 0 90.5 8.5t89.5 25.5l-10 -107q-47 -15 -95 -23t-96 -8q-165 0 -251 147.5t-37 387.5l3 17h-126z" />
<glyph unicode="&#x2122;" horiz-adv-x="1030" d="M283 1386l14 70h304l-14 -70h-119l-93 -467h-63l93 467h-122zM556 919l107 537h80l49 -418l6 -1l215 419h76l-107 -537h-63l72 364l-6 2l-194 -366h-40l-51 378h-6l-75 -378h-63z" />
<glyph unicode="&#xe000;" horiz-adv-x="1080" d="M0 0v1080h1080v-1080h-1080z" />
<hkern u1="&#x22;" u2="w" k="-11" />
<hkern u1="&#x27;" u2="w" k="-11" />
<hkern u1="&#x28;" u2="&#x178;" k="-22" />
<hkern u1="&#x28;" u2="Y" k="-22" />
<hkern u1="&#x28;" u2="W" k="-18" />
<hkern u1="&#x28;" u2="V" k="-20" />
<hkern u1="&#x2f;" u2="&#x2f;" k="224" />
<hkern u1="A" u2="w" k="33" />
<hkern u1="A" u2="t" k="17" />
<hkern u1="A" u2="&#x3f;" k="61" />
<hkern u1="C" u2="&#x7d;" k="17" />
<hkern u1="C" u2="]" k="12" />
<hkern u1="C" u2="&#x29;" k="26" />
<hkern u1="D" u2="&#xc6;" k="33" />
<hkern u1="E" u2="w" k="22" />
<hkern u1="E" u2="f" k="18" />
<hkern u1="F" u2="&#x2026;" k="234" />
<hkern u1="F" u2="&#x201e;" k="234" />
<hkern u1="F" u2="&#x201a;" k="234" />
<hkern u1="F" u2="&#x153;" k="21" />
<hkern u1="F" u2="&#xff;" k="24" />
<hkern u1="F" u2="&#xfc;" k="22" />
<hkern u1="F" u2="&#xfb;" k="22" />
<hkern u1="F" u2="&#xf9;" k="22" />
<hkern u1="F" u2="&#xf4;" k="21" />
<hkern u1="F" u2="&#xeb;" k="21" />
<hkern u1="F" u2="&#xea;" k="21" />
<hkern u1="F" u2="&#xe9;" k="21" />
<hkern u1="F" u2="&#xe8;" k="21" />
<hkern u1="F" u2="&#xe7;" k="21" />
<hkern u1="F" u2="&#xe2;" k="34" />
<hkern u1="F" u2="&#xe0;" k="34" />
<hkern u1="F" u2="&#xc2;" k="59" />
<hkern u1="F" u2="&#xc0;" k="59" />
<hkern u1="F" u2="y" k="24" />
<hkern u1="F" u2="v" k="24" />
<hkern u1="F" u2="u" k="22" />
<hkern u1="F" u2="r" k="26" />
<hkern u1="F" u2="q" k="21" />
<hkern u1="F" u2="o" k="21" />
<hkern u1="F" u2="g" k="21" />
<hkern u1="F" u2="e" k="21" />
<hkern u1="F" u2="d" k="21" />
<hkern u1="F" u2="c" k="21" />
<hkern u1="F" u2="a" k="34" />
<hkern u1="F" u2="T" k="-20" />
<hkern u1="F" u2="J" k="264" />
<hkern u1="F" u2="A" k="59" />
<hkern u1="F" u2="&#x2e;" k="234" />
<hkern u1="F" u2="&#x2c;" k="234" />
<hkern u1="K" u2="w" k="63" />
<hkern u1="L" u2="w" k="92" />
<hkern u1="O" u2="&#xc6;" k="33" />
<hkern u1="P" u2="&#xc6;" k="97" />
<hkern u1="P" u2="t" k="-14" />
<hkern u1="Q" u2="&#x178;" k="35" />
<hkern u1="Q" u2="Y" k="35" />
<hkern u1="Q" u2="W" k="20" />
<hkern u1="Q" u2="V" k="28" />
<hkern u1="Q" u2="T" k="43" />
<hkern u1="R" u2="&#x178;" k="48" />
<hkern u1="R" u2="Y" k="48" />
<hkern u1="R" u2="V" k="19" />
<hkern u1="R" u2="T" k="80" />
<hkern u1="T" u2="&#xe6;" k="114" />
<hkern u1="T" u2="&#xc6;" k="179" />
<hkern u1="T" u2="&#xbb;" k="216" />
<hkern u1="T" u2="&#xab;" k="328" />
<hkern u1="T" u2="w" k="57" />
<hkern u1="T" u2="r" k="75" />
<hkern u1="V" u2="&#x7d;" k="-19" />
<hkern u1="V" u2="r" k="30" />
<hkern u1="V" u2="]" k="-17" />
<hkern u1="V" u2="&#x29;" k="-20" />
<hkern u1="W" u2="&#x7d;" k="-14" />
<hkern u1="W" u2="r" k="21" />
<hkern u1="W" u2="]" k="-12" />
<hkern u1="W" u2="&#x29;" k="-15" />
<hkern u1="Y" u2="&#xe6;" k="63" />
<hkern u1="Y" u2="&#xc6;" k="96" />
<hkern u1="Y" u2="&#xbb;" k="51" />
<hkern u1="Y" u2="&#xab;" k="82" />
<hkern u1="Y" u2="&#x7d;" k="-19" />
<hkern u1="Y" u2="t" k="22" />
<hkern u1="Y" u2="r" k="40" />
<hkern u1="Y" u2="f" k="22" />
<hkern u1="Y" u2="]" k="-18" />
<hkern u1="Y" u2="&#x2a;" k="49" />
<hkern u1="Y" u2="&#x29;" k="-20" />
<hkern u1="Y" u2="&#x26;" k="30" />
<hkern u1="Z" u2="w" k="27" />
<hkern u1="[" u2="&#xdc;" k="18" />
<hkern u1="[" u2="&#xdb;" k="18" />
<hkern u1="[" u2="&#xd9;" k="18" />
<hkern u1="[" u2="U" k="18" />
<hkern u1="[" u2="J" k="18" />
<hkern u1="f" u2="&#x201d;" k="-16" />
<hkern u1="f" u2="&#x201c;" k="-16" />
<hkern u1="f" u2="&#x2019;" k="-16" />
<hkern u1="f" u2="&#x2018;" k="-16" />
<hkern u1="f" u2="&#x153;" k="24" />
<hkern u1="f" u2="&#xeb;" k="24" />
<hkern u1="f" u2="&#xea;" k="24" />
<hkern u1="f" u2="&#xe9;" k="24" />
<hkern u1="f" u2="&#xe8;" k="24" />
<hkern u1="f" u2="&#xe7;" k="24" />
<hkern u1="f" u2="&#x7d;" k="-19" />
<hkern u1="f" u2="q" k="24" />
<hkern u1="f" u2="g" k="24" />
<hkern u1="f" u2="e" k="24" />
<hkern u1="f" u2="d" k="24" />
<hkern u1="f" u2="c" k="24" />
<hkern u1="f" u2="]" k="-18" />
<hkern u1="f" u2="&#x29;" k="-20" />
<hkern u1="f" u2="&#x27;" k="-16" />
<hkern u1="f" u2="&#x22;" k="-16" />
<hkern u1="k" u2="&#x153;" k="20" />
<hkern u1="k" u2="&#xeb;" k="20" />
<hkern u1="k" u2="&#xea;" k="20" />
<hkern u1="k" u2="&#xe9;" k="20" />
<hkern u1="k" u2="&#xe8;" k="20" />
<hkern u1="k" u2="&#xe7;" k="20" />
<hkern u1="k" u2="q" k="20" />
<hkern u1="k" u2="g" k="20" />
<hkern u1="k" u2="e" k="20" />
<hkern u1="k" u2="d" k="20" />
<hkern u1="k" u2="c" k="20" />
<hkern u1="r" u2="w" k="-17" />
<hkern u1="r" u2="t" k="-32" />
<hkern u1="r" u2="f" k="-15" />
<hkern u1="t" u2="&#xf4;" k="20" />
<hkern u1="t" u2="o" k="20" />
<hkern u1="v" u2="f" k="-13" />
<hkern u1="w" u2="&#x2026;" k="124" />
<hkern u1="w" u2="&#x201e;" k="124" />
<hkern u1="w" u2="&#x201a;" k="124" />
<hkern u1="w" u2="&#x2e;" k="124" />
<hkern u1="w" u2="&#x2c;" k="124" />
<hkern u1="y" u2="f" k="-13" />
<hkern u1="&#x7b;" u2="&#xdc;" k="20" />
<hkern u1="&#x7b;" u2="&#xdb;" k="20" />
<hkern u1="&#x7b;" u2="&#xd9;" k="20" />
<hkern u1="&#x7b;" u2="U" k="20" />
<hkern u1="&#x7b;" u2="J" k="20" />
<hkern u1="&#xc0;" u2="w" k="33" />
<hkern u1="&#xc0;" u2="t" k="17" />
<hkern u1="&#xc0;" u2="&#x3f;" k="61" />
<hkern u1="&#xc2;" u2="w" k="33" />
<hkern u1="&#xc2;" u2="t" k="17" />
<hkern u1="&#xc2;" u2="&#x3f;" k="61" />
<hkern u1="&#xc7;" u2="&#x7d;" k="17" />
<hkern u1="&#xc7;" u2="]" k="12" />
<hkern u1="&#xc7;" u2="&#x29;" k="26" />
<hkern u1="&#xc8;" u2="w" k="22" />
<hkern u1="&#xc8;" u2="f" k="18" />
<hkern u1="&#xc9;" u2="w" k="22" />
<hkern u1="&#xc9;" u2="f" k="18" />
<hkern u1="&#xca;" u2="w" k="22" />
<hkern u1="&#xca;" u2="f" k="18" />
<hkern u1="&#xcb;" u2="w" k="22" />
<hkern u1="&#xcb;" u2="f" k="18" />
<hkern u1="&#xd4;" u2="&#xc6;" k="33" />
<hkern u1="&#xff;" u2="f" k="-13" />
<hkern u1="&#x178;" u2="&#xe6;" k="63" />
<hkern u1="&#x178;" u2="&#xc6;" k="96" />
<hkern u1="&#x178;" u2="&#xbb;" k="51" />
<hkern u1="&#x178;" u2="&#xab;" k="82" />
<hkern u1="&#x178;" u2="&#x7d;" k="-19" />
<hkern u1="&#x178;" u2="t" k="22" />
<hkern u1="&#x178;" u2="r" k="40" />
<hkern u1="&#x178;" u2="f" k="22" />
<hkern u1="&#x178;" u2="]" k="-18" />
<hkern u1="&#x178;" u2="&#x2a;" k="49" />
<hkern u1="&#x178;" u2="&#x29;" k="-20" />
<hkern u1="&#x178;" u2="&#x26;" k="30" />
<hkern u1="&#x2018;" u2="w" k="-11" />
<hkern u1="&#x2019;" u2="w" k="-11" />
<hkern u1="&#x201c;" u2="w" k="-11" />
<hkern u1="&#x201d;" u2="w" k="-11" />
<hkern g1="comma,period,quotesinglbase,quotedblbase,ellipsis" 	g2="quotedbl,quotesingle,quoteleft,quoteright,quotedblleft,quotedblright" 	k="170" />
<hkern g1="A,Agrave,Acircumflex" 	g2="quotedbl,quotesingle,quoteleft,quoteright,quotedblleft,quotedblright" 	k="120" />
<hkern g1="A,Agrave,Acircumflex" 	g2="o,ocircumflex" 	k="12" />
<hkern g1="A,Agrave,Acircumflex" 	g2="C,G,O,Q,Ccedilla,Ocircumflex,OE" 	k="11" />
<hkern g1="A,Agrave,Acircumflex" 	g2="T" 	k="129" />
<hkern g1="A,Agrave,Acircumflex" 	g2="U,Ugrave,Ucircumflex,Udieresis" 	k="17" />
<hkern g1="A,Agrave,Acircumflex" 	g2="V" 	k="87" />
<hkern g1="A,Agrave,Acircumflex" 	g2="W" 	k="69" />
<hkern g1="A,Agrave,Acircumflex" 	g2="Y,Ydieresis" 	k="94" />
<hkern g1="A,Agrave,Acircumflex" 	g2="u,ugrave,ucircumflex,udieresis" 	k="11" />
<hkern g1="A,Agrave,Acircumflex" 	g2="v,y,ydieresis" 	k="50" />
<hkern g1="A,Agrave,Acircumflex" 	g2="z" 	k="-12" />
<hkern g1="B" 	g2="T" 	k="27" />
<hkern g1="B" 	g2="V" 	k="24" />
<hkern g1="B" 	g2="Y,Ydieresis" 	k="55" />
<hkern g1="C,Ccedilla" 	g2="T" 	k="29" />
<hkern g1="D,O,Ocircumflex" 	g2="A,Agrave,Acircumflex" 	k="21" />
<hkern g1="D,O,Ocircumflex" 	g2="T" 	k="27" />
<hkern g1="D,O,Ocircumflex" 	g2="V" 	k="22" />
<hkern g1="D,O,Ocircumflex" 	g2="Y,Ydieresis" 	k="43" />
<hkern g1="D,O,Ocircumflex" 	g2="comma,period,quotesinglbase,quotedblbase,ellipsis" 	k="102" />
<hkern g1="D,O,Ocircumflex" 	g2="X" 	k="22" />
<hkern g1="D,O,Ocircumflex" 	g2="Z" 	k="23" />
<hkern g1="E,Egrave,Eacute,Ecircumflex,Edieresis" 	g2="c,d,e,g,q,ccedilla,egrave,eacute,ecircumflex,edieresis,oe" 	k="19" />
<hkern g1="E,Egrave,Eacute,Ecircumflex,Edieresis" 	g2="o,ocircumflex" 	k="19" />
<hkern g1="E,Egrave,Eacute,Ecircumflex,Edieresis" 	g2="T" 	k="-20" />
<hkern g1="E,Egrave,Eacute,Ecircumflex,Edieresis" 	g2="u,ugrave,ucircumflex,udieresis" 	k="17" />
<hkern g1="E,Egrave,Eacute,Ecircumflex,Edieresis" 	g2="v,y,ydieresis" 	k="26" />
<hkern g1="H,I,M,N,Icircumflex,Idieresis" 	g2="A,Agrave,Acircumflex" 	k="-18" />
<hkern g1="H,I,M,N,Icircumflex,Idieresis" 	g2="T" 	k="29" />
<hkern g1="H,I,M,N,Icircumflex,Idieresis" 	g2="Y,Ydieresis" 	k="28" />
<hkern g1="H,I,M,N,Icircumflex,Idieresis" 	g2="X" 	k="-17" />
<hkern g1="J,U,Ugrave,Ucircumflex,Udieresis" 	g2="A,Agrave,Acircumflex" 	k="22" />
<hkern g1="K" 	g2="c,d,e,g,q,ccedilla,egrave,eacute,ecircumflex,edieresis,oe" 	k="26" />
<hkern g1="K" 	g2="m,n,p" 	k="23" />
<hkern g1="K" 	g2="o,ocircumflex" 	k="27" />
<hkern g1="K" 	g2="C,G,O,Q,Ccedilla,Ocircumflex,OE" 	k="31" />
<hkern g1="K" 	g2="u,ugrave,ucircumflex,udieresis" 	k="23" />
<hkern g1="K" 	g2="v,y,ydieresis" 	k="40" />
<hkern g1="K" 	g2="hyphen,endash,emdash" 	k="64" />
<hkern g1="L" 	g2="quotedbl,quotesingle,quoteleft,quoteright,quotedblleft,quotedblright" 	k="138" />
<hkern g1="L" 	g2="A,Agrave,Acircumflex" 	k="-19" />
<hkern g1="L" 	g2="C,G,O,Q,Ccedilla,Ocircumflex,OE" 	k="65" />
<hkern g1="L" 	g2="T" 	k="275" />
<hkern g1="L" 	g2="U,Ugrave,Ucircumflex,Udieresis" 	k="54" />
<hkern g1="L" 	g2="V" 	k="175" />
<hkern g1="L" 	g2="W" 	k="143" />
<hkern g1="L" 	g2="Y,Ydieresis" 	k="239" />
<hkern g1="L" 	g2="u,ugrave,ucircumflex,udieresis" 	k="44" />
<hkern g1="L" 	g2="v,y,ydieresis" 	k="133" />
<hkern g1="P" 	g2="A,Agrave,Acircumflex" 	k="138" />
<hkern g1="P" 	g2="a,agrave,acircumflex" 	k="11" />
<hkern g1="P" 	g2="c,d,e,g,q,ccedilla,egrave,eacute,ecircumflex,edieresis,oe" 	k="13" />
<hkern g1="P" 	g2="o,ocircumflex" 	k="13" />
<hkern g1="P" 	g2="v,y,ydieresis" 	k="-15" />
<hkern g1="P" 	g2="comma,period,quotesinglbase,quotedblbase,ellipsis" 	k="324" />
<hkern g1="P" 	g2="X" 	k="31" />
<hkern g1="P" 	g2="Z" 	k="26" />
<hkern g1="P" 	g2="J" 	k="200" />
<hkern g1="T" 	g2="A,Agrave,Acircumflex" 	k="79" />
<hkern g1="T" 	g2="a,agrave,acircumflex" 	k="113" />
<hkern g1="T" 	g2="c,d,e,g,q,ccedilla,egrave,eacute,ecircumflex,edieresis,oe" 	k="99" />
<hkern g1="T" 	g2="m,n,p" 	k="109" />
<hkern g1="T" 	g2="o,ocircumflex" 	k="99" />
<hkern g1="T" 	g2="s" 	k="116" />
<hkern g1="T" 	g2="C,G,O,Q,Ccedilla,Ocircumflex,OE" 	k="28" />
<hkern g1="T" 	g2="T" 	k="-16" />
<hkern g1="T" 	g2="V" 	k="-16" />
<hkern g1="T" 	g2="W" 	k="-15" />
<hkern g1="T" 	g2="Y,Ydieresis" 	k="-16" />
<hkern g1="T" 	g2="u,ugrave,ucircumflex,udieresis" 	k="95" />
<hkern g1="T" 	g2="v,y,ydieresis" 	k="72" />
<hkern g1="T" 	g2="z" 	k="60" />
<hkern g1="T" 	g2="comma,period,quotesinglbase,quotedblbase,ellipsis" 	k="218" />
<hkern g1="T" 	g2="hyphen,endash,emdash" 	k="232" />
<hkern g1="T" 	g2="J" 	k="240" />
<hkern g1="T" 	g2="S" 	k="16" />
<hkern g1="T" 	g2="x" 	k="77" />
<hkern g1="V" 	g2="A,Agrave,Acircumflex" 	k="75" />
<hkern g1="V" 	g2="a,agrave,acircumflex" 	k="46" />
<hkern g1="V" 	g2="c,d,e,g,q,ccedilla,egrave,eacute,ecircumflex,edieresis,oe" 	k="44" />
<hkern g1="V" 	g2="o,ocircumflex" 	k="46" />
<hkern g1="V" 	g2="C,G,O,Q,Ccedilla,Ocircumflex,OE" 	k="13" />
<hkern g1="V" 	g2="u,ugrave,ucircumflex,udieresis" 	k="28" />
<hkern g1="V" 	g2="v,y,ydieresis" 	k="11" />
<hkern g1="V" 	g2="comma,period,quotesinglbase,quotedblbase,ellipsis" 	k="225" />
<hkern g1="V" 	g2="hyphen,endash,emdash" 	k="37" />
<hkern g1="W" 	g2="A,Agrave,Acircumflex" 	k="43" />
<hkern g1="W" 	g2="a,agrave,acircumflex" 	k="33" />
<hkern g1="W" 	g2="c,d,e,g,q,ccedilla,egrave,eacute,ecircumflex,edieresis,oe" 	k="31" />
<hkern g1="W" 	g2="o,ocircumflex" 	k="31" />
<hkern g1="W" 	g2="T" 	k="-14" />
<hkern g1="W" 	g2="u,ugrave,ucircumflex,udieresis" 	k="19" />
<hkern g1="W" 	g2="comma,period,quotesinglbase,quotedblbase,ellipsis" 	k="123" />
<hkern g1="W" 	g2="hyphen,endash,emdash" 	k="60" />
<hkern g1="X" 	g2="c,d,e,g,q,ccedilla,egrave,eacute,ecircumflex,edieresis,oe" 	k="26" />
<hkern g1="X" 	g2="o,ocircumflex" 	k="21" />
<hkern g1="X" 	g2="C,G,O,Q,Ccedilla,Ocircumflex,OE" 	k="25" />
<hkern g1="X" 	g2="V" 	k="-14" />
<hkern g1="X" 	g2="u,ugrave,ucircumflex,udieresis" 	k="21" />
<hkern g1="X" 	g2="v,y,ydieresis" 	k="31" />
<hkern g1="X" 	g2="hyphen,endash,emdash" 	k="46" />
<hkern g1="Y,Ydieresis" 	g2="A,Agrave,Acircumflex" 	k="94" />
<hkern g1="Y,Ydieresis" 	g2="a,agrave,acircumflex" 	k="73" />
<hkern g1="Y,Ydieresis" 	g2="c,d,e,g,q,ccedilla,egrave,eacute,ecircumflex,edieresis,oe" 	k="65" />
<hkern g1="Y,Ydieresis" 	g2="m,n,p" 	k="40" />
<hkern g1="Y,Ydieresis" 	g2="o,ocircumflex" 	k="65" />
<hkern g1="Y,Ydieresis" 	g2="s" 	k="58" />
<hkern g1="Y,Ydieresis" 	g2="C,G,O,Q,Ccedilla,Ocircumflex,OE" 	k="29" />
<hkern g1="Y,Ydieresis" 	g2="T" 	k="-17" />
<hkern g1="Y,Ydieresis" 	g2="U,Ugrave,Ucircumflex,Udieresis" 	k="96" />
<hkern g1="Y,Ydieresis" 	g2="V" 	k="-18" />
<hkern g1="Y,Ydieresis" 	g2="W" 	k="-17" />
<hkern g1="Y,Ydieresis" 	g2="Y,Ydieresis" 	k="-18" />
<hkern g1="Y,Ydieresis" 	g2="u,ugrave,ucircumflex,udieresis" 	k="39" />
<hkern g1="Y,Ydieresis" 	g2="v,y,ydieresis" 	k="20" />
<hkern g1="Y,Ydieresis" 	g2="z" 	k="30" />
<hkern g1="Y,Ydieresis" 	g2="comma,period,quotesinglbase,quotedblbase,ellipsis" 	k="211" />
<hkern g1="Y,Ydieresis" 	g2="X" 	k="-13" />
<hkern g1="Y,Ydieresis" 	g2="hyphen,endash,emdash" 	k="52" />
<hkern g1="Y,Ydieresis" 	g2="J" 	k="96" />
<hkern g1="Y,Ydieresis" 	g2="S" 	k="16" />
<hkern g1="Y,Ydieresis" 	g2="x" 	k="23" />
<hkern g1="Z" 	g2="A,Agrave,Acircumflex" 	k="-13" />
<hkern g1="Z" 	g2="c,d,e,g,q,ccedilla,egrave,eacute,ecircumflex,edieresis,oe" 	k="21" />
<hkern g1="Z" 	g2="o,ocircumflex" 	k="21" />
<hkern g1="Z" 	g2="C,G,O,Q,Ccedilla,Ocircumflex,OE" 	k="26" />
<hkern g1="Z" 	g2="u,ugrave,ucircumflex,udieresis" 	k="19" />
<hkern g1="Z" 	g2="v,y,ydieresis" 	k="27" />
<hkern g1="a,agrave,acircumflex" 	g2="quotedbl,quotesingle,quoteleft,quoteright,quotedblleft,quotedblright" 	k="67" />
<hkern g1="a,agrave,acircumflex" 	g2="v,y,ydieresis" 	k="15" />
<hkern g1="b,p" 	g2="quotedbl,quotesingle,quoteleft,quoteright,quotedblleft,quotedblright" 	k="29" />
<hkern g1="b,p" 	g2="v,y,ydieresis" 	k="11" />
<hkern g1="b,p" 	g2="z" 	k="15" />
<hkern g1="b,p" 	g2="x" 	k="15" />
<hkern g1="c,ccedilla" 	g2="quotedbl,quotesingle,quoteleft,quoteright,quotedblleft,quotedblright" 	k="11" />
<hkern g1="e,egrave,eacute,ecircumflex,edieresis" 	g2="quotedbl,quotesingle,quoteleft,quoteright,quotedblleft,quotedblright" 	k="14" />
<hkern g1="e,egrave,eacute,ecircumflex,edieresis" 	g2="v,y,ydieresis" 	k="13" />
<hkern g1="h,m,n" 	g2="quotedbl,quotesingle,quoteleft,quoteright,quotedblleft,quotedblright" 	k="16" />
<hkern g1="o,ocircumflex" 	g2="quotedbl,quotesingle,quoteleft,quoteright,quotedblleft,quotedblright" 	k="20" />
<hkern g1="o,ocircumflex" 	g2="v,y,ydieresis" 	k="15" />
<hkern g1="o,ocircumflex" 	g2="z" 	k="16" />
<hkern g1="o,ocircumflex" 	g2="x" 	k="21" />
<hkern g1="r" 	g2="quotedbl,quotesingle,quoteleft,quoteright,quotedblleft,quotedblright" 	k="-16" />
<hkern g1="r" 	g2="c,d,e,g,q,ccedilla,egrave,eacute,ecircumflex,edieresis,oe" 	k="19" />
<hkern g1="r" 	g2="o,ocircumflex" 	k="20" />
<hkern g1="r" 	g2="v,y,ydieresis" 	k="-18" />
<hkern g1="r" 	g2="comma,period,quotesinglbase,quotedblbase,ellipsis" 	k="123" />
<hkern g1="v,y,ydieresis" 	g2="quotedbl,quotesingle,quoteleft,quoteright,quotedblleft,quotedblright" 	k="-15" />
<hkern g1="v,y,ydieresis" 	g2="a,agrave,acircumflex" 	k="15" />
<hkern g1="v,y,ydieresis" 	g2="c,d,e,g,q,ccedilla,egrave,eacute,ecircumflex,edieresis,oe" 	k="13" />
<hkern g1="v,y,ydieresis" 	g2="o,ocircumflex" 	k="15" />
<hkern g1="v,y,ydieresis" 	g2="comma,period,quotesinglbase,quotedblbase,ellipsis" 	k="107" />
<hkern g1="x" 	g2="c,d,e,g,q,ccedilla,egrave,eacute,ecircumflex,edieresis,oe" 	k="20" />
<hkern g1="x" 	g2="o,ocircumflex" 	k="20" />
<hkern g1="z" 	g2="c,d,e,g,q,ccedilla,egrave,eacute,ecircumflex,edieresis,oe" 	k="16" />
<hkern g1="z" 	g2="o,ocircumflex" 	k="16" />
</font>
</defs></svg> 